EESchema Schematic File Version 4
LIBS:FEAD-cache
EELAYER 26 0
EELAYER END
$Descr A4 11693 8268
encoding utf-8
Sheet 1 11
Title ""
Date ""
Rev ""
Comp ""
Comment1 ""
Comment2 ""
Comment3 ""
Comment4 ""
$EndDescr
$Sheet
S 8900 1000 1150 1500
U 57068F5F
F0 "FE_connect" 50
F1 "sch/FE_connect.sch" 50
F2 "Ch_out_P[1..5]" I L 8900 1050 39 
F3 "Ch_out_N[1..5]" I L 8900 1125 39 
F4 "I2C_clk_in" O R 10050 1275 39 
F5 "ReSync_in-" O R 10050 1500 39 
F6 "I2C_data_in" B R 10050 1200 39 
F7 "Pwup_rstb_in" O R 10050 1350 39 
F8 "ReSync_in+" O R 10050 1425 39 
F9 "CalibMode_in" O R 10050 1650 39 
F10 "TP_trigger_in" O R 10050 1725 39 
F11 "TestMode_in" O R 10050 1800 39 
F12 "Temp_CATIA_out" I L 8900 1775 39 
F13 "Temp_APD_out" I L 8900 1700 39 
F14 "CLK_in_P[1..5]" O R 10050 1050 39 
F15 "CLK_in_N[1..5]" O R 10050 1125 39 
F16 "CalBusy_out_[1..5]" I L 8900 1550 39 
F17 "OVF_out_[1..5]" I L 8900 1625 39 
F18 "PllLock_out_[1..5]" I L 8900 1475 39 
F19 "SEUA_out_[1..5]" I L 8900 1325 39 
F20 "SEUD_out_[1..5]" I L 8900 1400 39 
$EndSheet
Text Notes 1375 750  0    118  ~ 0
VFE Side
Text Notes 9200 750  0    118  ~ 0
FE Side
$Sheet
S 4250 4275 750  825 
U 571914DE
F0 "FPGA Gb" 50
F1 "sch/FPGA_Gb.sch" 50
F2 "SFP_Tx+" I L 4250 4350 39 
F3 "SFP_Tx-" I L 4250 4425 39 
F4 "SFP_Rx+" I L 4250 4525 39 
F5 "SFP_Rx-" I L 4250 4600 39 
F6 "ADDR[0..3]" O L 4250 4975 39 
$EndSheet
$Sheet
S 4650 950  1700 3125
U 57195CF6
F0 "Convert" 50
F1 "sch/Convert.sch" 50
F2 "SFP_Present" I L 4650 3700 50 
F3 "SFP_LOS" I L 4650 3775 50 
F4 "SFP_Tx_Fault" I L 4650 3850 50 
F5 "SFP_SCL" O L 4650 3925 50 
F6 "SFP_SDA" B L 4650 4000 50 
F7 "LED[0..3]" O R 6350 3850 50 
F8 "CLK_in+" I R 6350 2725 50 
F9 "CLK_in-" I R 6350 2800 50 
F10 "SEUA_in_[1..5]" I L 4650 2050 50 
F11 "SEUD_in_[1..5]" I L 4650 2150 50 
F12 "SEUA_out_[1..5]" I R 6350 2050 50 
F13 "SEUD_out_[1..5]" I R 6350 2150 50 
F14 "CalibMode_out" O L 4650 3300 50 
F15 "TestMode_out" O L 4650 3375 50 
F16 "PllLock_in_[1..5]" I L 4650 2250 50 
F17 "CalBusy_in_[1..5]" I L 4650 2350 50 
F18 "OVF_in_[1..5]" I L 4650 2450 50 
F19 "PllLock_out_[1..5]" I R 6350 2250 50 
F20 "CalBusy_out_[1..5]" I R 6350 2350 50 
F21 "OVF_out_[1..5]" I R 6350 2450 50 
F22 "CalibMode_in" O R 6350 3300 50 
F23 "TestMode_in" O R 6350 3375 50 
F24 "ReSync_out+" I L 4650 2950 50 
F25 "ReSync_out-" I L 4650 3025 50 
F26 "ReSync_in+" I R 6350 2950 50 
F27 "ReSync_in-" I R 6350 3025 50 
F28 "Temp_APD_in" O L 4650 2525 50 
F29 "Temp_CATIA_in" O L 4650 2600 50 
F30 "Temp_APD_out" O R 6350 2525 50 
F31 "Temp_CATIA_out" O R 6350 2600 50 
F32 "Clk_Select" O R 6350 3525 50 
F33 "I2C_clk_out" O L 4650 3150 50 
F34 "I2C_data_out" B L 4650 3225 50 
F35 "I2C_clk_in" I R 6350 3150 50 
F36 "I2C_data_in" B R 6350 3225 50 
F37 "Pwup_Reset_in" I R 6350 2875 50 
F38 "Pwup_Reset_out" O L 4650 2875 50 
F39 "TP_trigger_out" O L 4650 3450 50 
F40 "TP_trigger_in" I R 6350 3450 50 
F41 "ADDR[0..3]" I R 6350 4000 50 
F42 "GPIO[0..3]" I R 6350 3925 50 
F43 "Ch_in_P[1..5]" I L 4650 1050 50 
F44 "Ch_in_N[1..5]" I L 4650 1150 50 
F45 "Ch_out_P[1..5]" O R 6350 1050 50 
F46 "Ch_out_N[1..5]" O R 6350 1150 50 
$EndSheet
Text Label 4025 1050 0    39   ~ 0
Ch_in_P[1..5]
Text Label 6525 1050 0    39   ~ 0
Ch_out_P[1..5]
Text Label 6525 1150 0    39   ~ 0
Ch_out_N[1..5]
Wire Bus Line
	4025 1050 4650 1050
Wire Bus Line
	6350 1150 7000 1150
Wire Bus Line
	6350 1050 7000 1050
$Sheet
S 1050 4250 1125 1175
U 571000A8
F0 "Sheet571000A7" 60
F1 "sch/SFP.sch" 60
F2 "SFP_Present" O R 2175 4775 39 
F3 "SFP_LOS" O R 2175 4875 39 
F4 "SFP_Tx_Fault" O R 2175 4975 39 
F5 "SFP_SCL" I R 2175 5225 39 
F6 "SFP_SDA" B R 2175 5325 39 
F7 "SFP_Rx+" O R 2175 4525 39 
F8 "SFP_Tx+" I R 2175 4350 39 
F9 "SFP_Rx-" O R 2175 4600 39 
F10 "SFP_Tx-" I R 2175 4425 39 
$EndSheet
Text Label 4025 3150 0    39   ~ 0
I2C_clk_out
Text Label 4025 3225 0    39   ~ 0
I2C_data_out
Wire Wire Line
	4650 3150 4025 3150
Wire Wire Line
	4650 3225 4025 3225
Text Label 650  1300 0    50   ~ 0
I2C_clk_out
Text Label 650  1225 0    50   ~ 0
I2C_data_out
Wire Wire Line
	650  1300 1250 1300
Wire Wire Line
	650  1225 1250 1225
Text Label 7000 3150 2    39   ~ 0
I2C_clk_in
Text Label 7000 3225 2    39   ~ 0
I2C_data_in
Wire Wire Line
	6350 3150 7000 3150
Wire Wire Line
	6350 3225 7000 3225
Text Label 10750 1275 2    39   ~ 0
I2C_clk_in
Text Label 10750 1200 2    39   ~ 0
I2C_data_in
Wire Wire Line
	10750 1275 10050 1275
Wire Wire Line
	10750 1200 10050 1200
Text Label 2300 4775 0    50   ~ 0
SFP_Present
Text Label 2300 4875 0    50   ~ 0
SFP_LOS
Text Label 2300 4975 0    50   ~ 0
SFP_Tx_Fault
Text Label 2300 5225 0    50   ~ 0
SFP_SCL
Text Label 2300 5325 0    50   ~ 0
SFP_SDA
Wire Wire Line
	2175 4775 2625 4775
Wire Wire Line
	2175 4875 2625 4875
Wire Wire Line
	2175 4975 2625 4975
Wire Wire Line
	2175 5225 2625 5225
Wire Wire Line
	2175 5325 2625 5325
Text Label 4025 3700 0    39   ~ 0
SFP_Present
Text Label 4025 3775 0    39   ~ 0
SFP_LOS
Text Label 4025 3850 0    39   ~ 0
SFP_Tx_Fault
Text Label 4025 3925 0    39   ~ 0
SFP_SCL
Text Label 4025 4000 0    39   ~ 0
SFP_SDA
Wire Wire Line
	4650 3700 4025 3700
Wire Wire Line
	4650 3775 4025 3775
Wire Wire Line
	4650 3850 4025 3850
Wire Wire Line
	4650 3925 4025 3925
Wire Wire Line
	4650 4000 4025 4000
$Sheet
S 5200 4275 775  825 
U 572B8C2E
F0 "Programming" 60
F1 "sch/prog.sch" 60
$EndSheet
$Sheet
S 6175 4275 775  825 
U 572C0D81
F0 "FPGA Power" 60
F1 "sch/FPGA_power.sch" 60
$EndSheet
Text Label 650  1400 0    50   ~ 0
Pwup_Reset_out
Wire Wire Line
	650  1400 1250 1400
Text Label 10750 1350 2    39   ~ 0
Pwup_Reset_in
Wire Wire Line
	10050 1350 10750 1350
$Sheet
S 7900 4650 850  800 
U 5787D549
F0 "Power" 60
F1 "sch/power.sch" 60
$EndSheet
Wire Notes Line
	3700 500  3700 6100
Wire Notes Line
	3700 6100 7300 6100
Wire Notes Line
	7300 6100 7300 500 
Wire Notes Line
	625  2650 625  500 
Wire Notes Line
	650  500  2950 500 
Wire Notes Line
	2950 500  2950 2650
Wire Notes Line
	2950 2650 650  2650
Wire Notes Line
	8200 2575 8200 500 
Wire Notes Line
	8200 500  10900 500 
Wire Notes Line
	10900 500  10900 2575
Wire Notes Line
	10900 2575 8200 2575
Wire Notes Line
	7300 500  3700 500 
Text Notes 4100 750  0    120  ~ 0
KINTEX 7: xc7k70t-fbg484-2
Wire Wire Line
	3350 7050 3350 7000
Text Label 7000 2875 2    39   ~ 0
Pwup_Reset_in
Wire Wire Line
	6350 2875 7000 2875
Text Label 4025 2875 0    39   ~ 0
Pwup_Reset_out
Wire Wire Line
	4025 2875 4650 2875
$Comp
L power1:PWR_FLAG #FLG0101
U 1 1 579F5F3A
P 3600 7050
F 0 "#FLG0101" H 3600 7145 50  0001 C CNN
F 1 "PWR_FLAG" H 3600 7230 39  0000 C CNN
F 2 "" H 3600 7050 50  0000 C CNN
F 3 "" H 3600 7050 50  0000 C CNN
	1    3600 7050
	-1   0    0    -1  
$EndComp
Wire Wire Line
	3900 7150 3900 7100
Wire Wire Line
	3600 7150 3600 7050
$Comp
L power1:GND #PWR0103
U 1 1 579C24C0
P 1550 7225
F 0 "#PWR0103" H 1550 6975 50  0001 C CNN
F 1 "GND" H 1550 7075 50  0000 C CNN
F 2 "" H 1550 7225 50  0000 C CNN
F 3 "" H 1550 7225 50  0000 C CNN
	1    1550 7225
	1    0    0    -1  
$EndComp
$Comp
L power1:PWR_FLAG #FLG0102
U 1 1 579C2F52
P 1850 6825
F 0 "#FLG0102" H 1850 6920 50  0001 C CNN
F 1 "PWR_FLAG" H 1850 7005 50  0000 C CNN
F 2 "" H 1850 6825 50  0000 C CNN
F 3 "" H 1850 6825 50  0000 C CNN
	1    1850 6825
	1    0    0    -1  
$EndComp
Wire Wire Line
	1450 6825 1450 7025
Wire Wire Line
	1350 6825 1450 6825
Connection ~ 1550 6825
$Comp
L power1:+5V #PWR0102
U 1 1 57B3F250
P 1550 6825
F 0 "#PWR0102" H 1550 6675 50  0001 C CNN
F 1 "+5V" H 1550 6965 50  0000 C CNN
F 2 "" H 1550 6825 50  0000 C CNN
F 3 "" H 1550 6825 50  0000 C CNN
	1    1550 6825
	1    0    0    -1  
$EndComp
$Comp
L pins_1x4:PINS_1x4 P101
U 1 1 57B4ABF0
P 1000 7125
F 0 "P101" H 1000 7025 50  0000 C CNN
F 1 "PINS_1x4" H 800 7125 50  0001 C CNN
F 2 "MDJ_mod:Molex-172310-1204" H 1000 7125 50  0000 C CNN
F 3 "" H 800 7125 50  0000 C CNN
F 4 "Digi-key" H 1000 7125 50  0001 C CNN "Supplier"
F 5 "WM11841-ND" H 1000 7125 50  0001 C CNN "Supplier P/N"
F 6 "Please buy mating connector" H 1000 7125 50  0001 C CNN "notes"
	1    1000 7125
	0    1    -1   0   
$EndComp
Wire Wire Line
	1450 7025 1350 7025
Connection ~ 1450 6825
Wire Wire Line
	1350 7425 1450 7425
Wire Wire Line
	1450 7425 1450 7225
Connection ~ 1450 7225
Wire Wire Line
	1350 7225 1450 7225
$Sheet
S 9750 4650 850  800 
U 57B6569D
F0 "GPIOs" 60
F1 "sch/GPIO.sch" 60
F2 "LED[0..3]" I L 9750 4750 50 
F3 "GPIO[0..3]" B L 9750 4850 50 
$EndSheet
Text Label 7000 3850 2    39   ~ 0
LED[0..3]
Text Label 7000 3925 2    39   ~ 0
GPIO[0..3]
Wire Bus Line
	6350 3850 7000 3850
Wire Bus Line
	6350 3925 7000 3925
Text Label 9650 4750 2    50   ~ 0
LED[0..3]
Text Label 9650 4850 2    50   ~ 0
GPIO[0..3]
Wire Bus Line
	9650 4750 9750 4750
Wire Bus Line
	9650 4850 9750 4850
Text Label 7000 4000 2    39   ~ 0
ADDR[0..3]
Wire Bus Line
	6350 4000 7000 4000
Text Label 4150 4975 2    50   ~ 0
ADDR[0..3]
Wire Bus Line
	4150 4975 4250 4975
Wire Wire Line
	1550 6825 1850 6825
Wire Wire Line
	1450 6825 1550 6825
Wire Wire Line
	1450 7225 1550 7225
Wire Wire Line
	3900 7150 3600 7150
$Sheet
S 1250 1000 1175 1450
U 57059335
F0 "VFE_connect" 60
F1 "sch/VFE_connect.sch" 60
F2 "I2C_clk_out" I L 1250 1300 39 
F3 "I2C_data_out" B L 1250 1225 39 
F4 "ReSync_out-" I L 1250 1775 39 
F5 "Pwup_rstb_out" I L 1250 1400 39 
F6 "ReSync_out+" I L 1250 1700 39 
F7 "CalibMode_out" I L 1250 1475 39 
F8 "TestMode_out" I L 1250 1625 39 
F9 "CalBusy_in_[1..5]" O R 2425 1550 39 
F10 "Temp_CATIA_in" O R 2425 1775 39 
F11 "OVF_in_[1..5]" O R 2425 1625 39 
F12 "PllLock_in_[1..5]" O R 2425 1475 39 
F13 "SEUA_in_[1..5]" O R 2425 1325 39 
F14 "SEUD_in_[1..5]" O R 2425 1400 39 
F15 "Temp_APD_in" O R 2425 1700 39 
F16 "TP_trigger_out" I L 1250 1550 39 
F17 "CLK_out_N[1..5]" I L 1250 1125 39 
F18 "CLK_out_P[1..5]" I L 1250 1050 39 
F19 "Ch_in_P[1..5]" O R 2425 1050 39 
F20 "Ch_in_N[1..5]" O R 2425 1125 39 
$EndSheet
Wire Bus Line
	2425 1050 2900 1050
Text Label 2475 1050 0    39   ~ 0
Ch_in_P[1..5]
Wire Bus Line
	2425 1125 2900 1125
Text Label 2475 1125 0    39   ~ 0
Ch_in_N[1..5]
Wire Bus Line
	2425 1325 2900 1325
Text Label 2475 1325 0    39   ~ 0
SEUA_in_[1..5]
Wire Bus Line
	2425 1400 2900 1400
Text Label 2475 1400 0    39   ~ 0
SEUD_in_[1..5]
Text Label 4025 1150 0    39   ~ 0
Ch_in_N[1..5]
Wire Bus Line
	4025 1150 4650 1150
Wire Bus Line
	4025 2150 4650 2150
Text Label 4025 2150 0    39   ~ 0
SEUD_in_[1..5]
Wire Bus Line
	4025 2050 4650 2050
Text Label 4025 2050 0    39   ~ 0
SEUA_in_[1..5]
Text Label 6525 2050 0    39   ~ 0
SEUA_out_[1..5]
Text Label 6525 2150 0    39   ~ 0
SEUD_out_[1..5]
Wire Bus Line
	6350 2150 7000 2150
Wire Bus Line
	6350 2050 7000 2050
Text Label 8250 1050 0    39   ~ 0
Ch_out_P[1..5]
Text Label 8250 1125 0    39   ~ 0
Ch_out_N[1..5]
Wire Bus Line
	8250 1125 8900 1125
Wire Bus Line
	8250 1050 8900 1050
Text Label 650  1125 0    39   ~ 0
CLK_to_VFE_N[1..5]
Text Label 650  1050 0    39   ~ 0
CLK_to_VFE_P[1..5]
Text Label 8200 3225 0    39   ~ 0
CLK_to_VFE_N[1..5]
Text Label 8200 3150 0    39   ~ 0
CLK_to_VFE_P[1..5]
Wire Wire Line
	6350 2725 6975 2725
Wire Wire Line
	6350 2800 6975 2800
Text Label 6575 2725 0    39   ~ 0
CLK_FPGA_in+
Text Label 6575 2800 0    39   ~ 0
CLK_FPGA_in-
Text Label 650  1475 0    50   ~ 0
CalibMode_out
Wire Wire Line
	650  1475 1250 1475
Text Label 650  1550 0    50   ~ 0
TP_trigger_out
Wire Wire Line
	650  1550 1250 1550
Text Label 2525 1700 0    39   ~ 0
Temp_APD_in
Wire Wire Line
	2425 1700 2900 1700
Wire Bus Line
	2425 1475 2900 1475
Text Label 2450 1475 0    39   ~ 0
PllLock_in_[1..5]
Wire Bus Line
	1250 1050 650  1050
Wire Bus Line
	1250 1125 650  1125
Wire Bus Line
	2425 1550 2900 1550
Text Label 2450 1550 0    39   ~ 0
CalBusy_in_[1..5]
Wire Bus Line
	2425 1625 2900 1625
Text Label 2525 1625 0    39   ~ 0
OVF_in_[1..5]
Text Label 2500 1775 0    39   ~ 0
Temp_CATIA_in
Wire Wire Line
	2425 1775 2900 1775
Wire Bus Line
	4025 2350 4650 2350
Text Label 4025 2350 0    39   ~ 0
CalBusy_in_[1..5]
Wire Bus Line
	4025 2250 4650 2250
Text Label 4025 2250 0    39   ~ 0
PllLock_in_[1..5]
Wire Bus Line
	4025 2450 4650 2450
Text Label 4025 2450 0    39   ~ 0
OVF_in_[0..5]
Text Label 4025 2525 0    39   ~ 0
Temp_APD_in
Wire Wire Line
	4025 2525 4650 2525
Text Label 4025 2600 0    39   ~ 0
Temp_CATIA_in
Wire Wire Line
	4025 2600 4650 2600
Text Label 4025 3300 0    39   ~ 0
CalibMode_out
Wire Wire Line
	4650 3375 4025 3375
Text Label 4025 3375 0    39   ~ 0
TestMode_out
Wire Wire Line
	4650 3450 4025 3450
Text Label 4025 3450 0    39   ~ 0
TP_trigger_out
Wire Wire Line
	4650 3300 4025 3300
Text Label 650  1625 0    50   ~ 0
TestMode_out
Wire Wire Line
	650  1625 1250 1625
Text Label 650  1700 0    50   ~ 0
ReSync_out+
Wire Wire Line
	650  1700 1250 1700
Text Label 650  1775 0    50   ~ 0
ReSync_out-
Wire Wire Line
	650  1775 1250 1775
Wire Wire Line
	4650 2950 4025 2950
Text Label 4025 2950 0    39   ~ 0
ReSync_out+
Wire Wire Line
	4650 3025 4025 3025
Text Label 4025 3025 0    39   ~ 0
ReSync_out-
Wire Bus Line
	6350 2350 6975 2350
Text Label 6525 2350 0    39   ~ 0
CalBusy_out_[1..5]
Wire Bus Line
	6350 2250 6975 2250
Text Label 6525 2250 0    39   ~ 0
PllLock_out_[1..5]
Wire Bus Line
	6350 2450 6975 2450
Text Label 6525 2450 0    39   ~ 0
OVF_out_[0..5]
Text Label 6525 2525 0    39   ~ 0
Temp_APD_out
Wire Wire Line
	6350 2525 6975 2525
Text Label 6525 2600 0    39   ~ 0
Temp_CATIA_out
Wire Wire Line
	6350 2600 6975 2600
Text Label 6575 3300 0    39   ~ 0
CalibMode_in
Wire Wire Line
	7000 3375 6350 3375
Text Label 6650 3375 0    39   ~ 0
TestMode_in
Wire Wire Line
	7000 3450 6350 3450
Text Label 6625 3450 0    39   ~ 0
TP_trigger_in
Wire Wire Line
	7000 3300 6350 3300
Wire Wire Line
	6975 2950 6350 2950
Text Label 6650 2950 0    39   ~ 0
ReSync_in+
Wire Wire Line
	6975 3025 6350 3025
Text Label 6650 3025 0    39   ~ 0
ReSync_in-
Wire Bus Line
	8900 3150 8200 3150
Wire Bus Line
	8200 3225 8900 3225
Text Label 8200 3050 0    39   ~ 0
CLK_from_FE_N[1..5]
Text Label 8200 2975 0    39   ~ 0
CLK_from_FE_P[1..5]
Wire Bus Line
	8900 2975 8200 2975
Wire Bus Line
	8200 3050 8900 3050
Text Label 10125 1125 0    39   ~ 0
CLK_from_FE_N[1..5]
Text Label 10125 1050 0    39   ~ 0
CLK_from_FE_P[1..5]
Wire Bus Line
	10750 1050 10050 1050
Wire Bus Line
	10050 1125 10750 1125
Wire Bus Line
	8250 1325 8900 1325
Text Label 8250 1325 0    39   ~ 0
SEUA_out_[1..5]
Wire Bus Line
	8250 1400 8900 1400
Text Label 8250 1400 0    39   ~ 0
SEUD_out_[1..5]
Text Label 8250 1700 0    39   ~ 0
Temp_APD_out
Wire Wire Line
	8250 1700 8900 1700
Wire Bus Line
	8250 1475 8900 1475
Text Label 8250 1475 0    39   ~ 0
PllLock_out_[1..5]
Wire Bus Line
	8250 1550 8900 1550
Text Label 8250 1550 0    39   ~ 0
CalBusy_out_[1..5]
Wire Bus Line
	8250 1625 8900 1625
Text Label 8250 1625 0    39   ~ 0
OVF_out_[1..5]
Text Label 8250 1775 0    39   ~ 0
Temp_CATIA_out
Wire Wire Line
	8250 1775 8900 1775
Wire Wire Line
	8200 3350 8900 3350
Wire Wire Line
	8200 3425 8900 3425
Text Label 8200 3350 0    39   ~ 0
CLK_FPGA_in+
Text Label 8200 3425 0    39   ~ 0
CLK_FPGA_in-
$Sheet
S 8900 2850 975  875 
U 5BAC43A6
F0 "Sheet5BAC43A5" 50
F1 "sch/clock.sch" 50
F2 "CLK_to_FPGA+" O L 8900 3350 39 
F3 "CLK_to_FPGA-" O L 8900 3425 39 
F4 "VFE_Clk_Select" I L 8900 3650 39 
F5 "CLK_from_FE_P[1..5]" I L 8900 2975 39 
F6 "CLK_from_FE_N[1..5]" I L 8900 3050 39 
F7 "CLK_to_VFE_P[1..5]" O L 8900 3150 39 
F8 "CLK_to_VFE_N[1..5]" O L 8900 3225 39 
$EndSheet
Wire Wire Line
	8200 3650 8900 3650
Text Label 8200 3650 0    39   ~ 0
Clk_Select
Wire Wire Line
	7000 3525 6350 3525
Text Label 7000 3525 2    39   ~ 0
Clk_Select
Text Label 10750 1650 2    39   ~ 0
CalibMode_in
Wire Wire Line
	10750 1650 10050 1650
Text Label 10750 1725 2    39   ~ 0
TP_trigger_in
Wire Wire Line
	10750 1725 10050 1725
Text Label 10750 1800 2    39   ~ 0
TestMode_in
Wire Wire Line
	10750 1800 10050 1800
Text Label 10750 1425 2    39   ~ 0
ReSync_in+
Wire Wire Line
	10750 1425 10050 1425
Text Label 10750 1500 2    39   ~ 0
ReSync_in-
Wire Wire Line
	10750 1500 10050 1500
$Comp
L power1:PWR_FLAG #FLG0103
U 1 1 5E0EC063
P 3075 6950
F 0 "#FLG0103" H 3075 7045 50  0001 C CNN
F 1 "PWR_FLAG" H 3150 7125 39  0000 C CNN
F 2 "" H 3075 6950 50  0000 C CNN
F 3 "" H 3075 6950 50  0000 C CNN
	1    3075 6950
	1    0    0    -1  
$EndComp
Wire Wire Line
	3075 6950 3075 7050
Connection ~ 3075 7050
Wire Wire Line
	3075 7050 3350 7050
Wire Wire Line
	2175 4350 4250 4350
Wire Wire Line
	4250 4425 2175 4425
Wire Wire Line
	2175 4525 4250 4525
Wire Wire Line
	4250 4600 2175 4600
$Comp
L power1:VFE_VD #PWR0101
U 1 1 5E809B7B
P 3900 7100
F 0 "#PWR0101" H 3900 6950 50  0001 C CNN
F 1 "VFE_VD" H 3915 7273 39  0000 C CNN
F 2 "" H 3900 7100 50  0000 C CNN
F 3 "" H 3900 7100 50  0000 C CNN
	1    3900 7100
	-1   0    0    -1  
$EndComp
$Comp
L power1:FE_VD #PWR0104
U 1 1 5E809BB5
P 3350 7000
F 0 "#PWR0104" H 3350 6850 50  0001 C CNN
F 1 "FE_VD" H 3365 7173 39  0000 C CNN
F 2 "" H 3350 7000 50  0000 C CNN
F 3 "" H 3350 7000 50  0000 C CNN
	1    3350 7000
	1    0    0    -1  
$EndComp
$Comp
L Connector_Generic:Conn_01x04 J?
U 1 1 5C7B60D5
P 2600 7150
AR Path="/5787D549/5C7B60D5" Ref="J?"  Part="1" 
AR Path="/5C7B60D5" Ref="J101"  Part="1" 
F 0 "J101" H 2800 7050 60  0000 C CNN
F 1 "PINS_1x4" H 2600 7150 60  0001 C CNN
F 2 "Connector_PinHeader_2.54mm:PinHeader_1x04_P2.54mm_Vertical" H 2600 7150 60  0001 C CNN
F 3 "" H 2600 7150 60  0000 C CNN
F 4 "DNP" H 2600 7150 60  0001 C CNN "Notes"
	1    2600 7150
	-1   0    0    1   
$EndComp
Wire Wire Line
	2800 7050 3075 7050
Wire Wire Line
	3600 7150 2800 7150
Connection ~ 3600 7150
$Comp
L FEAD-rescue:VccO_VFE-MDJ_compo #PWR0114
U 1 1 5C8F355C
P 4125 7250
F 0 "#PWR0114" H 4125 7100 50  0001 C CNN
F 1 "VccO_VFE" H 4140 7415 39  0000 C CNN
F 2 "" H 4125 7250 50  0000 C CNN
F 3 "" H 4125 7250 50  0000 C CNN
	1    4125 7250
	1    0    0    -1  
$EndComp
Wire Wire Line
	2800 7250 4125 7250
$Comp
L FEAD-rescue:VccO_FE-MDJ_compo #PWR0112
U 1 1 5C7D82E1
P 2800 6950
F 0 "#PWR0112" H 2800 6800 50  0001 C CNN
F 1 "VccO_FE" H 2815 7115 39  0000 C CNN
F 2 "" H 2800 6950 50  0000 C CNN
F 3 "" H 2800 6950 50  0000 C CNN
	1    2800 6950
	1    0    0    -1  
$EndComp
$EndSCHEMATC
