EESchema Schematic File Version 4
LIBS:FEAD-cache
EELAYER 26 0
EELAYER END
$Descr A4 11693 8268
encoding utf-8
Sheet 3 11
Title ""
Date ""
Rev ""
Comp ""
Comment1 ""
Comment2 ""
Comment3 ""
Comment4 ""
$EndDescr
Text Label 925  2800 0    60   ~ 0
CLK_GTP+
Text Label 925  3000 0    60   ~ 0
CLK_GTP-
$Comp
L si590:SI590B U302
U 1 1 578EE3A0
P 8225 4950
F 0 "U302" H 8400 4600 60  0000 C CNN
F 1 "SI590BA-B" H 8025 4600 60  0000 C CNN
F 2 "MDJ_mod:Si590" H 8150 5000 60  0001 C CNN
F 3 "" H 8150 5000 60  0000 C CNN
F 4 "Digikey" H 8225 4950 60  0001 C CNN "Supplier"
F 5 "590BA-BDG-ND" H 8225 4950 60  0001 C CNN "Supplier P/N"
F 6 "590BX125M000DGR" H 8225 4950 60  0001 C CNN "Manufacturer P/N"
F 7 "3.3V, LVDS, OE High, 125.000Mhz" H 8225 4950 60  0001 C CNN "notes"
	1    8225 4950
	1    0    0    -1  
$EndComp
Text Label 8775 4900 0    60   ~ 0
CLK_GTP+
Text Label 8775 5000 0    60   ~ 0
CLK_GTP-
Wire Wire Line
	8775 4900 9325 4900
Wire Wire Line
	8775 5000 9325 5000
$Comp
L Device:C C303
U 1 1 578EE3AB
P 8675 4500
F 0 "C303" V 8775 4650 50  0000 C CNN
F 1 "10uF" V 8775 4350 50  0000 C CNN
F 2 "Capacitor_SMD:C_0402_1005Metric" H 8675 4500 50  0001 C CNN
F 3 "" H 8675 4500 50  0000 C CNN
	1    8675 4500
	1    0    0    -1  
$EndComp
$Comp
L power1:GND #PWR0304
U 1 1 578EE3B8
P 8675 4650
F 0 "#PWR0304" H 8675 4400 50  0001 C CNN
F 1 "GND" H 8675 4500 50  0000 C CNN
F 2 "" H 8675 4650 50  0000 C CNN
F 3 "" H 8675 4650 50  0000 C CNN
	1    8675 4650
	1    0    0    -1  
$EndComp
Wire Wire Line
	7600 4350 8225 4350
Connection ~ 8225 4350
$Comp
L power1:GND #PWR0303
U 1 1 578EE3C1
P 8225 5600
F 0 "#PWR0303" H 8225 5350 50  0001 C CNN
F 1 "GND" H 8225 5450 50  0000 C CNN
F 2 "" H 8225 5600 50  0000 C CNN
F 3 "" H 8225 5600 50  0000 C CNN
	1    8225 5600
	1    0    0    -1  
$EndComp
$Comp
L Device:R R305
U 1 1 578EE3C7
P 7600 4675
F 0 "R305" V 7680 4675 50  0000 C CNN
F 1 "DNP" V 7600 4675 50  0000 C CNN
F 2 "Resistor_SMD:R_0402_1005Metric" H 7600 4675 50  0001 C CNN
F 3 "" H 7600 4675 50  0000 C CNN
	1    7600 4675
	1    0    0    -1  
$EndComp
Wire Wire Line
	7600 4825 7600 4950
Wire Wire Line
	7600 4950 7675 4950
Wire Wire Line
	7600 4350 7600 4525
$Comp
L power1:VccSFP #PWR0302
U 1 1 578F8391
P 8225 4300
F 0 "#PWR0302" H 8225 4150 50  0001 C CNN
F 1 "VccSFP" H 8225 4450 50  0000 C CNN
F 2 "" H 8225 4300 50  0000 C CNN
F 3 "" H 8225 4300 50  0000 C CNN
	1    8225 4300
	1    0    0    -1  
$EndComp
$Comp
L Device:C C301
U 1 1 57951A18
P 1625 2800
F 0 "C301" V 1675 2875 50  0000 C CNN
F 1 "100nF" V 1500 2800 50  0000 C CNN
F 2 "Capacitor_SMD:C_0201_0603Metric" H 1625 2800 50  0001 C CNN
F 3 "" H 1625 2800 50  0000 C CNN
	1    1625 2800
	0    1    1    0   
$EndComp
$Comp
L Device:C C302
U 1 1 57951AB3
P 1625 3000
F 0 "C302" V 1675 3075 50  0000 C CNN
F 1 "100nF" V 1750 3000 50  0000 C CNN
F 2 "Capacitor_SMD:C_0201_0603Metric" H 1625 3000 50  0001 C CNN
F 3 "" H 1625 3000 50  0000 C CNN
	1    1625 3000
	0    1    1    0   
$EndComp
Wire Wire Line
	1775 2925 1775 3000
Wire Wire Line
	1775 2800 1775 2875
Wire Wire Line
	1475 2800 925  2800
Wire Wire Line
	1475 3000 925  3000
$Comp
L Device:R R301
U 1 1 57BBAB29
P 1700 4925
F 0 "R301" V 1780 4925 50  0000 C CNN
F 1 "DNP" V 1700 4925 50  0000 C CNN
F 2 "Resistor_SMD:R_0402_1005Metric" H 1700 4925 50  0001 C CNN
F 3 "" H 1700 4925 50  0000 C CNN
	1    1700 4925
	1    0    0    -1  
$EndComp
$Comp
L Device:R R302
U 1 1 57BBABE1
P 1850 4925
F 0 "R302" V 1930 4925 50  0000 C CNN
F 1 "DNP" V 1850 4925 50  0000 C CNN
F 2 "Resistor_SMD:R_0402_1005Metric" H 1850 4925 50  0001 C CNN
F 3 "" H 1850 4925 50  0000 C CNN
	1    1850 4925
	1    0    0    -1  
$EndComp
$Comp
L Device:R R303
U 1 1 57BBAC33
P 2000 4925
F 0 "R303" V 2080 4925 50  0000 C CNN
F 1 "DNP" V 2000 4925 50  0000 C CNN
F 2 "Resistor_SMD:R_0402_1005Metric" H 2000 4925 50  0001 C CNN
F 3 "" H 2000 4925 50  0000 C CNN
	1    2000 4925
	1    0    0    -1  
$EndComp
$Comp
L Device:R R304
U 1 1 57BBAC7A
P 2150 4925
F 0 "R304" V 2230 4925 50  0000 C CNN
F 1 "DNP" V 2150 4925 50  0000 C CNN
F 2 "Resistor_SMD:R_0402_1005Metric" H 2150 4925 50  0001 C CNN
F 3 "" H 2150 4925 50  0000 C CNN
	1    2150 4925
	1    0    0    -1  
$EndComp
$Comp
L power1:VccO #PWR0301
U 1 1 57BBAD5B
P 1650 4625
F 0 "#PWR0301" H 1650 4475 50  0001 C CNN
F 1 "VccO" H 1650 4775 50  0000 C CNN
F 2 "" H 1650 4625 50  0000 C CNN
F 3 "" H 1650 4625 50  0000 C CNN
	1    1650 4625
	1    0    0    -1  
$EndComp
Wire Wire Line
	1650 4625 1650 4675
Wire Wire Line
	1650 4675 1700 4675
Wire Wire Line
	2150 4675 2150 4775
Wire Wire Line
	2000 4675 2000 4775
Connection ~ 2000 4675
Wire Wire Line
	1850 4675 1850 4775
Connection ~ 1850 4675
Wire Wire Line
	1700 4675 1700 4775
Connection ~ 1700 4675
Wire Wire Line
	2150 5075 2150 5175
Wire Wire Line
	2000 5075 2000 5175
Wire Wire Line
	1850 5075 1850 5175
Wire Wire Line
	1700 5075 1700 5175
Text HLabel 1250 4900 0    60   Output ~ 0
ADDR[0..3]
Wire Wire Line
	1775 2875 3375 2875
Wire Wire Line
	3375 2925 1775 2925
NoConn ~ 3375 2775
NoConn ~ 3375 2825
Wire Wire Line
	8225 4350 8225 4400
Wire Wire Line
	8225 4350 8675 4350
Wire Wire Line
	2000 4675 2150 4675
Wire Wire Line
	1850 4675 2000 4675
Wire Wire Line
	1700 4675 1850 4675
Wire Wire Line
	2775 2525 3375 2525
Wire Wire Line
	2775 2575 3375 2575
Wire Wire Line
	2775 2075 3375 2075
Wire Wire Line
	2775 2125 3375 2125
NoConn ~ 3375 1875
NoConn ~ 3375 1925
NoConn ~ 3375 1975
NoConn ~ 3375 2025
NoConn ~ 3375 2325
NoConn ~ 3375 2375
NoConn ~ 3375 2425
NoConn ~ 3375 2475
NoConn ~ 3375 2625
NoConn ~ 3375 2675
Wire Wire Line
	8225 4350 8225 4300
$Comp
L FEAD-rescue:XC7K70T-FBG484-MDJ_compo U301
U 4 1 5C7C7A0A
P 4325 2425
F 0 "U301" H 4275 3225 50  0000 L CNN
F 1 "XC7K70T-FBG484" H 4025 3125 50  0000 L CNN
F 2 "Package_BGA:BGA-484_23.0x23.0mm_Layout22x22_P1.0mm" H 4325 2425 50  0001 C CNN
F 3 "" H 4325 2425 50  0000 C CNN
	4    4325 2425
	1    0    0    -1  
$EndComp
$Comp
L FEAD-rescue:XC7K70T-FBG484-MDJ_compo U301
U 5 1 5C889DD7
P 4325 3925
F 0 "U301" H 4325 4342 50  0000 C CNN
F 1 "XC7K70T-FBG484" H 4325 4251 50  0000 C CNN
F 2 "Package_BGA:BGA-484_23.0x23.0mm_Layout22x22_P1.0mm" H 4325 3925 50  0001 C CNN
F 3 "" H 4325 3925 50  0000 C CNN
	5    4325 3925
	1    0    0    -1  
$EndComp
Text HLabel 2775 2075 0    39   Input ~ 0
SFP_Tx+
Text HLabel 2775 2125 0    39   Input ~ 0
SFP_Tx-
Text HLabel 2775 2525 0    39   Input ~ 0
SFP_Rx+
Text HLabel 2775 2575 0    39   Input ~ 0
SFP_Rx-
$Comp
L power1:VccMGTAVcc #PWR0105
U 1 1 5C7611C6
P 3300 3650
F 0 "#PWR0105" H 3300 3500 50  0001 C CNN
F 1 "VccMGTAVcc" H 3317 3823 50  0000 C CNN
F 2 "" H 3300 3650 50  0000 C CNN
F 3 "" H 3300 3650 50  0000 C CNN
	1    3300 3650
	1    0    0    -1  
$EndComp
Wire Wire Line
	3300 3650 3300 3775
Wire Wire Line
	3300 3925 3375 3925
Wire Wire Line
	3375 3875 3300 3875
Connection ~ 3300 3875
Wire Wire Line
	3300 3875 3300 3925
Wire Wire Line
	3375 3825 3300 3825
Connection ~ 3300 3825
Wire Wire Line
	3300 3825 3300 3875
Wire Wire Line
	3375 3775 3300 3775
Connection ~ 3300 3775
Wire Wire Line
	3300 3775 3300 3825
Wire Wire Line
	5350 3925 5275 3925
Wire Wire Line
	5275 3875 5350 3875
Wire Wire Line
	5350 3650 5350 3775
Connection ~ 5350 3875
Wire Wire Line
	5350 3875 5350 3925
Wire Wire Line
	5275 3825 5350 3825
Connection ~ 5350 3825
Wire Wire Line
	5350 3825 5350 3875
Wire Wire Line
	5275 3775 5350 3775
Connection ~ 5350 3775
Wire Wire Line
	5350 3775 5350 3825
$Comp
L power1:VccMGTAVtt #PWR0106
U 1 1 5C7A77C7
P 5350 3650
F 0 "#PWR0106" H 5350 3500 50  0001 C CNN
F 1 "VccMGTAVtt" H 5367 3823 50  0000 C CNN
F 2 "" H 5350 3650 50  0000 C CNN
F 3 "" H 5350 3650 50  0000 C CNN
	1    5350 3650
	1    0    0    -1  
$EndComp
$Comp
L Device:R R307
U 1 1 5C7A782D
P 5425 4075
F 0 "R307" V 5505 4075 50  0000 C CNN
F 1 "100" V 5425 4075 50  0000 C CNN
F 2 "Resistor_SMD:R_0201_0603Metric" H 5425 4075 50  0001 C CNN
F 3 "" H 5425 4075 50  0000 C CNN
	1    5425 4075
	0    1    1    0   
$EndComp
Wire Wire Line
	5350 3925 5575 3925
Wire Wire Line
	5575 3925 5575 4075
Connection ~ 5350 3925
Wire Wire Line
	5350 3925 5350 4025
Wire Wire Line
	5350 4025 5275 4025
$Comp
L power1:VccAux #PWR0107
U 1 1 5C7C9BDB
P 2900 3650
F 0 "#PWR0107" H 2900 3500 50  0001 C CNN
F 1 "VccAux" H 2917 3823 50  0000 C CNN
F 2 "" H 2900 3650 50  0000 C CNN
F 3 "" H 2900 3650 50  0000 C CNN
	1    2900 3650
	1    0    0    -1  
$EndComp
Wire Wire Line
	2900 3650 2900 3975
Wire Wire Line
	2900 3975 3375 3975
Text Label 2150 5175 3    60   ~ 0
ADDR0
Text Label 2000 5175 3    60   ~ 0
ADDR1
Text Label 1850 5175 3    60   ~ 0
ADDR2
Text Label 1700 5175 3    60   ~ 0
ADDR3
$Comp
L power1:VccMGTAVtt #PWR?
U 1 1 5C80FC4B
P 4025 5800
AR Path="/572C0D81/5C80FC4B" Ref="#PWR?"  Part="1" 
AR Path="/571914DE/5C80FC4B" Ref="#PWR0108"  Part="1" 
F 0 "#PWR0108" H 4025 5650 50  0001 C CNN
F 1 "VccMGTAVtt" H 4025 5950 50  0000 C CNN
F 2 "" H 4025 5800 50  0000 C CNN
F 3 "" H 4025 5800 50  0000 C CNN
	1    4025 5800
	1    0    0    -1  
$EndComp
$Comp
L power1:VccMGTAVcc #PWR?
U 1 1 5C80FC51
P 4025 5000
AR Path="/572C0D81/5C80FC51" Ref="#PWR?"  Part="1" 
AR Path="/571914DE/5C80FC51" Ref="#PWR0109"  Part="1" 
F 0 "#PWR0109" H 4025 4850 50  0001 C CNN
F 1 "VccMGTAVcc" H 4025 5150 50  0000 C CNN
F 2 "" H 4025 5000 50  0000 C CNN
F 3 "" H 4025 5000 50  0000 C CNN
	1    4025 5000
	1    0    0    -1  
$EndComp
$Comp
L power1:GND #PWR?
U 1 1 5C80FC57
P 4025 5300
AR Path="/572C0D81/5C80FC57" Ref="#PWR?"  Part="1" 
AR Path="/571914DE/5C80FC57" Ref="#PWR0110"  Part="1" 
F 0 "#PWR0110" H 4025 5050 50  0001 C CNN
F 1 "GND" H 4025 5150 50  0000 C CNN
F 2 "" H 4025 5300 50  0000 C CNN
F 3 "" H 4025 5300 50  0000 C CNN
	1    4025 5300
	1    0    0    -1  
$EndComp
$Comp
L power1:GND #PWR?
U 1 1 5C80FC5D
P 4025 6100
AR Path="/572C0D81/5C80FC5D" Ref="#PWR?"  Part="1" 
AR Path="/571914DE/5C80FC5D" Ref="#PWR0111"  Part="1" 
F 0 "#PWR0111" H 4025 5850 50  0001 C CNN
F 1 "GND" H 4025 5950 50  0000 C CNN
F 2 "" H 4025 6100 50  0000 C CNN
F 3 "" H 4025 6100 50  0000 C CNN
	1    4025 6100
	1    0    0    -1  
$EndComp
$Comp
L Device:C C?
U 1 1 5C80FC63
P 4125 5950
AR Path="/572C0D81/5C80FC63" Ref="C?"  Part="1" 
AR Path="/571914DE/5C80FC63" Ref="C305"  Part="1" 
F 0 "C305" V 4225 6100 50  0000 C CNN
F 1 "10uF" V 4225 5800 50  0000 C CNN
F 2 "Capacitor_SMD:C_0402_1005Metric" H 4125 5950 50  0001 C CNN
F 3 "" H 4125 5950 50  0000 C CNN
	1    4125 5950
	1    0    0    -1  
$EndComp
$Comp
L Device:C C?
U 1 1 5C80FC6A
P 4525 5950
AR Path="/572C0D81/5C80FC6A" Ref="C?"  Part="1" 
AR Path="/571914DE/5C80FC6A" Ref="C307"  Part="1" 
F 0 "C307" V 4625 6100 50  0000 C CNN
F 1 "100nF" V 4625 5800 50  0000 C CNN
F 2 "Capacitor_SMD:C_0201_0603Metric" H 4525 5950 50  0001 C CNN
F 3 "" H 4525 5950 50  0000 C CNN
	1    4525 5950
	1    0    0    -1  
$EndComp
$Comp
L Device:C C?
U 1 1 5C80FC71
P 4775 5950
AR Path="/572C0D81/5C80FC71" Ref="C?"  Part="1" 
AR Path="/571914DE/5C80FC71" Ref="C309"  Part="1" 
F 0 "C309" V 4875 6100 50  0000 C CNN
F 1 "100nF" V 4875 5800 50  0000 C CNN
F 2 "Capacitor_SMD:C_0201_0603Metric" H 4775 5950 50  0001 C CNN
F 3 "" H 4775 5950 50  0000 C CNN
	1    4775 5950
	1    0    0    -1  
$EndComp
$Comp
L Device:C C?
U 1 1 5C80FC7A
P 4125 5150
AR Path="/572C0D81/5C80FC7A" Ref="C?"  Part="1" 
AR Path="/571914DE/5C80FC7A" Ref="C304"  Part="1" 
F 0 "C304" V 4225 5300 50  0000 C CNN
F 1 "10uF" V 4225 5000 50  0000 C CNN
F 2 "Capacitor_SMD:C_0402_1005Metric" H 4125 5150 50  0001 C CNN
F 3 "" H 4125 5150 50  0000 C CNN
F 4 "Digi-key" V 4125 5150 60  0001 C CNN "Supplier"
F 5 "490-6479-1-ND	" V 4125 5150 60  0001 C CNN "Supplier Part"
	1    4125 5150
	1    0    0    -1  
$EndComp
$Comp
L Device:C C?
U 1 1 5C80FC83
P 4525 5150
AR Path="/572C0D81/5C80FC83" Ref="C?"  Part="1" 
AR Path="/571914DE/5C80FC83" Ref="C306"  Part="1" 
F 0 "C306" V 4625 5300 50  0000 C CNN
F 1 "100nF" V 4625 5000 50  0000 C CNN
F 2 "Capacitor_SMD:C_0201_0603Metric" H 4525 5150 50  0001 C CNN
F 3 "" H 4525 5150 50  0000 C CNN
F 4 "Digi-key" V 4525 5150 60  0001 C CNN "Supplier"
F 5 "490-6416-1-ND	" V 4525 5150 60  0001 C CNN "Supplier Part"
	1    4525 5150
	1    0    0    -1  
$EndComp
$Comp
L Device:C C?
U 1 1 5C80FC8C
P 4775 5150
AR Path="/572C0D81/5C80FC8C" Ref="C?"  Part="1" 
AR Path="/571914DE/5C80FC8C" Ref="C308"  Part="1" 
F 0 "C308" V 4875 5300 50  0000 C CNN
F 1 "100nF" V 4875 5000 50  0000 C CNN
F 2 "Capacitor_SMD:C_0201_0603Metric" H 4775 5150 50  0001 C CNN
F 3 "" H 4775 5150 50  0000 C CNN
F 4 "Digi-key" V 4775 5150 60  0001 C CNN "Supplier"
F 5 "490-6416-1-ND	" V 4775 5150 60  0001 C CNN "Supplier Part"
	1    4775 5150
	1    0    0    -1  
$EndComp
Wire Wire Line
	4025 5000 4125 5000
Wire Wire Line
	4025 5300 4125 5300
Connection ~ 4125 5000
Connection ~ 4525 5000
Connection ~ 4125 5300
Connection ~ 4525 5300
Wire Wire Line
	4025 5800 4125 5800
Wire Wire Line
	4025 6100 4125 6100
Connection ~ 4125 5800
Connection ~ 4525 5800
Connection ~ 4125 6100
Connection ~ 4525 6100
Wire Wire Line
	4125 5000 4525 5000
Wire Wire Line
	4525 5000 4775 5000
Wire Wire Line
	4125 5300 4525 5300
Wire Wire Line
	4525 5300 4775 5300
Wire Wire Line
	4125 5800 4525 5800
Wire Wire Line
	4525 5800 4775 5800
Wire Wire Line
	4125 6100 4525 6100
Wire Wire Line
	4525 6100 4775 6100
Text Label 2075 2875 0    39   ~ 0
Clk_GTX_AC+
Text Label 2075 2925 0    39   ~ 0
Clk_GTX_AC-
NoConn ~ 3375 2175
NoConn ~ 3375 2225
Connection ~ 7600 4950
Wire Wire Line
	7600 4950 7600 5075
Wire Wire Line
	8225 5550 8225 5600
Wire Wire Line
	8225 5500 8225 5550
Connection ~ 8225 5550
Wire Wire Line
	8225 5550 7600 5550
Wire Wire Line
	7600 5550 7600 5375
$Comp
L Device:R R306
U 1 1 578EE3CE
P 7600 5225
F 0 "R306" V 7680 5225 50  0000 C CNN
F 1 "DNP" V 7600 5225 50  0000 C CNN
F 2 "Resistor_SMD:R_0402_1005Metric" H 7600 5225 50  0001 C CNN
F 3 "" H 7600 5225 50  0000 C CNN
	1    7600 5225
	1    0    0    -1  
$EndComp
$EndSCHEMATC
