EESchema Schematic File Version 4
LIBS:FEAD-cache
EELAYER 26 0
EELAYER END
$Descr A4 11693 8268
encoding utf-8
Sheet 7 11
Title ""
Date ""
Rev ""
Comp ""
Comment1 ""
Comment2 ""
Comment3 ""
Comment4 ""
$EndDescr
$Comp
L Device:C C704
U 1 1 577DF9F2
P 5650 2925
F 0 "C704" V 5750 3075 50  0000 C CNN
F 1 "330uF" V 5750 2775 50  0000 C CNN
F 2 "Capacitor_SMD:C_1210_3225Metric" H 5650 2925 50  0001 C CNN
F 3 "" H 5650 2925 50  0000 C CNN
F 4 "Digi-key" V 5650 2925 60  0001 C CNN "Supplier"
F 5 "399-4105-1-ND" V 5650 2925 60  0001 C CNN "Supplier Part"
	1    5650 2925
	1    0    0    -1  
$EndComp
$Comp
L power1:GND #PWR0715
U 1 1 577DFC69
P 5475 3075
F 0 "#PWR0715" H 5475 2825 50  0001 C CNN
F 1 "GND" H 5475 2925 50  0000 C CNN
F 2 "" H 5475 3075 50  0000 C CNN
F 3 "" H 5475 3075 50  0000 C CNN
	1    5475 3075
	1    0    0    -1  
$EndComp
$Comp
L Device:C C708
U 1 1 577DFDB5
P 6000 2925
F 0 "C708" V 6100 3075 50  0000 C CNN
F 1 "10uF" V 6100 2775 50  0000 C CNN
F 2 "Capacitor_SMD:C_0402_1005Metric" H 6000 2925 50  0001 C CNN
F 3 "" H 6000 2925 50  0000 C CNN
F 4 "Digi-key" V 6000 2925 60  0001 C CNN "Supplier"
F 5 "490-6479-1-ND	" V 6000 2925 60  0001 C CNN "Supplier Part"
	1    6000 2925
	1    0    0    -1  
$EndComp
$Comp
L Device:C C716
U 1 1 577E01E7
P 6925 2925
F 0 "C716" V 7025 3075 50  0000 C CNN
F 1 "0.47uF" V 7025 2775 50  0000 C CNN
F 2 "Capacitor_SMD:C_0402_1005Metric" H 6925 2925 50  0001 C CNN
F 3 "" H 6925 2925 50  0000 C CNN
F 4 "Digi-key" V 6925 2925 60  0001 C CNN "Supplier"
F 5 "490-6416-1-ND	" V 6925 2925 60  0001 C CNN "Supplier Part"
	1    6925 2925
	1    0    0    -1  
$EndComp
$Comp
L Device:C C713
U 1 1 577E0336
P 6250 2925
F 0 "C713" V 6350 3075 50  0000 C CNN
F 1 "10uF" V 6350 2775 50  0000 C CNN
F 2 "Capacitor_SMD:C_0402_1005Metric" H 6250 2925 50  0001 C CNN
F 3 "" H 6250 2925 50  0000 C CNN
F 4 "Digi-key" V 6250 2925 60  0001 C CNN "Supplier"
F 5 "490-6479-1-ND	" V 6250 2925 60  0001 C CNN "Supplier Part"
	1    6250 2925
	1    0    0    -1  
$EndComp
$Comp
L Device:C C715
U 1 1 577E036C
P 6500 2925
F 0 "C715" V 6600 3075 50  0000 C CNN
F 1 "10uF" V 6600 2775 50  0000 C CNN
F 2 "Capacitor_SMD:C_0402_1005Metric" H 6500 2925 50  0001 C CNN
F 3 "" H 6500 2925 50  0000 C CNN
F 4 "Digi-key" V 6500 2925 60  0001 C CNN "Supplier"
F 5 "490-6479-1-ND	" V 6500 2925 60  0001 C CNN "Supplier Part"
	1    6500 2925
	1    0    0    -1  
$EndComp
$Comp
L Device:C C717
U 1 1 577E0552
P 7175 2925
F 0 "C717" V 7275 3075 50  0000 C CNN
F 1 "0.47uF" V 7275 2775 50  0000 C CNN
F 2 "Capacitor_SMD:C_0402_1005Metric" H 7175 2925 50  0001 C CNN
F 3 "" H 7175 2925 50  0000 C CNN
F 4 "Digi-key" V 7175 2925 60  0001 C CNN "Supplier"
F 5 "490-6416-1-ND	" V 7175 2925 60  0001 C CNN "Supplier Part"
	1    7175 2925
	1    0    0    -1  
$EndComp
$Comp
L Device:C C718
U 1 1 577E07E6
P 7425 2925
F 0 "C718" V 7525 3075 50  0000 C CNN
F 1 "0.47uF" V 7525 2775 50  0000 C CNN
F 2 "Capacitor_SMD:C_0402_1005Metric" H 7425 2925 50  0001 C CNN
F 3 "" H 7425 2925 50  0000 C CNN
F 4 "Digi-key" V 7425 2925 60  0001 C CNN "Supplier"
F 5 "490-6416-1-ND	" V 7425 2925 60  0001 C CNN "Supplier Part"
	1    7425 2925
	1    0    0    -1  
$EndComp
$Comp
L Device:C C719
U 1 1 577E07EE
P 7675 2925
F 0 "C719" V 7775 3075 50  0000 C CNN
F 1 "0.47uF" V 7775 2775 50  0000 C CNN
F 2 "Capacitor_SMD:C_0402_1005Metric" H 7675 2925 50  0001 C CNN
F 3 "" H 7675 2925 50  0000 C CNN
F 4 "Digi-key" V 7675 2925 60  0001 C CNN "Supplier"
F 5 "490-6416-1-ND	" V 7675 2925 60  0001 C CNN "Supplier Part"
	1    7675 2925
	1    0    0    -1  
$EndComp
$Comp
L Device:C C720
U 1 1 577E080A
P 7925 2925
F 0 "C720" V 8025 3075 50  0000 C CNN
F 1 "0.47uF" V 8025 2775 50  0000 C CNN
F 2 "Capacitor_SMD:C_0402_1005Metric" H 7925 2925 50  0001 C CNN
F 3 "" H 7925 2925 50  0000 C CNN
F 4 "Digi-key" V 7925 2925 60  0001 C CNN "Supplier"
F 5 "490-6416-1-ND	" V 7925 2925 60  0001 C CNN "Supplier Part"
	1    7925 2925
	1    0    0    -1  
$EndComp
Text Notes 5650 2650 0    60   ~ 0
VCC_INT
$Comp
L Device:C C705
U 1 1 577E1B1D
P 5650 3675
F 0 "C705" V 5750 3825 50  0000 C CNN
F 1 "100uF" V 5750 3525 50  0000 C CNN
F 2 "Capacitor_SMD:C_0805_2012Metric" H 5650 3675 50  0001 C CNN
F 3 "" H 5650 3675 50  0000 C CNN
F 4 "Digi-key" V 5650 3675 60  0001 C CNN "Supplier"
F 5 "490-3390-1-ND	" V 5650 3675 60  0001 C CNN "Supplier Part"
	1    5650 3675
	1    0    0    -1  
$EndComp
$Comp
L power1:GND #PWR0717
U 1 1 577E1B2A
P 5475 3825
F 0 "#PWR0717" H 5475 3575 50  0001 C CNN
F 1 "GND" H 5475 3675 50  0000 C CNN
F 2 "" H 5475 3825 50  0000 C CNN
F 3 "" H 5475 3825 50  0000 C CNN
	1    5475 3825
	1    0    0    -1  
$EndComp
$Comp
L Device:C C709
U 1 1 577E1B3D
P 6000 3675
F 0 "C709" V 6100 3825 50  0000 C CNN
F 1 "0.47uF" V 6100 3525 50  0000 C CNN
F 2 "Capacitor_SMD:C_0402_1005Metric" H 6000 3675 50  0001 C CNN
F 3 "" H 6000 3675 50  0000 C CNN
F 4 "Digi-key" V 6000 3675 60  0001 C CNN "Supplier"
F 5 "490-6416-1-ND	" V 6000 3675 60  0001 C CNN "Supplier Part"
	1    6000 3675
	1    0    0    -1  
$EndComp
Text Notes 5650 3400 0    60   ~ 0
VCC_BRAM
$Comp
L Device:C C703
U 1 1 577E24E5
P 5625 4425
F 0 "C703" V 5725 4575 50  0000 C CNN
F 1 "100uF" V 5725 4275 50  0000 C CNN
F 2 "Capacitor_SMD:C_0805_2012Metric" H 5625 4425 50  0001 C CNN
F 3 "" H 5625 4425 50  0000 C CNN
F 4 "Digi-key" V 5625 4425 60  0001 C CNN "Supplier"
F 5 "490-6542-1-ND	" V 5625 4425 60  0001 C CNN "Supplier Part"
	1    5625 4425
	1    0    0    -1  
$EndComp
$Comp
L power1:GND #PWR0709
U 1 1 577E24F3
P 5450 4575
F 0 "#PWR0709" H 5450 4325 50  0001 C CNN
F 1 "GND" H 5450 4425 50  0000 C CNN
F 2 "" H 5450 4575 50  0000 C CNN
F 3 "" H 5450 4575 50  0000 C CNN
	1    5450 4575
	1    0    0    -1  
$EndComp
$Comp
L Device:C C714
U 1 1 577E24FF
P 6325 4425
F 0 "C714" V 6425 4575 50  0000 C CNN
F 1 "100nF" V 6425 4275 50  0000 C CNN
F 2 "Capacitor_SMD:C_0201_0603Metric" H 6325 4425 50  0001 C CNN
F 3 "" H 6325 4425 50  0000 C CNN
F 4 "Digi-key" V 6325 4425 60  0001 C CNN "Supplier"
F 5 "490-6416-1-ND	" V 6325 4425 60  0001 C CNN "Supplier Part"
	1    6325 4425
	1    0    0    -1  
$EndComp
Text Notes 5625 4150 0    60   ~ 0
VCC_AUX
$Comp
L Device:C C710
U 1 1 577E29DC
P 6000 4425
F 0 "C710" V 6100 4575 50  0000 C CNN
F 1 "10uF" V 6100 4275 50  0000 C CNN
F 2 "Capacitor_SMD:C_0402_1005Metric" H 6000 4425 50  0001 C CNN
F 3 "" H 6000 4425 50  0000 C CNN
F 4 "Digi-key" V 6000 4425 60  0001 C CNN "Supplier"
F 5 "490-6479-1-ND	" V 6000 4425 60  0001 C CNN "Supplier Part"
	1    6000 4425
	1    0    0    -1  
$EndComp
$Comp
L power1:VccInt #PWR0714
U 1 1 5793796E
P 5475 2775
F 0 "#PWR0714" H 5475 2625 50  0001 C CNN
F 1 "VccInt" H 5475 2925 50  0000 C CNN
F 2 "" H 5475 2775 50  0000 C CNN
F 3 "" H 5475 2775 50  0000 C CNN
	1    5475 2775
	1    0    0    -1  
$EndComp
$Comp
L power1:VccInt #PWR0716
U 1 1 57937B43
P 5475 3525
F 0 "#PWR0716" H 5475 3375 50  0001 C CNN
F 1 "VccInt" H 5475 3675 50  0000 C CNN
F 2 "" H 5475 3525 50  0000 C CNN
F 3 "" H 5475 3525 50  0000 C CNN
	1    5475 3525
	1    0    0    -1  
$EndComp
$Comp
L power1:VccAux #PWR0708
U 1 1 57937FC1
P 5450 4275
F 0 "#PWR0708" H 5450 4125 50  0001 C CNN
F 1 "VccAux" H 5450 4425 50  0000 C CNN
F 2 "" H 5450 4275 50  0000 C CNN
F 3 "" H 5450 4275 50  0000 C CNN
	1    5450 4275
	1    0    0    -1  
$EndComp
$Comp
L power1:VccInt #PWR0702
U 1 1 5B58CDD2
P 2375 2775
F 0 "#PWR0702" H 2375 2625 50  0001 C CNN
F 1 "VccInt" H 2375 2925 50  0000 C CNN
F 2 "" H 2375 2775 50  0000 C CNN
F 3 "" H 2375 2775 50  0000 C CNN
	1    2375 2775
	1    0    0    -1  
$EndComp
$Comp
L power1:VccAux #PWR0701
U 1 1 5B58D2A2
P 2375 2425
F 0 "#PWR0701" H 2375 2275 50  0001 C CNN
F 1 "VccAux" H 2375 2575 50  0000 C CNN
F 2 "" H 2375 2425 50  0000 C CNN
F 3 "" H 2375 2425 50  0000 C CNN
	1    2375 2425
	1    0    0    -1  
$EndComp
$Comp
L power1:GND #PWR0703
U 1 1 5B5914F0
P 2525 5250
F 0 "#PWR0703" H 2525 5000 50  0001 C CNN
F 1 "GND" H 2525 5100 50  0000 C CNN
F 2 "" H 2525 5250 50  0000 C CNN
F 3 "" H 2525 5250 50  0000 C CNN
	1    2525 5250
	1    0    0    -1  
$EndComp
$Comp
L power1:GND #PWR0705
U 1 1 5B5917DF
P 4525 5250
F 0 "#PWR0705" H 4525 5000 50  0001 C CNN
F 1 "GND" H 4525 5100 50  0000 C CNN
F 2 "" H 4525 5250 50  0000 C CNN
F 3 "" H 4525 5250 50  0000 C CNN
	1    4525 5250
	1    0    0    -1  
$EndComp
$Comp
L power1:VccInt #PWR0704
U 1 1 57937A32
P 4525 2075
F 0 "#PWR0704" H 4525 1925 50  0001 C CNN
F 1 "VccInt" H 4525 2225 50  0000 C CNN
F 2 "" H 4525 2075 50  0000 C CNN
F 3 "" H 4525 2075 50  0000 C CNN
	1    4525 2075
	1    0    0    -1  
$EndComp
Wire Wire Line
	5475 2775 5650 2775
Wire Wire Line
	5475 3075 5650 3075
Connection ~ 5650 2775
Connection ~ 6000 2775
Connection ~ 6250 2775
Connection ~ 6500 2775
Connection ~ 6925 2775
Connection ~ 7175 2775
Connection ~ 7425 2775
Connection ~ 7675 2775
Connection ~ 5650 3075
Wire Wire Line
	6000 3075 6250 3075
Connection ~ 6000 3075
Wire Wire Line
	6925 3075 7175 3075
Connection ~ 7175 3075
Connection ~ 6925 3075
Connection ~ 7425 3075
Connection ~ 7675 3075
Wire Wire Line
	5475 3525 5650 3525
Wire Wire Line
	5475 3825 5650 3825
Connection ~ 5650 3525
Connection ~ 5650 3825
Wire Wire Line
	5450 4275 5625 4275
Wire Wire Line
	5450 4575 5625 4575
Connection ~ 5625 4275
Connection ~ 5625 4575
Connection ~ 6000 4275
Connection ~ 6000 4575
Wire Wire Line
	2375 2525 2525 2525
Wire Wire Line
	2375 2875 2525 2875
Wire Wire Line
	2525 2325 2525 2375
Wire Wire Line
	2525 2325 2575 2325
Wire Wire Line
	2575 2375 2525 2375
Connection ~ 2525 2375
Wire Wire Line
	2575 2425 2525 2425
Connection ~ 2525 2425
Wire Wire Line
	2525 2475 2575 2475
Connection ~ 2525 2475
Wire Wire Line
	2525 2525 2575 2525
Wire Wire Line
	2575 2775 2525 2775
Wire Wire Line
	2525 2825 2575 2825
Connection ~ 2525 2825
Wire Wire Line
	2375 2875 2375 2775
Connection ~ 2525 2875
Wire Wire Line
	2375 2425 2375 2525
Wire Wire Line
	2575 2975 2525 2975
Wire Wire Line
	2525 2975 2525 3025
Wire Wire Line
	2575 5125 2525 5125
Connection ~ 2525 5125
Wire Wire Line
	2575 5075 2525 5075
Connection ~ 2525 5075
Wire Wire Line
	2575 5025 2525 5025
Connection ~ 2525 5025
Wire Wire Line
	2575 4975 2525 4975
Connection ~ 2525 4975
Wire Wire Line
	2575 4925 2525 4925
Connection ~ 2525 4925
Wire Wire Line
	2575 4875 2525 4875
Connection ~ 2525 4875
Wire Wire Line
	2575 4825 2525 4825
Connection ~ 2525 4825
Wire Wire Line
	2525 4775 2575 4775
Connection ~ 2525 4775
Wire Wire Line
	2525 4725 2575 4725
Connection ~ 2525 4725
Wire Wire Line
	2525 4675 2575 4675
Connection ~ 2525 4675
Wire Wire Line
	2525 4625 2575 4625
Connection ~ 2525 4625
Wire Wire Line
	2575 4575 2525 4575
Connection ~ 2525 4575
Wire Wire Line
	2575 4525 2525 4525
Connection ~ 2525 4525
Wire Wire Line
	2575 4475 2525 4475
Connection ~ 2525 4475
Wire Wire Line
	2575 4425 2525 4425
Connection ~ 2525 4425
Wire Wire Line
	2575 4375 2525 4375
Connection ~ 2525 4375
Wire Wire Line
	2575 4325 2525 4325
Connection ~ 2525 4325
Wire Wire Line
	2575 4275 2525 4275
Connection ~ 2525 4275
Wire Wire Line
	2575 4225 2525 4225
Connection ~ 2525 4225
Wire Wire Line
	2575 4175 2525 4175
Connection ~ 2525 4175
Wire Wire Line
	2575 4125 2525 4125
Connection ~ 2525 4125
Wire Wire Line
	2575 4075 2525 4075
Connection ~ 2525 4075
Wire Wire Line
	2575 4025 2525 4025
Connection ~ 2525 4025
Wire Wire Line
	2575 3975 2525 3975
Connection ~ 2525 3975
Wire Wire Line
	2575 3925 2525 3925
Connection ~ 2525 3925
Wire Wire Line
	2575 3875 2525 3875
Connection ~ 2525 3875
Wire Wire Line
	2575 3825 2525 3825
Connection ~ 2525 3825
Wire Wire Line
	2575 3775 2525 3775
Connection ~ 2525 3775
Wire Wire Line
	2575 3725 2525 3725
Connection ~ 2525 3725
Wire Wire Line
	2575 3675 2525 3675
Connection ~ 2525 3675
Wire Wire Line
	2575 3625 2525 3625
Connection ~ 2525 3625
Wire Wire Line
	2575 3575 2525 3575
Connection ~ 2525 3575
Wire Wire Line
	2575 3525 2525 3525
Connection ~ 2525 3525
Wire Wire Line
	2575 3475 2525 3475
Connection ~ 2525 3475
Wire Wire Line
	2575 3425 2525 3425
Connection ~ 2525 3425
Wire Wire Line
	2575 3375 2525 3375
Connection ~ 2525 3375
Wire Wire Line
	2575 3325 2525 3325
Connection ~ 2525 3325
Wire Wire Line
	2575 3275 2525 3275
Connection ~ 2525 3275
Wire Wire Line
	2575 3225 2525 3225
Connection ~ 2525 3225
Wire Wire Line
	2575 3175 2525 3175
Connection ~ 2525 3175
Wire Wire Line
	2575 3125 2525 3125
Connection ~ 2525 3125
Wire Wire Line
	2575 3075 2525 3075
Connection ~ 2525 3075
Wire Wire Line
	2575 3025 2525 3025
Connection ~ 2525 3025
Wire Wire Line
	4475 3025 4525 3025
Wire Wire Line
	4525 3075 4475 3075
Connection ~ 4525 3075
Wire Wire Line
	4475 3125 4525 3125
Connection ~ 4525 3125
Wire Wire Line
	4475 3175 4525 3175
Connection ~ 4525 3175
Wire Wire Line
	4475 3225 4525 3225
Connection ~ 4525 3225
Wire Wire Line
	4475 3275 4525 3275
Connection ~ 4525 3275
Wire Wire Line
	4475 3325 4525 3325
Connection ~ 4525 3325
Wire Wire Line
	4475 3375 4525 3375
Connection ~ 4525 3375
Wire Wire Line
	4475 3425 4525 3425
Connection ~ 4525 3425
Wire Wire Line
	4475 3475 4525 3475
Connection ~ 4525 3475
Wire Wire Line
	4475 3525 4525 3525
Connection ~ 4525 3525
Wire Wire Line
	4475 3575 4525 3575
Connection ~ 4525 3575
Wire Wire Line
	4475 3625 4525 3625
Connection ~ 4525 3625
Wire Wire Line
	4475 3675 4525 3675
Connection ~ 4525 3675
Wire Wire Line
	4475 3725 4525 3725
Connection ~ 4525 3725
Wire Wire Line
	4475 3775 4525 3775
Connection ~ 4525 3775
Wire Wire Line
	4475 3825 4525 3825
Connection ~ 4525 3825
Wire Wire Line
	4475 3875 4525 3875
Connection ~ 4525 3875
Wire Wire Line
	4475 3925 4525 3925
Connection ~ 4525 3925
Wire Wire Line
	4525 3975 4475 3975
Connection ~ 4525 3975
Wire Wire Line
	4475 4025 4525 4025
Connection ~ 4525 4025
Wire Wire Line
	4525 4075 4475 4075
Connection ~ 4525 4075
Wire Wire Line
	4475 4125 4525 4125
Connection ~ 4525 4125
Wire Wire Line
	4525 4175 4475 4175
Connection ~ 4525 4175
Wire Wire Line
	4475 4225 4525 4225
Connection ~ 4525 4225
Wire Wire Line
	4525 4275 4475 4275
Connection ~ 4525 4275
Wire Wire Line
	4475 4325 4525 4325
Connection ~ 4525 4325
Wire Wire Line
	4475 4375 4525 4375
Connection ~ 4525 4375
Wire Wire Line
	4475 4425 4525 4425
Connection ~ 4525 4425
Wire Wire Line
	4525 4475 4475 4475
Connection ~ 4525 4475
Wire Wire Line
	4475 4525 4525 4525
Connection ~ 4525 4525
Wire Wire Line
	4525 4575 4475 4575
Connection ~ 4525 4575
Wire Wire Line
	4475 4625 4525 4625
Connection ~ 4525 4625
Wire Wire Line
	4525 4675 4475 4675
Connection ~ 4525 4675
Wire Wire Line
	4475 4725 4525 4725
Connection ~ 4525 4725
Wire Wire Line
	4525 4775 4475 4775
Connection ~ 4525 4775
Wire Wire Line
	4475 4825 4525 4825
Connection ~ 4525 4825
Wire Wire Line
	4525 4875 4475 4875
Connection ~ 4525 4875
Wire Wire Line
	4475 4925 4525 4925
Connection ~ 4525 4925
Wire Wire Line
	4525 4975 4475 4975
Connection ~ 4525 4975
Wire Wire Line
	4475 5025 4525 5025
Connection ~ 4525 5025
Wire Wire Line
	4525 5075 4475 5075
Connection ~ 4525 5075
Wire Wire Line
	4475 5125 4525 5125
Connection ~ 4525 5125
Wire Wire Line
	4525 2875 4475 2875
Wire Wire Line
	4475 2275 4525 2275
Connection ~ 4525 2275
Wire Wire Line
	4525 2325 4475 2325
Connection ~ 4525 2325
Wire Wire Line
	4475 2375 4525 2375
Connection ~ 4525 2375
Wire Wire Line
	4525 2425 4475 2425
Connection ~ 4525 2425
Wire Wire Line
	4475 2475 4525 2475
Connection ~ 4525 2475
Wire Wire Line
	4525 2525 4475 2525
Connection ~ 4525 2525
Wire Wire Line
	4475 2575 4525 2575
Connection ~ 4525 2575
Wire Wire Line
	4525 2625 4475 2625
Connection ~ 4525 2625
Wire Wire Line
	4475 2675 4525 2675
Connection ~ 4525 2675
Wire Wire Line
	4525 2725 4475 2725
Connection ~ 4525 2725
Wire Wire Line
	4475 2775 4525 2775
Connection ~ 4525 2775
Wire Wire Line
	4525 2825 4475 2825
Connection ~ 4525 2825
Wire Wire Line
	5650 2775 6000 2775
Wire Wire Line
	6000 2775 6250 2775
Wire Wire Line
	6250 2775 6500 2775
Wire Wire Line
	6500 2775 6925 2775
Wire Wire Line
	6925 2775 7175 2775
Wire Wire Line
	7175 2775 7425 2775
Wire Wire Line
	7425 2775 7675 2775
Wire Wire Line
	7675 2775 7925 2775
Wire Wire Line
	5650 3075 6000 3075
Wire Wire Line
	6500 3075 6925 3075
Wire Wire Line
	7175 3075 7425 3075
Wire Wire Line
	7425 3075 7675 3075
Wire Wire Line
	7675 3075 7925 3075
Wire Wire Line
	5650 3525 6000 3525
Wire Wire Line
	5650 3825 6000 3825
Wire Wire Line
	5625 4275 6000 4275
Wire Wire Line
	5625 4575 6000 4575
Wire Wire Line
	6000 4275 6325 4275
Wire Wire Line
	6000 4575 6325 4575
Wire Wire Line
	2525 2375 2525 2425
Wire Wire Line
	2525 2425 2525 2475
Wire Wire Line
	2525 2475 2525 2525
Wire Wire Line
	2525 2775 2525 2825
Wire Wire Line
	2525 2825 2525 2875
Wire Wire Line
	2525 2875 2575 2875
Wire Wire Line
	2525 5075 2525 5125
Wire Wire Line
	2525 5025 2525 5075
Wire Wire Line
	2525 4975 2525 5025
Wire Wire Line
	2525 4925 2525 4975
Wire Wire Line
	2525 4875 2525 4925
Wire Wire Line
	2525 4825 2525 4875
Wire Wire Line
	2525 4775 2525 4825
Wire Wire Line
	2525 4725 2525 4775
Wire Wire Line
	2525 4675 2525 4725
Wire Wire Line
	2525 4625 2525 4675
Wire Wire Line
	2525 4575 2525 4625
Wire Wire Line
	2525 4525 2525 4575
Wire Wire Line
	2525 4475 2525 4525
Wire Wire Line
	2525 4425 2525 4475
Wire Wire Line
	2525 4375 2525 4425
Wire Wire Line
	2525 4325 2525 4375
Wire Wire Line
	2525 4275 2525 4325
Wire Wire Line
	2525 4225 2525 4275
Wire Wire Line
	2525 4175 2525 4225
Wire Wire Line
	2525 4125 2525 4175
Wire Wire Line
	2525 4075 2525 4125
Wire Wire Line
	2525 4025 2525 4075
Wire Wire Line
	2525 3975 2525 4025
Wire Wire Line
	2525 3925 2525 3975
Wire Wire Line
	2525 3875 2525 3925
Wire Wire Line
	2525 3825 2525 3875
Wire Wire Line
	2525 3775 2525 3825
Wire Wire Line
	2525 3725 2525 3775
Wire Wire Line
	2525 3675 2525 3725
Wire Wire Line
	2525 3625 2525 3675
Wire Wire Line
	2525 3575 2525 3625
Wire Wire Line
	2525 3525 2525 3575
Wire Wire Line
	2525 3475 2525 3525
Wire Wire Line
	2525 3425 2525 3475
Wire Wire Line
	2525 3375 2525 3425
Wire Wire Line
	2525 3325 2525 3375
Wire Wire Line
	2525 3275 2525 3325
Wire Wire Line
	2525 3225 2525 3275
Wire Wire Line
	2525 3175 2525 3225
Wire Wire Line
	2525 3125 2525 3175
Wire Wire Line
	2525 3075 2525 3125
Wire Wire Line
	2525 3025 2525 3075
Wire Wire Line
	4525 3025 4525 3075
Wire Wire Line
	4525 3075 4525 3125
Wire Wire Line
	4525 3125 4525 3175
Wire Wire Line
	4525 3175 4525 3225
Wire Wire Line
	4525 3225 4525 3275
Wire Wire Line
	4525 3275 4525 3325
Wire Wire Line
	4525 3325 4525 3375
Wire Wire Line
	4525 3375 4525 3425
Wire Wire Line
	4525 3425 4525 3475
Wire Wire Line
	4525 3475 4525 3525
Wire Wire Line
	4525 3525 4525 3575
Wire Wire Line
	4525 3575 4525 3625
Wire Wire Line
	4525 3625 4525 3675
Wire Wire Line
	4525 3675 4525 3725
Wire Wire Line
	4525 3725 4525 3775
Wire Wire Line
	4525 3775 4525 3825
Wire Wire Line
	4525 3825 4525 3875
Wire Wire Line
	4525 3875 4525 3925
Wire Wire Line
	4525 3925 4525 3975
Wire Wire Line
	4525 3975 4525 4025
Wire Wire Line
	4525 4025 4525 4075
Wire Wire Line
	4525 4075 4525 4125
Wire Wire Line
	4525 4125 4525 4175
Wire Wire Line
	4525 4175 4525 4225
Wire Wire Line
	4525 4225 4525 4275
Wire Wire Line
	4525 4275 4525 4325
Wire Wire Line
	4525 4325 4525 4375
Wire Wire Line
	4525 4375 4525 4425
Wire Wire Line
	4525 4425 4525 4475
Wire Wire Line
	4525 4475 4525 4525
Wire Wire Line
	4525 4525 4525 4575
Wire Wire Line
	4525 4575 4525 4625
Wire Wire Line
	4525 4625 4525 4675
Wire Wire Line
	4525 4675 4525 4725
Wire Wire Line
	4525 4725 4525 4775
Wire Wire Line
	4525 4775 4525 4825
Wire Wire Line
	4525 4825 4525 4875
Wire Wire Line
	4525 4875 4525 4925
Wire Wire Line
	4525 4925 4525 4975
Wire Wire Line
	4525 4975 4525 5025
Wire Wire Line
	4525 5025 4525 5075
Wire Wire Line
	4525 5075 4525 5125
Wire Wire Line
	4525 2275 4525 2325
Wire Wire Line
	4525 2325 4525 2375
Wire Wire Line
	4525 2375 4525 2425
Wire Wire Line
	4525 2425 4525 2475
Wire Wire Line
	4525 2475 4525 2525
Wire Wire Line
	4525 2525 4525 2575
Wire Wire Line
	4525 2575 4525 2625
Wire Wire Line
	4525 2625 4525 2675
Wire Wire Line
	4525 2675 4525 2725
Wire Wire Line
	4525 2725 4525 2775
Wire Wire Line
	4525 2775 4525 2825
Wire Wire Line
	4525 2825 4525 2875
$Comp
L FEAD-rescue:XC7K70T-FBG484-MDJ_compo U301
U 7 1 5C860687
P 3525 3675
F 0 "U301" H 3525 5392 50  0000 C CNN
F 1 "XC7K70T-FBG484" H 3525 5301 50  0000 C CNN
F 2 "Package_BGA:BGA-484_23.0x23.0mm_Layout22x22_P1.0mm" H 3525 3675 50  0001 C CNN
F 3 "" H 3525 3675 50  0000 C CNN
	7    3525 3675
	1    0    0    -1  
$EndComp
Wire Wire Line
	4525 2075 4525 2275
Wire Wire Line
	2525 2225 2525 2275
Wire Wire Line
	2525 2225 2575 2225
Wire Wire Line
	2575 2275 2525 2275
Connection ~ 2525 2275
Wire Wire Line
	2525 2275 2525 2325
Connection ~ 2525 2325
Wire Wire Line
	4475 2925 4525 2925
Wire Wire Line
	4525 2925 4525 2875
Connection ~ 4525 2875
Connection ~ 2525 2525
Wire Wire Line
	2525 5125 2525 5250
Wire Wire Line
	4525 5125 4525 5250
Wire Wire Line
	6250 3075 6500 3075
Connection ~ 6250 3075
Connection ~ 6500 3075
$EndSCHEMATC
