EESchema Schematic File Version 4
LIBS:FEAD-cache
EELAYER 26 0
EELAYER END
$Descr A4 11693 8268
encoding utf-8
Sheet 9 11
Title ""
Date ""
Rev ""
Comp ""
Comment1 ""
Comment2 ""
Comment3 ""
Comment4 ""
$EndDescr
$Comp
L device:LED D901
U 1 1 57B66382
P 2200 2550
F 0 "D901" H 2200 2650 50  0000 C CNN
F 1 "LED" H 2200 2450 50  0000 C CNN
F 2 "LED_SMD:LED_0402_1005Metric" H 2200 2550 50  0001 C CNN
F 3 "" H 2200 2550 50  0000 C CNN
F 4 "Digkey" H 2200 2550 60  0001 C CNN "Supplier"
F 5 "1497-1174-1-ND" H 2200 2550 60  0001 C CNN "Supplier P/N"
	1    2200 2550
	-1   0    0    1   
$EndComp
$Comp
L Device:R R901
U 1 1 57B66468
P 2750 2550
F 0 "R901" V 2830 2550 50  0000 C CNN
F 1 "1k" V 2750 2550 50  0000 C CNN
F 2 "Resistor_SMD:R_0201_0603Metric" V 2650 2550 50  0001 C CNN
F 3 "" H 2750 2550 50  0000 C CNN
	1    2750 2550
	0    -1   -1   0   
$EndComp
Wire Wire Line
	2600 2550 2400 2550
$Comp
L power1:GND #PWR0901
U 1 1 57B664DD
P 3000 3500
F 0 "#PWR0901" H 3000 3250 50  0001 C CNN
F 1 "GND" H 3000 3350 50  0000 C CNN
F 2 "" H 3000 3500 50  0000 C CNN
F 3 "" H 3000 3500 50  0000 C CNN
	1    3000 3500
	1    0    0    -1  
$EndComp
Wire Wire Line
	3000 2550 2900 2550
Text Label 1900 2550 2    60   ~ 0
LED0
Wire Wire Line
	2000 2550 1900 2550
Wire Wire Line
	3000 2850 2900 2850
Text Label 1900 2850 2    60   ~ 0
LED1
Wire Wire Line
	2000 2850 1900 2850
Wire Wire Line
	3000 3100 2900 3100
Text Label 1900 3100 2    60   ~ 0
LED2
Wire Wire Line
	2000 3100 1900 3100
Wire Wire Line
	3000 3400 2900 3400
Text Label 1900 3400 2    60   ~ 0
LED3
Wire Wire Line
	2000 3400 1900 3400
Wire Wire Line
	3000 2550 3000 2850
Connection ~ 3000 3400
Connection ~ 3000 3100
Connection ~ 3000 2850
$Comp
L device:LED D902
U 1 1 57B60858
P 2200 2850
F 0 "D902" H 2200 2950 50  0000 C CNN
F 1 "LED" H 2200 2750 50  0000 C CNN
F 2 "LED_SMD:LED_0402_1005Metric" H 2200 2850 50  0001 C CNN
F 3 "" H 2200 2850 50  0000 C CNN
F 4 "Digkey" H 2200 2850 60  0001 C CNN "Supplier"
F 5 "1497-1174-1-ND" H 2200 2850 60  0001 C CNN "Supplier P/N"
	1    2200 2850
	-1   0    0    1   
$EndComp
$Comp
L Device:R R902
U 1 1 57B6085E
P 2750 2850
F 0 "R902" V 2830 2850 50  0000 C CNN
F 1 "1k" V 2750 2850 50  0000 C CNN
F 2 "Resistor_SMD:R_0201_0603Metric" V 2650 2850 50  0001 C CNN
F 3 "" H 2750 2850 50  0000 C CNN
	1    2750 2850
	0    -1   -1   0   
$EndComp
Wire Wire Line
	2600 2850 2400 2850
$Comp
L device:LED D903
U 1 1 57B60963
P 2200 3100
F 0 "D903" H 2200 3200 50  0000 C CNN
F 1 "LED" H 2200 3000 50  0000 C CNN
F 2 "LED_SMD:LED_0402_1005Metric" H 2200 3100 50  0001 C CNN
F 3 "" H 2200 3100 50  0000 C CNN
F 4 "Digkey" H 2200 3100 60  0001 C CNN "Supplier"
F 5 "1497-1174-1-ND" H 2200 3100 60  0001 C CNN "Supplier P/N"
	1    2200 3100
	-1   0    0    1   
$EndComp
$Comp
L Device:R R903
U 1 1 57B60969
P 2750 3100
F 0 "R903" V 2830 3100 50  0000 C CNN
F 1 "1k" V 2750 3100 50  0000 C CNN
F 2 "Resistor_SMD:R_0201_0603Metric" V 2650 3100 50  0001 C CNN
F 3 "" H 2750 3100 50  0000 C CNN
	1    2750 3100
	0    -1   -1   0   
$EndComp
Wire Wire Line
	2600 3100 2400 3100
$Comp
L device:LED D904
U 1 1 57B60972
P 2200 3400
F 0 "D904" H 2200 3500 50  0000 C CNN
F 1 "LED" H 2200 3300 50  0000 C CNN
F 2 "LED_SMD:LED_0402_1005Metric" H 2200 3575 50  0000 C CNN
F 3 "" H 2200 3400 50  0000 C CNN
F 4 "Digkey" H 2200 3400 60  0001 C CNN "Supplier"
F 5 "1497-1174-1-ND" H 2200 3400 60  0001 C CNN "Supplier P/N"
	1    2200 3400
	-1   0    0    1   
$EndComp
$Comp
L Device:R R904
U 1 1 57B60978
P 2750 3400
F 0 "R904" V 2830 3400 50  0000 C CNN
F 1 "1k" V 2750 3400 50  0000 C CNN
F 2 "Resistor_SMD:R_0201_0603Metric" V 2650 3400 50  0001 C CNN
F 3 "" H 2750 3400 50  0000 C CNN
	1    2750 3400
	0    -1   -1   0   
$EndComp
Wire Wire Line
	2600 3400 2400 3400
$Comp
L conn:CONN_01X06 P901
U 1 1 57B66F4E
P 5150 2800
F 0 "P901" H 5150 3150 50  0000 C CNN
F 1 "CONN_01X06" V 5250 2800 50  0000 C CNN
F 2 "Connector_PinHeader_2.54mm:PinHeader_2x03_P2.54mm_Vertical" H 5150 2800 50  0001 C CNN
F 3 "" H 5150 2800 50  0000 C CNN
F 4 "Digikey" H 5150 2800 60  0001 C CNN "Supplier"
F 5 "WM17449-ND" H 5150 2800 60  0001 C CNN "Supplier P/N"
	1    5150 2800
	1    0    0    -1  
$EndComp
$Comp
L power1:GND #PWR0903
U 1 1 57B67011
P 4400 3150
F 0 "#PWR0903" H 4400 2900 50  0001 C CNN
F 1 "GND" H 4400 3000 50  0000 C CNN
F 2 "" H 4400 3150 50  0000 C CNN
F 3 "" H 4400 3150 50  0000 C CNN
	1    4400 3150
	1    0    0    -1  
$EndComp
$Comp
L power1:VccO #PWR0902
U 1 1 57B67037
P 4400 2850
F 0 "#PWR0902" H 4400 2700 50  0001 C CNN
F 1 "VccO" H 4400 3000 50  0000 C CNN
F 2 "" H 4400 2850 50  0000 C CNN
F 3 "" H 4400 2850 50  0000 C CNN
	1    4400 2850
	1    0    0    -1  
$EndComp
Wire Wire Line
	4400 2850 4400 2950
Wire Wire Line
	4400 2950 4950 2950
Wire Wire Line
	4400 3150 4400 3050
Wire Wire Line
	4400 3050 4950 3050
Text Label 4850 2650 2    60   ~ 0
GPIO1
Text Label 4850 2850 2    60   ~ 0
GPIO3
Text Label 4850 2750 2    60   ~ 0
GPIO2
Text Label 4850 2550 2    60   ~ 0
GPIO0
Wire Wire Line
	4850 2550 4950 2550
Wire Wire Line
	4850 2750 4950 2750
Wire Wire Line
	4850 2850 4950 2850
Wire Wire Line
	4850 2650 4950 2650
Text HLabel 1500 2250 0    60   Input ~ 0
LED[0..3]
Text HLabel 4025 2250 0    60   BiDi ~ 0
GPIO[0..3]
Wire Wire Line
	3000 3400 3000 3500
Wire Wire Line
	3000 3100 3000 3400
Wire Wire Line
	3000 2850 3000 3100
$EndSCHEMATC
