EESchema Schematic File Version 4
LIBS:FEAD-cache
EELAYER 26 0
EELAYER END
$Descr A4 11693 8268
encoding utf-8
Sheet 5 11
Title ""
Date ""
Rev ""
Comp ""
Comment1 ""
Comment2 ""
Comment3 ""
Comment4 ""
$EndDescr
$Comp
L FEAD-rescue:SFP+-MDJ_compo J501
U 1 1 57100D5A
P 1950 5350
F 0 "J501" H 1950 5625 60  0000 C CNN
F 1 "SFP+" H 1600 5350 60  0000 C CNN
F 2 "MDJ_mod:SFP+" H 1750 5350 60  0001 C CNN
F 3 "" H 1750 5350 60  0000 C CNN
F 4 "Digikey" H 1950 5350 60  0001 C CNN "Supplier"
F 5 "A120615-ND" H 1950 5350 60  0001 C CNN "Supplier P/N"
	1    1950 5350
	1    0    0    -1  
$EndComp
$Comp
L power1:GND #PWR0504
U 1 1 5718FAB0
P 2500 2100
F 0 "#PWR0504" H 2500 1850 50  0001 C CNN
F 1 "GND" H 2500 1950 50  0000 C CNN
F 2 "" H 2500 2100 50  0000 C CNN
F 3 "" H 2500 2100 50  0000 C CNN
	1    2500 2100
	1    0    0    -1  
$EndComp
$Comp
L pspice1:CAP C502
U 1 1 5719049E
P 2400 1850
F 0 "C502" V 2500 2000 50  0000 C CNN
F 1 "100nF" V 2300 1725 50  0000 C CNN
F 2 "Capacitor_SMD:C_0201_0603Metric" H 2400 1850 50  0001 C CNN
F 3 "" H 2400 1850 50  0000 C CNN
	1    2400 1850
	1    0    0    -1  
$EndComp
$Comp
L pspice1:CAP C503
U 1 1 571906D8
P 2600 1850
F 0 "C503" V 2700 2000 50  0000 C CNN
F 1 "10uF" V 2700 1700 50  0000 C CNN
F 2 "Capacitor_SMD:C_0402_1005Metric" H 2600 1850 50  0001 C CNN
F 3 "" H 2600 1850 50  0000 C CNN
	1    2600 1850
	1    0    0    -1  
$EndComp
$Comp
L pspice1:C C501
U 1 1 5718E775
P 1850 1850
F 0 "C501" V 1950 2000 50  0000 C CNN
F 1 "100nF" V 1950 1700 50  0000 C CNN
F 2 "Capacitor_SMD:C_0201_0603Metric" H 1850 1850 50  0001 C CNN
F 3 "" H 1850 1850 50  0000 C CNN
	1    1850 1850
	1    0    0    -1  
$EndComp
$Comp
L power1:GND #PWR0501
U 1 1 5718E838
P 1850 2100
F 0 "#PWR0501" H 1850 1850 50  0001 C CNN
F 1 "GND" H 1850 1950 50  0000 C CNN
F 2 "" H 1850 2100 50  0000 C CNN
F 3 "" H 1850 2100 50  0000 C CNN
	1    1850 2100
	1    0    0    -1  
$EndComp
$Comp
L pspice1:INDUCTOR L501
U 1 1 5718F869
P 2950 1500
F 0 "L501" H 2825 1600 50  0000 C CNN
F 1 "1uH" H 3025 1600 50  0000 C CNN
F 2 "Inductor_SMD:L_0603_1608Metric" H 2950 1500 50  0001 C CNN
F 3 "" H 2950 1500 50  0000 C CNN
	1    2950 1500
	1    0    0    -1  
$EndComp
$Comp
L pspice1:INDUCTOR L502
U 1 1 5718F972
P 2950 1650
F 0 "L502" H 2825 1725 50  0000 C CNN
F 1 "1uH" H 3025 1725 50  0000 C CNN
F 2 "Inductor_SMD:L_0603_1608Metric" H 2950 1650 50  0001 C CNN
F 3 "" H 2950 1650 50  0000 C CNN
	1    2950 1650
	1    0    0    -1  
$EndComp
$Comp
L pspice1:C C504
U 1 1 5718FCB4
P 3450 1850
F 0 "C504" V 3350 2000 50  0000 C CNN
F 1 "100nF" V 3350 1700 50  0000 C CNN
F 2 "Capacitor_SMD:C_0201_0603Metric" H 3450 1850 50  0001 C CNN
F 3 "" H 3450 1850 50  0000 C CNN
	1    3450 1850
	1    0    0    -1  
$EndComp
$Comp
L power1:GND #PWR0505
U 1 1 5718FE28
P 3450 2025
F 0 "#PWR0505" H 3450 1775 50  0001 C CNN
F 1 "GND" H 3450 1875 50  0000 C CNN
F 2 "" H 3450 2025 50  0000 C CNN
F 3 "" H 3450 2025 50  0000 C CNN
	1    3450 2025
	1    0    0    -1  
$EndComp
$Comp
L power1:GND #PWR0502
U 1 1 57190092
P 2150 4450
F 0 "#PWR0502" H 2150 4200 50  0001 C CNN
F 1 "GND" H 2150 4300 50  0000 C CNN
F 2 "" H 2150 4450 50  0000 C CNN
F 3 "" H 2150 4450 50  0000 C CNN
	1    2150 4450
	1    0    0    -1  
$EndComp
Text HLabel 4350 2500 2    39   Output ~ 0
SFP_Rx+
Text HLabel 4350 2800 2    39   Input ~ 0
SFP_Tx+
Text HLabel 6800 3100 2    60   Output ~ 0
SFP_Present
Text HLabel 6800 3300 2    60   Output ~ 0
SFP_LOS
Text HLabel 6800 3400 2    60   Output ~ 0
SFP_Tx_Fault
Text HLabel 6800 3700 2    60   Input ~ 0
SFP_SCL
Text HLabel 6800 3800 2    60   BiDi ~ 0
SFP_SDA
Text Notes 3500 1150 0    60   ~ 0
275mA
Wire Wire Line
	2850 5800 2850 5750
Wire Wire Line
	950  5800 1050 5800
Wire Wire Line
	1850 5800 1850 5750
Wire Wire Line
	1950 5750 1950 5800
Connection ~ 1950 5800
Wire Wire Line
	2050 5750 2050 5800
Connection ~ 2050 5800
Wire Wire Line
	2150 5750 2150 5800
Connection ~ 2150 5800
Wire Wire Line
	2250 5750 2250 5800
Connection ~ 2250 5800
Wire Wire Line
	2350 5750 2350 5800
Connection ~ 2350 5800
Wire Wire Line
	2450 5750 2450 5800
Connection ~ 2450 5800
Wire Wire Line
	2550 5750 2550 5800
Connection ~ 2550 5800
Wire Wire Line
	2650 5750 2650 5800
Connection ~ 2650 5800
Wire Wire Line
	2750 5750 2750 5800
Connection ~ 2750 5800
Wire Wire Line
	2400 2000 2400 2100
Wire Wire Line
	2400 2100 2500 2100
Wire Wire Line
	2600 2100 2600 2000
Connection ~ 2500 2100
Wire Wire Line
	2200 2100 2200 1650
Wire Wire Line
	2200 1650 2400 1650
Wire Wire Line
	2600 1650 2600 1700
Wire Wire Line
	2400 1650 2400 1700
Connection ~ 2400 1650
Wire Wire Line
	2100 2100 2100 1500
Wire Wire Line
	1850 1500 2100 1500
Wire Wire Line
	1850 1500 1850 1700
Wire Wire Line
	1850 2100 1850 2000
Connection ~ 2600 1650
Connection ~ 2100 1500
Wire Wire Line
	3100 1650 3175 1650
Wire Wire Line
	3175 1650 3175 1500
Wire Wire Line
	3100 1500 3175 1500
Wire Wire Line
	3450 1500 3450 1700
Connection ~ 3175 1500
Wire Wire Line
	3450 1350 3450 1500
Connection ~ 3450 1500
Wire Wire Line
	1850 4200 1850 4350
Wire Wire Line
	1850 4350 1950 4350
Wire Wire Line
	2550 4350 2550 4200
Wire Wire Line
	2450 4200 2450 4350
Connection ~ 2450 4350
Wire Wire Line
	2350 4200 2350 4350
Connection ~ 2350 4350
Wire Wire Line
	2250 4200 2250 4350
Connection ~ 2250 4350
Wire Wire Line
	2050 4200 2050 4350
Connection ~ 2050 4350
Wire Wire Line
	1950 4200 1950 4350
Connection ~ 1950 4350
Wire Wire Line
	2150 4350 2150 4450
Connection ~ 2150 4350
Wire Wire Line
	3250 3100 6050 3100
Wire Wire Line
	3250 3300 5750 3300
Wire Wire Line
	3250 3400 5450 3400
Wire Wire Line
	3250 3700 6350 3700
Wire Wire Line
	3250 3800 6650 3800
Wire Wire Line
	3250 2500 4350 2500
Wire Wire Line
	3250 2600 4350 2600
$Comp
L pspice1:R R501
U 1 1 578454F5
P 5450 2700
F 0 "R501" V 5530 2700 50  0000 C CNN
F 1 "4.7k" V 5450 2700 50  0000 C CNN
F 2 "Resistor_SMD:R_0201_0603Metric" H 5450 2700 50  0001 C CNN
F 3 "" H 5450 2700 50  0000 C CNN
	1    5450 2700
	1    0    0    -1  
$EndComp
Wire Wire Line
	5450 2900 5450 3400
Connection ~ 5450 3400
Wire Wire Line
	5450 2500 5450 2350
$Comp
L power1:GND #PWR0506
U 1 1 5784595C
P 3550 4050
F 0 "#PWR0506" H 3550 3800 50  0001 C CNN
F 1 "GND" H 3550 3900 50  0000 C CNN
F 2 "" H 3550 4050 50  0000 C CNN
F 3 "" H 3550 4050 50  0000 C CNN
	1    3550 4050
	1    0    0    -1  
$EndComp
Wire Wire Line
	3550 3500 3550 4050
$Comp
L pspice1:R R502
U 1 1 57845B85
P 5750 2700
F 0 "R502" V 5830 2700 50  0000 C CNN
F 1 "4.7k" V 5750 2700 50  0000 C CNN
F 2 "Resistor_SMD:R_0201_0603Metric" H 5750 2700 50  0001 C CNN
F 3 "" H 5750 2700 50  0000 C CNN
	1    5750 2700
	1    0    0    -1  
$EndComp
Wire Wire Line
	5750 2500 5750 2350
Wire Wire Line
	5750 2900 5750 3300
Connection ~ 5750 3300
$Comp
L pspice1:R R503
U 1 1 57845DD6
P 6050 2700
F 0 "R503" V 6130 2700 50  0000 C CNN
F 1 "4.7k" V 6050 2700 50  0000 C CNN
F 2 "Resistor_SMD:R_0201_0603Metric" H 6050 2700 50  0001 C CNN
F 3 "" H 6050 2700 50  0000 C CNN
	1    6050 2700
	1    0    0    -1  
$EndComp
Wire Wire Line
	6050 2500 6050 2350
Wire Wire Line
	6050 2900 6050 3100
$Comp
L power1:VccO #PWR0508
U 1 1 578F4E91
P 5450 2350
F 0 "#PWR0508" H 5450 2200 50  0001 C CNN
F 1 "VccO" H 5450 2500 50  0000 C CNN
F 2 "" H 5450 2350 50  0000 C CNN
F 3 "" H 5450 2350 50  0000 C CNN
	1    5450 2350
	1    0    0    -1  
$EndComp
$Comp
L power1:VccO #PWR0509
U 1 1 578F5416
P 5750 2350
F 0 "#PWR0509" H 5750 2200 50  0001 C CNN
F 1 "VccO" H 5750 2500 50  0000 C CNN
F 2 "" H 5750 2350 50  0000 C CNN
F 3 "" H 5750 2350 50  0000 C CNN
	1    5750 2350
	1    0    0    -1  
$EndComp
$Comp
L power1:VccO #PWR0510
U 1 1 578F5446
P 6050 2350
F 0 "#PWR0510" H 6050 2200 50  0001 C CNN
F 1 "VccO" H 6050 2500 50  0000 C CNN
F 2 "" H 6050 2350 50  0000 C CNN
F 3 "" H 6050 2350 50  0000 C CNN
	1    6050 2350
	1    0    0    -1  
$EndComp
Connection ~ 6050 3100
$Comp
L power1:VccSFP #PWR0507
U 1 1 578F7539
P 3450 1350
F 0 "#PWR0507" H 3450 1200 50  0001 C CNN
F 1 "VccSFP" H 3450 1500 50  0000 C CNN
F 2 "" H 3450 1350 50  0000 C CNN
F 3 "" H 3450 1350 50  0000 C CNN
	1    3450 1350
	1    0    0    -1  
$EndComp
$Comp
L pspice1:R R504
U 1 1 579C79BA
P 6350 2700
F 0 "R504" V 6430 2700 50  0000 C CNN
F 1 "4.7k" V 6350 2700 50  0000 C CNN
F 2 "Resistor_SMD:R_0201_0603Metric" H 6350 2700 50  0001 C CNN
F 3 "" H 6350 2700 50  0000 C CNN
	1    6350 2700
	1    0    0    -1  
$EndComp
Wire Wire Line
	6350 2500 6350 2350
$Comp
L pspice1:R R505
U 1 1 579C79C1
P 6650 2700
F 0 "R505" V 6730 2700 50  0000 C CNN
F 1 "4.7k" V 6650 2700 50  0000 C CNN
F 2 "Resistor_SMD:R_0201_0603Metric" H 6650 2700 50  0001 C CNN
F 3 "" H 6650 2700 50  0000 C CNN
	1    6650 2700
	1    0    0    -1  
$EndComp
Wire Wire Line
	6650 2500 6650 2350
$Comp
L power1:VccO #PWR0511
U 1 1 579C79C8
P 6350 2350
F 0 "#PWR0511" H 6350 2200 50  0001 C CNN
F 1 "VccO" H 6350 2500 50  0000 C CNN
F 2 "" H 6350 2350 50  0000 C CNN
F 3 "" H 6350 2350 50  0000 C CNN
	1    6350 2350
	1    0    0    -1  
$EndComp
$Comp
L power1:VccO #PWR0512
U 1 1 579C79CE
P 6650 2350
F 0 "#PWR0512" H 6650 2200 50  0001 C CNN
F 1 "VccO" H 6650 2500 50  0000 C CNN
F 2 "" H 6650 2350 50  0000 C CNN
F 3 "" H 6650 2350 50  0000 C CNN
	1    6650 2350
	1    0    0    -1  
$EndComp
Wire Wire Line
	6350 2900 6350 3700
Connection ~ 6350 3700
Wire Wire Line
	6650 2900 6650 3800
Connection ~ 6650 3800
Wire Wire Line
	3550 3500 3250 3500
$Comp
L power1:GND #PWR0503
U 1 1 57B4E699
P 2350 5900
F 0 "#PWR0503" H 2350 5650 50  0001 C CNN
F 1 "GND" H 2350 5750 50  0000 C CNN
F 2 "" H 2350 5900 50  0000 C CNN
F 3 "" H 2350 5900 50  0000 C CNN
	1    2350 5900
	1    0    0    -1  
$EndComp
Wire Wire Line
	950  5800 950  5750
Connection ~ 1850 5800
Wire Wire Line
	1050 5750 1050 5800
Connection ~ 1050 5800
Wire Wire Line
	1150 5750 1150 5800
Connection ~ 1150 5800
Wire Wire Line
	1250 5750 1250 5800
Connection ~ 1250 5800
Wire Wire Line
	1350 5750 1350 5800
Connection ~ 1350 5800
Wire Wire Line
	1450 5750 1450 5800
Connection ~ 1450 5800
Wire Wire Line
	1550 5750 1550 5800
Connection ~ 1550 5800
Wire Wire Line
	1650 5750 1650 5800
Connection ~ 1650 5800
Wire Wire Line
	1750 5750 1750 5800
Connection ~ 1750 5800
NoConn ~ 3250 3200
Wire Wire Line
	1950 5800 2050 5800
Wire Wire Line
	2050 5800 2150 5800
Wire Wire Line
	2150 5800 2250 5800
Wire Wire Line
	2250 5800 2350 5800
Wire Wire Line
	2350 5800 2350 5900
Wire Wire Line
	2350 5800 2450 5800
Wire Wire Line
	2450 5800 2550 5800
Wire Wire Line
	2550 5800 2650 5800
Wire Wire Line
	2650 5800 2750 5800
Wire Wire Line
	2750 5800 2850 5800
Wire Wire Line
	2500 2100 2600 2100
Wire Wire Line
	2400 1650 2600 1650
Wire Wire Line
	2600 1650 2800 1650
Wire Wire Line
	2100 1500 2800 1500
Wire Wire Line
	3175 1500 3450 1500
Wire Wire Line
	2450 4350 2550 4350
Wire Wire Line
	2350 4350 2450 4350
Wire Wire Line
	2250 4350 2350 4350
Wire Wire Line
	2050 4350 2150 4350
Wire Wire Line
	1950 4350 2050 4350
Wire Wire Line
	2150 4350 2250 4350
Wire Wire Line
	5450 3400 6800 3400
Wire Wire Line
	5750 3300 6800 3300
Wire Wire Line
	6050 3100 6800 3100
Wire Wire Line
	6350 3700 6800 3700
Wire Wire Line
	6650 3800 6800 3800
Wire Wire Line
	1850 5800 1950 5800
Wire Wire Line
	1050 5800 1150 5800
Wire Wire Line
	1150 5800 1250 5800
Wire Wire Line
	1250 5800 1350 5800
Wire Wire Line
	1350 5800 1450 5800
Wire Wire Line
	1450 5800 1550 5800
Wire Wire Line
	1550 5800 1650 5800
Wire Wire Line
	1650 5800 1750 5800
Wire Wire Line
	1750 5800 1850 5800
Wire Wire Line
	3250 2900 4350 2900
Wire Wire Line
	3250 2800 4350 2800
Text HLabel 4350 2600 2    39   Output ~ 0
SFP_Rx-
Text HLabel 4350 2900 2    39   Input ~ 0
SFP_Tx-
Wire Wire Line
	3450 2000 3450 2025
$Comp
L FEAD-rescue:SFP+-MDJ_compo J501
U 2 1 5C94BECF
P 2350 3150
F 0 "J501" H 1975 3250 60  0000 R CNN
F 1 "SFP+" H 2050 3150 60  0000 R CNN
F 2 "MDJ_mod:SFP+" H 2550 3200 60  0001 C CNN
F 3 "" H 2550 3200 60  0000 C CNN
	2    2350 3150
	1    0    0    -1  
$EndComp
$EndSCHEMATC
