G04 #@! TF.GenerationSoftware,KiCad,Pcbnew,5.0.2-5.fc29*
G04 #@! TF.CreationDate,2019-05-29T10:50:59+02:00*
G04 #@! TF.ProjectId,FEAD,46454144-2e6b-4696-9361-645f70636258,rev?*
G04 #@! TF.SameCoordinates,Original*
G04 #@! TF.FileFunction,Drawing*
%FSLAX46Y46*%
G04 Gerber Fmt 4.6, Leading zero omitted, Abs format (unit mm)*
G04 Created by KiCad (PCBNEW 5.0.2-5.fc29) date mer. 29 mai 2019 10:50:59 CEST*
%MOMM*%
%LPD*%
G01*
G04 APERTURE LIST*
%ADD10C,0.300000*%
%ADD11C,0.200000*%
G04 APERTURE END LIST*
D10*
X87921428Y-95071428D02*
X87921428Y-94357142D01*
X87207142Y-94285714D01*
X87278571Y-94357142D01*
X87350000Y-94500000D01*
X87350000Y-94857142D01*
X87278571Y-95000000D01*
X87207142Y-95071428D01*
X87064285Y-95142857D01*
X86707142Y-95142857D01*
X86564285Y-95071428D01*
X86492857Y-95000000D01*
X86421428Y-94857142D01*
X86421428Y-94500000D01*
X86492857Y-94357142D01*
X86564285Y-94285714D01*
X86421428Y-96571428D02*
X86421428Y-95714285D01*
X86421428Y-96142857D02*
X87921428Y-96142857D01*
X87707142Y-96000000D01*
X87564285Y-95857142D01*
X87492857Y-95714285D01*
X86492857Y-97285714D02*
X86421428Y-97285714D01*
X86278571Y-97214285D01*
X86207142Y-97142857D01*
X87921428Y-98214285D02*
X87921428Y-98357142D01*
X87850000Y-98500000D01*
X87778571Y-98571428D01*
X87635714Y-98642857D01*
X87350000Y-98714285D01*
X86992857Y-98714285D01*
X86707142Y-98642857D01*
X86564285Y-98571428D01*
X86492857Y-98500000D01*
X86421428Y-98357142D01*
X86421428Y-98214285D01*
X86492857Y-98071428D01*
X86564285Y-98000000D01*
X86707142Y-97928571D01*
X86992857Y-97857142D01*
X87350000Y-97857142D01*
X87635714Y-97928571D01*
X87778571Y-98000000D01*
X87850000Y-98071428D01*
X87921428Y-98214285D01*
X87921428Y-99642857D02*
X87921428Y-99785714D01*
X87850000Y-99928571D01*
X87778571Y-100000000D01*
X87635714Y-100071428D01*
X87350000Y-100142857D01*
X86992857Y-100142857D01*
X86707142Y-100071428D01*
X86564285Y-100000000D01*
X86492857Y-99928571D01*
X86421428Y-99785714D01*
X86421428Y-99642857D01*
X86492857Y-99500000D01*
X86564285Y-99428571D01*
X86707142Y-99357142D01*
X86992857Y-99285714D01*
X87350000Y-99285714D01*
X87635714Y-99357142D01*
X87778571Y-99428571D01*
X87850000Y-99500000D01*
X87921428Y-99642857D01*
X87921428Y-101071428D02*
X87921428Y-101214285D01*
X87850000Y-101357142D01*
X87778571Y-101428571D01*
X87635714Y-101500000D01*
X87350000Y-101571428D01*
X86992857Y-101571428D01*
X86707142Y-101500000D01*
X86564285Y-101428571D01*
X86492857Y-101357142D01*
X86421428Y-101214285D01*
X86421428Y-101071428D01*
X86492857Y-100928571D01*
X86564285Y-100857142D01*
X86707142Y-100785714D01*
X86992857Y-100714285D01*
X87350000Y-100714285D01*
X87635714Y-100785714D01*
X87778571Y-100857142D01*
X87850000Y-100928571D01*
X87921428Y-101071428D01*
X86421428Y-103357142D02*
X87421428Y-103357142D01*
X87278571Y-103357142D02*
X87350000Y-103428571D01*
X87421428Y-103571428D01*
X87421428Y-103785714D01*
X87350000Y-103928571D01*
X87207142Y-104000000D01*
X86421428Y-104000000D01*
X87207142Y-104000000D02*
X87350000Y-104071428D01*
X87421428Y-104214285D01*
X87421428Y-104428571D01*
X87350000Y-104571428D01*
X87207142Y-104642857D01*
X86421428Y-104642857D01*
X86421428Y-105357142D02*
X87421428Y-105357142D01*
X87278571Y-105357142D02*
X87350000Y-105428571D01*
X87421428Y-105571428D01*
X87421428Y-105785714D01*
X87350000Y-105928571D01*
X87207142Y-106000000D01*
X86421428Y-106000000D01*
X87207142Y-106000000D02*
X87350000Y-106071428D01*
X87421428Y-106214285D01*
X87421428Y-106428571D01*
X87350000Y-106571428D01*
X87207142Y-106642857D01*
X86421428Y-106642857D01*
X89200000Y-75000000D02*
X89200000Y-126000000D01*
X103000000Y-75000000D02*
X88613579Y-75000000D01*
X103000000Y-126000000D02*
X88613579Y-126000000D01*
X89200000Y-126000000D02*
X88613579Y-124873496D01*
X89200000Y-126000000D02*
X89786421Y-124873496D01*
X89200000Y-75000000D02*
X88613579Y-76126504D01*
X89200000Y-75000000D02*
X89786421Y-76126504D01*
D11*
X17540000Y-76195000D02*
X70880000Y-76195000D01*
D10*
X23100714Y-75532142D02*
X23315000Y-75603571D01*
X23672142Y-75603571D01*
X23815000Y-75532142D01*
X23886428Y-75460714D01*
X23957857Y-75317857D01*
X23957857Y-75175000D01*
X23886428Y-75032142D01*
X23815000Y-74960714D01*
X23672142Y-74889285D01*
X23386428Y-74817857D01*
X23243571Y-74746428D01*
X23172142Y-74675000D01*
X23100714Y-74532142D01*
X23100714Y-74389285D01*
X23172142Y-74246428D01*
X23243571Y-74175000D01*
X23386428Y-74103571D01*
X23743571Y-74103571D01*
X23957857Y-74175000D01*
X25243571Y-74603571D02*
X25243571Y-75603571D01*
X24600714Y-74603571D02*
X24600714Y-75389285D01*
X24672142Y-75532142D01*
X24815000Y-75603571D01*
X25029285Y-75603571D01*
X25172142Y-75532142D01*
X25243571Y-75460714D01*
X25957857Y-75603571D02*
X25957857Y-74603571D01*
X25957857Y-74889285D02*
X26029285Y-74746428D01*
X26100714Y-74675000D01*
X26243571Y-74603571D01*
X26386428Y-74603571D01*
X26672142Y-74603571D02*
X27243571Y-74603571D01*
X26886428Y-75603571D02*
X26886428Y-74317857D01*
X26957857Y-74175000D01*
X27100714Y-74103571D01*
X27243571Y-74103571D01*
X28386428Y-75603571D02*
X28386428Y-74817857D01*
X28315000Y-74675000D01*
X28172142Y-74603571D01*
X27886428Y-74603571D01*
X27743571Y-74675000D01*
X28386428Y-75532142D02*
X28243571Y-75603571D01*
X27886428Y-75603571D01*
X27743571Y-75532142D01*
X27672142Y-75389285D01*
X27672142Y-75246428D01*
X27743571Y-75103571D01*
X27886428Y-75032142D01*
X28243571Y-75032142D01*
X28386428Y-74960714D01*
X29743571Y-75532142D02*
X29600714Y-75603571D01*
X29315000Y-75603571D01*
X29172142Y-75532142D01*
X29100714Y-75460714D01*
X29029285Y-75317857D01*
X29029285Y-74889285D01*
X29100714Y-74746428D01*
X29172142Y-74675000D01*
X29315000Y-74603571D01*
X29600714Y-74603571D01*
X29743571Y-74675000D01*
X30957857Y-75532142D02*
X30815000Y-75603571D01*
X30529285Y-75603571D01*
X30386428Y-75532142D01*
X30315000Y-75389285D01*
X30315000Y-74817857D01*
X30386428Y-74675000D01*
X30529285Y-74603571D01*
X30815000Y-74603571D01*
X30957857Y-74675000D01*
X31029285Y-74817857D01*
X31029285Y-74960714D01*
X30315000Y-75103571D01*
D11*
X17540000Y-73655000D02*
X70880000Y-73655000D01*
X70880000Y-76195000D02*
X70880000Y-73655000D01*
X17540000Y-76195000D02*
X17540000Y-73655000D01*
X17540000Y-82545000D02*
X70880000Y-82545000D01*
D10*
X23172142Y-81953571D02*
X23172142Y-80453571D01*
X23529285Y-80453571D01*
X23743571Y-80525000D01*
X23886428Y-80667857D01*
X23957857Y-80810714D01*
X24029285Y-81096428D01*
X24029285Y-81310714D01*
X23957857Y-81596428D01*
X23886428Y-81739285D01*
X23743571Y-81882142D01*
X23529285Y-81953571D01*
X23172142Y-81953571D01*
X24672142Y-81953571D02*
X24672142Y-80953571D01*
X24672142Y-80453571D02*
X24600714Y-80525000D01*
X24672142Y-80596428D01*
X24743571Y-80525000D01*
X24672142Y-80453571D01*
X24672142Y-80596428D01*
X25957857Y-81882142D02*
X25815000Y-81953571D01*
X25529285Y-81953571D01*
X25386428Y-81882142D01*
X25315000Y-81739285D01*
X25315000Y-81167857D01*
X25386428Y-81025000D01*
X25529285Y-80953571D01*
X25815000Y-80953571D01*
X25957857Y-81025000D01*
X26029285Y-81167857D01*
X26029285Y-81310714D01*
X25315000Y-81453571D01*
X26886428Y-81953571D02*
X26743571Y-81882142D01*
X26672142Y-81739285D01*
X26672142Y-80453571D01*
X28029285Y-81882142D02*
X27886428Y-81953571D01*
X27600714Y-81953571D01*
X27457857Y-81882142D01*
X27386428Y-81739285D01*
X27386428Y-81167857D01*
X27457857Y-81025000D01*
X27600714Y-80953571D01*
X27886428Y-80953571D01*
X28029285Y-81025000D01*
X28100714Y-81167857D01*
X28100714Y-81310714D01*
X27386428Y-81453571D01*
X29386428Y-81882142D02*
X29243571Y-81953571D01*
X28957857Y-81953571D01*
X28815000Y-81882142D01*
X28743571Y-81810714D01*
X28672142Y-81667857D01*
X28672142Y-81239285D01*
X28743571Y-81096428D01*
X28815000Y-81025000D01*
X28957857Y-80953571D01*
X29243571Y-80953571D01*
X29386428Y-81025000D01*
X29815000Y-80953571D02*
X30386428Y-80953571D01*
X30029285Y-80453571D02*
X30029285Y-81739285D01*
X30100714Y-81882142D01*
X30243571Y-81953571D01*
X30386428Y-81953571D01*
X30886428Y-81953571D02*
X30886428Y-80953571D01*
X30886428Y-81239285D02*
X30957857Y-81096428D01*
X31029285Y-81025000D01*
X31172142Y-80953571D01*
X31315000Y-80953571D01*
X31815000Y-81953571D02*
X31815000Y-80953571D01*
X31815000Y-80453571D02*
X31743571Y-80525000D01*
X31815000Y-80596428D01*
X31886428Y-80525000D01*
X31815000Y-80453571D01*
X31815000Y-80596428D01*
X33172142Y-81882142D02*
X33029285Y-81953571D01*
X32743571Y-81953571D01*
X32600714Y-81882142D01*
X32529285Y-81810714D01*
X32457857Y-81667857D01*
X32457857Y-81239285D01*
X32529285Y-81096428D01*
X32600714Y-81025000D01*
X32743571Y-80953571D01*
X33029285Y-80953571D01*
X33172142Y-81025000D01*
X33815000Y-81810714D02*
X33886428Y-81882142D01*
X33815000Y-81953571D01*
X33743571Y-81882142D01*
X33815000Y-81810714D01*
X33815000Y-81953571D01*
X33815000Y-81025000D02*
X33886428Y-81096428D01*
X33815000Y-81167857D01*
X33743571Y-81096428D01*
X33815000Y-81025000D01*
X33815000Y-81167857D01*
X36457857Y-81953571D02*
X35600714Y-81953571D01*
X36029285Y-81953571D02*
X36029285Y-80453571D01*
X35886428Y-80667857D01*
X35743571Y-80810714D01*
X35600714Y-80882142D01*
X37029285Y-80596428D02*
X37100714Y-80525000D01*
X37243571Y-80453571D01*
X37600714Y-80453571D01*
X37743571Y-80525000D01*
X37815000Y-80596428D01*
X37886428Y-80739285D01*
X37886428Y-80882142D01*
X37815000Y-81096428D01*
X36957857Y-81953571D01*
X37886428Y-81953571D01*
X38386428Y-80453571D02*
X39315000Y-80453571D01*
X38815000Y-81025000D01*
X39029285Y-81025000D01*
X39172142Y-81096428D01*
X39243571Y-81167857D01*
X39315000Y-81310714D01*
X39315000Y-81667857D01*
X39243571Y-81810714D01*
X39172142Y-81882142D01*
X39029285Y-81953571D01*
X38600714Y-81953571D01*
X38457857Y-81882142D01*
X38386428Y-81810714D01*
X41743571Y-80953571D02*
X41743571Y-81953571D01*
X41100714Y-80953571D02*
X41100714Y-81739285D01*
X41172142Y-81882142D01*
X41315000Y-81953571D01*
X41529285Y-81953571D01*
X41672142Y-81882142D01*
X41743571Y-81810714D01*
X42457857Y-81953571D02*
X42457857Y-80953571D01*
X42457857Y-81096428D02*
X42529285Y-81025000D01*
X42672142Y-80953571D01*
X42886428Y-80953571D01*
X43029285Y-81025000D01*
X43100714Y-81167857D01*
X43100714Y-81953571D01*
X43100714Y-81167857D02*
X43172142Y-81025000D01*
X43315000Y-80953571D01*
X43529285Y-80953571D01*
X43672142Y-81025000D01*
X43743571Y-81167857D01*
X43743571Y-81953571D01*
D11*
X17540000Y-80005000D02*
X70880000Y-80005000D01*
X70880000Y-82545000D02*
X70880000Y-80005000D01*
X17540000Y-82545000D02*
X17540000Y-80005000D01*
X17540000Y-79370000D02*
X17540000Y-76830000D01*
X70880000Y-79370000D02*
X70880000Y-76830000D01*
X17540000Y-76830000D02*
X70880000Y-76830000D01*
D10*
X23886428Y-78778571D02*
X23172142Y-78778571D01*
X23172142Y-77278571D01*
X25029285Y-78778571D02*
X25029285Y-77992857D01*
X24957857Y-77850000D01*
X24815000Y-77778571D01*
X24529285Y-77778571D01*
X24386428Y-77850000D01*
X25029285Y-78707142D02*
X24886428Y-78778571D01*
X24529285Y-78778571D01*
X24386428Y-78707142D01*
X24315000Y-78564285D01*
X24315000Y-78421428D01*
X24386428Y-78278571D01*
X24529285Y-78207142D01*
X24886428Y-78207142D01*
X25029285Y-78135714D01*
X25600714Y-77778571D02*
X25957857Y-78778571D01*
X26315000Y-77778571D02*
X25957857Y-78778571D01*
X25815000Y-79135714D01*
X25743571Y-79207142D01*
X25600714Y-79278571D01*
X27457857Y-78707142D02*
X27315000Y-78778571D01*
X27029285Y-78778571D01*
X26886428Y-78707142D01*
X26815000Y-78564285D01*
X26815000Y-77992857D01*
X26886428Y-77850000D01*
X27029285Y-77778571D01*
X27315000Y-77778571D01*
X27457857Y-77850000D01*
X27529285Y-77992857D01*
X27529285Y-78135714D01*
X26815000Y-78278571D01*
X28172142Y-78778571D02*
X28172142Y-77778571D01*
X28172142Y-78064285D02*
X28243571Y-77921428D01*
X28315000Y-77850000D01*
X28457857Y-77778571D01*
X28600714Y-77778571D01*
X31029285Y-78778571D02*
X30172142Y-78778571D01*
X30600714Y-78778571D02*
X30600714Y-77278571D01*
X30457857Y-77492857D01*
X30315000Y-77635714D01*
X30172142Y-77707142D01*
X31672142Y-78635714D02*
X31743571Y-78707142D01*
X31672142Y-78778571D01*
X31600714Y-78707142D01*
X31672142Y-78635714D01*
X31672142Y-78778571D01*
X31672142Y-77850000D02*
X31743571Y-77921428D01*
X31672142Y-77992857D01*
X31600714Y-77921428D01*
X31672142Y-77850000D01*
X31672142Y-77992857D01*
X33457857Y-78707142D02*
X33672142Y-78778571D01*
X34029285Y-78778571D01*
X34172142Y-78707142D01*
X34243571Y-78635714D01*
X34315000Y-78492857D01*
X34315000Y-78350000D01*
X34243571Y-78207142D01*
X34172142Y-78135714D01*
X34029285Y-78064285D01*
X33743571Y-77992857D01*
X33600714Y-77921428D01*
X33529285Y-77850000D01*
X33457857Y-77707142D01*
X33457857Y-77564285D01*
X33529285Y-77421428D01*
X33600714Y-77350000D01*
X33743571Y-77278571D01*
X34100714Y-77278571D01*
X34315000Y-77350000D01*
X34957857Y-78778571D02*
X34957857Y-77778571D01*
X34957857Y-77278571D02*
X34886428Y-77350000D01*
X34957857Y-77421428D01*
X35029285Y-77350000D01*
X34957857Y-77278571D01*
X34957857Y-77421428D01*
X36315000Y-77778571D02*
X36315000Y-78992857D01*
X36243571Y-79135714D01*
X36172142Y-79207142D01*
X36029285Y-79278571D01*
X35815000Y-79278571D01*
X35672142Y-79207142D01*
X36315000Y-78707142D02*
X36172142Y-78778571D01*
X35886428Y-78778571D01*
X35743571Y-78707142D01*
X35672142Y-78635714D01*
X35600714Y-78492857D01*
X35600714Y-78064285D01*
X35672142Y-77921428D01*
X35743571Y-77850000D01*
X35886428Y-77778571D01*
X36172142Y-77778571D01*
X36315000Y-77850000D01*
X37029285Y-77778571D02*
X37029285Y-78778571D01*
X37029285Y-77921428D02*
X37100714Y-77850000D01*
X37243571Y-77778571D01*
X37457857Y-77778571D01*
X37600714Y-77850000D01*
X37672142Y-77992857D01*
X37672142Y-78778571D01*
X39029285Y-78778571D02*
X39029285Y-77992857D01*
X38957857Y-77850000D01*
X38815000Y-77778571D01*
X38529285Y-77778571D01*
X38386428Y-77850000D01*
X39029285Y-78707142D02*
X38886428Y-78778571D01*
X38529285Y-78778571D01*
X38386428Y-78707142D01*
X38315000Y-78564285D01*
X38315000Y-78421428D01*
X38386428Y-78278571D01*
X38529285Y-78207142D01*
X38886428Y-78207142D01*
X39029285Y-78135714D01*
X39957857Y-78778571D02*
X39815000Y-78707142D01*
X39743571Y-78564285D01*
X39743571Y-77278571D01*
X42100714Y-79350000D02*
X42029285Y-79278571D01*
X41886428Y-79064285D01*
X41815000Y-78921428D01*
X41743571Y-78707142D01*
X41672142Y-78350000D01*
X41672142Y-78064285D01*
X41743571Y-77707142D01*
X41815000Y-77492857D01*
X41886428Y-77350000D01*
X42029285Y-77135714D01*
X42100714Y-77064285D01*
X42529285Y-77278571D02*
X43457857Y-77278571D01*
X42957857Y-77850000D01*
X43172142Y-77850000D01*
X43315000Y-77921428D01*
X43386428Y-77992857D01*
X43457857Y-78135714D01*
X43457857Y-78492857D01*
X43386428Y-78635714D01*
X43315000Y-78707142D01*
X43172142Y-78778571D01*
X42743571Y-78778571D01*
X42600714Y-78707142D01*
X42529285Y-78635714D01*
X44815000Y-77278571D02*
X44100714Y-77278571D01*
X44029285Y-77992857D01*
X44100714Y-77921428D01*
X44243571Y-77850000D01*
X44600714Y-77850000D01*
X44743571Y-77921428D01*
X44815000Y-77992857D01*
X44886428Y-78135714D01*
X44886428Y-78492857D01*
X44815000Y-78635714D01*
X44743571Y-78707142D01*
X44600714Y-78778571D01*
X44243571Y-78778571D01*
X44100714Y-78707142D01*
X44029285Y-78635714D01*
X47315000Y-77778571D02*
X47315000Y-78778571D01*
X46672142Y-77778571D02*
X46672142Y-78564285D01*
X46743571Y-78707142D01*
X46886428Y-78778571D01*
X47100714Y-78778571D01*
X47243571Y-78707142D01*
X47315000Y-78635714D01*
X48029285Y-78778571D02*
X48029285Y-77778571D01*
X48029285Y-77921428D02*
X48100714Y-77850000D01*
X48243571Y-77778571D01*
X48457857Y-77778571D01*
X48600714Y-77850000D01*
X48672142Y-77992857D01*
X48672142Y-78778571D01*
X48672142Y-77992857D02*
X48743571Y-77850000D01*
X48886428Y-77778571D01*
X49100714Y-77778571D01*
X49243571Y-77850000D01*
X49315000Y-77992857D01*
X49315000Y-78778571D01*
X52029285Y-78635714D02*
X51957857Y-78707142D01*
X51743571Y-78778571D01*
X51600714Y-78778571D01*
X51386428Y-78707142D01*
X51243571Y-78564285D01*
X51172142Y-78421428D01*
X51100714Y-78135714D01*
X51100714Y-77921428D01*
X51172142Y-77635714D01*
X51243571Y-77492857D01*
X51386428Y-77350000D01*
X51600714Y-77278571D01*
X51743571Y-77278571D01*
X51957857Y-77350000D01*
X52029285Y-77421428D01*
X53315000Y-77778571D02*
X53315000Y-78778571D01*
X52672142Y-77778571D02*
X52672142Y-78564285D01*
X52743571Y-78707142D01*
X52886428Y-78778571D01*
X53100714Y-78778571D01*
X53243571Y-78707142D01*
X53315000Y-78635714D01*
X55172142Y-78778571D02*
X55172142Y-77778571D01*
X55172142Y-77278571D02*
X55100714Y-77350000D01*
X55172142Y-77421428D01*
X55243571Y-77350000D01*
X55172142Y-77278571D01*
X55172142Y-77421428D01*
X55886428Y-77778571D02*
X55886428Y-78778571D01*
X55886428Y-77921428D02*
X55957857Y-77850000D01*
X56100714Y-77778571D01*
X56315000Y-77778571D01*
X56457857Y-77850000D01*
X56529285Y-77992857D01*
X56529285Y-78778571D01*
X57243571Y-78778571D02*
X57243571Y-77778571D01*
X57243571Y-77278571D02*
X57172142Y-77350000D01*
X57243571Y-77421428D01*
X57314999Y-77350000D01*
X57243571Y-77278571D01*
X57243571Y-77421428D01*
X57743571Y-77778571D02*
X58315000Y-77778571D01*
X57957857Y-77278571D02*
X57957857Y-78564285D01*
X58029285Y-78707142D01*
X58172142Y-78778571D01*
X58315000Y-78778571D01*
X58815000Y-78778571D02*
X58815000Y-77778571D01*
X58815000Y-77278571D02*
X58743571Y-77350000D01*
X58815000Y-77421428D01*
X58886428Y-77350000D01*
X58815000Y-77278571D01*
X58815000Y-77421428D01*
X60172142Y-78778571D02*
X60172142Y-77992857D01*
X60100714Y-77850000D01*
X59957857Y-77778571D01*
X59672142Y-77778571D01*
X59529285Y-77850000D01*
X60172142Y-78707142D02*
X60029285Y-78778571D01*
X59672142Y-78778571D01*
X59529285Y-78707142D01*
X59457857Y-78564285D01*
X59457857Y-78421428D01*
X59529285Y-78278571D01*
X59672142Y-78207142D01*
X60029285Y-78207142D01*
X60172142Y-78135714D01*
X61100714Y-78778571D02*
X60957857Y-78707142D01*
X60886428Y-78564285D01*
X60886428Y-77278571D01*
X61529285Y-79350000D02*
X61600714Y-79278571D01*
X61743571Y-79064285D01*
X61815000Y-78921428D01*
X61886428Y-78707142D01*
X61957857Y-78350000D01*
X61957857Y-78064285D01*
X61886428Y-77707142D01*
X61815000Y-77492857D01*
X61743571Y-77350000D01*
X61600714Y-77135714D01*
X61529285Y-77064285D01*
D11*
X17540000Y-79370000D02*
X70880000Y-79370000D01*
X17540000Y-102230000D02*
X70880000Y-102230000D01*
X17540000Y-98420000D02*
X70880000Y-98420000D01*
D10*
X23886428Y-97828571D02*
X23172142Y-97828571D01*
X23172142Y-96328571D01*
X25029285Y-97828571D02*
X25029285Y-97042857D01*
X24957857Y-96900000D01*
X24815000Y-96828571D01*
X24529285Y-96828571D01*
X24386428Y-96900000D01*
X25029285Y-97757142D02*
X24886428Y-97828571D01*
X24529285Y-97828571D01*
X24386428Y-97757142D01*
X24315000Y-97614285D01*
X24315000Y-97471428D01*
X24386428Y-97328571D01*
X24529285Y-97257142D01*
X24886428Y-97257142D01*
X25029285Y-97185714D01*
X25600714Y-96828571D02*
X25957857Y-97828571D01*
X26315000Y-96828571D02*
X25957857Y-97828571D01*
X25815000Y-98185714D01*
X25743571Y-98257142D01*
X25600714Y-98328571D01*
X27457857Y-97757142D02*
X27315000Y-97828571D01*
X27029285Y-97828571D01*
X26886428Y-97757142D01*
X26815000Y-97614285D01*
X26815000Y-97042857D01*
X26886428Y-96900000D01*
X27029285Y-96828571D01*
X27315000Y-96828571D01*
X27457857Y-96900000D01*
X27529285Y-97042857D01*
X27529285Y-97185714D01*
X26815000Y-97328571D01*
X28172142Y-97828571D02*
X28172142Y-96828571D01*
X28172142Y-97114285D02*
X28243571Y-96971428D01*
X28315000Y-96900000D01*
X28457857Y-96828571D01*
X28600714Y-96828571D01*
X30886428Y-96828571D02*
X30886428Y-97828571D01*
X30529285Y-96257142D02*
X30172142Y-97328571D01*
X31100714Y-97328571D01*
X31672142Y-97685714D02*
X31743571Y-97757142D01*
X31672142Y-97828571D01*
X31600714Y-97757142D01*
X31672142Y-97685714D01*
X31672142Y-97828571D01*
X31672142Y-96900000D02*
X31743571Y-96971428D01*
X31672142Y-97042857D01*
X31600714Y-96971428D01*
X31672142Y-96900000D01*
X31672142Y-97042857D01*
X33529285Y-97828571D02*
X33529285Y-96328571D01*
X34100714Y-96328571D01*
X34243571Y-96400000D01*
X34315000Y-96471428D01*
X34386428Y-96614285D01*
X34386428Y-96828571D01*
X34315000Y-96971428D01*
X34243571Y-97042857D01*
X34100714Y-97114285D01*
X33529285Y-97114285D01*
X35243571Y-97828571D02*
X35100714Y-97757142D01*
X35029285Y-97685714D01*
X34957857Y-97542857D01*
X34957857Y-97114285D01*
X35029285Y-96971428D01*
X35100714Y-96900000D01*
X35243571Y-96828571D01*
X35457857Y-96828571D01*
X35600714Y-96900000D01*
X35672142Y-96971428D01*
X35743571Y-97114285D01*
X35743571Y-97542857D01*
X35672142Y-97685714D01*
X35600714Y-97757142D01*
X35457857Y-97828571D01*
X35243571Y-97828571D01*
X36243571Y-96828571D02*
X36529285Y-97828571D01*
X36815000Y-97114285D01*
X37100714Y-97828571D01*
X37386428Y-96828571D01*
X38529285Y-97757142D02*
X38386428Y-97828571D01*
X38100714Y-97828571D01*
X37957857Y-97757142D01*
X37886428Y-97614285D01*
X37886428Y-97042857D01*
X37957857Y-96900000D01*
X38100714Y-96828571D01*
X38386428Y-96828571D01*
X38529285Y-96900000D01*
X38600714Y-97042857D01*
X38600714Y-97185714D01*
X37886428Y-97328571D01*
X39243571Y-97828571D02*
X39243571Y-96828571D01*
X39243571Y-97114285D02*
X39315000Y-96971428D01*
X39386428Y-96900000D01*
X39529285Y-96828571D01*
X39672142Y-96828571D01*
X41743571Y-98400000D02*
X41672142Y-98328571D01*
X41529285Y-98114285D01*
X41457857Y-97971428D01*
X41386428Y-97757142D01*
X41315000Y-97400000D01*
X41315000Y-97114285D01*
X41386428Y-96757142D01*
X41457857Y-96542857D01*
X41529285Y-96400000D01*
X41672142Y-96185714D01*
X41743571Y-96114285D01*
X42172142Y-96328571D02*
X43100714Y-96328571D01*
X42600714Y-96900000D01*
X42815000Y-96900000D01*
X42957857Y-96971428D01*
X43029285Y-97042857D01*
X43100714Y-97185714D01*
X43100714Y-97542857D01*
X43029285Y-97685714D01*
X42957857Y-97757142D01*
X42815000Y-97828571D01*
X42386428Y-97828571D01*
X42243571Y-97757142D01*
X42172142Y-97685714D01*
X44457857Y-96328571D02*
X43743571Y-96328571D01*
X43672142Y-97042857D01*
X43743571Y-96971428D01*
X43886428Y-96900000D01*
X44243571Y-96900000D01*
X44386428Y-96971428D01*
X44457857Y-97042857D01*
X44529285Y-97185714D01*
X44529285Y-97542857D01*
X44457857Y-97685714D01*
X44386428Y-97757142D01*
X44243571Y-97828571D01*
X43886428Y-97828571D01*
X43743571Y-97757142D01*
X43672142Y-97685714D01*
X46957857Y-96828571D02*
X46957857Y-97828571D01*
X46315000Y-96828571D02*
X46315000Y-97614285D01*
X46386428Y-97757142D01*
X46529285Y-97828571D01*
X46743571Y-97828571D01*
X46886428Y-97757142D01*
X46957857Y-97685714D01*
X47672142Y-97828571D02*
X47672142Y-96828571D01*
X47672142Y-96971428D02*
X47743571Y-96900000D01*
X47886428Y-96828571D01*
X48100714Y-96828571D01*
X48243571Y-96900000D01*
X48315000Y-97042857D01*
X48315000Y-97828571D01*
X48315000Y-97042857D02*
X48386428Y-96900000D01*
X48529285Y-96828571D01*
X48743571Y-96828571D01*
X48886428Y-96900000D01*
X48957857Y-97042857D01*
X48957857Y-97828571D01*
X51672142Y-97685714D02*
X51600714Y-97757142D01*
X51386428Y-97828571D01*
X51243571Y-97828571D01*
X51029285Y-97757142D01*
X50886428Y-97614285D01*
X50815000Y-97471428D01*
X50743571Y-97185714D01*
X50743571Y-96971428D01*
X50815000Y-96685714D01*
X50886428Y-96542857D01*
X51029285Y-96400000D01*
X51243571Y-96328571D01*
X51386428Y-96328571D01*
X51600714Y-96400000D01*
X51672142Y-96471428D01*
X52957857Y-96828571D02*
X52957857Y-97828571D01*
X52315000Y-96828571D02*
X52315000Y-97614285D01*
X52386428Y-97757142D01*
X52529285Y-97828571D01*
X52743571Y-97828571D01*
X52886428Y-97757142D01*
X52957857Y-97685714D01*
X53529285Y-98400000D02*
X53600714Y-98328571D01*
X53743571Y-98114285D01*
X53815000Y-97971428D01*
X53886428Y-97757142D01*
X53957857Y-97400000D01*
X53957857Y-97114285D01*
X53886428Y-96757142D01*
X53815000Y-96542857D01*
X53743571Y-96400000D01*
X53600714Y-96185714D01*
X53529285Y-96114285D01*
D11*
X17540000Y-95880000D02*
X70880000Y-95880000D01*
X70880000Y-98420000D02*
X70880000Y-95880000D01*
X17540000Y-98420000D02*
X17540000Y-95880000D01*
X17540000Y-101595000D02*
X17540000Y-99055000D01*
X70880000Y-101595000D02*
X70880000Y-99055000D01*
X17540000Y-99055000D02*
X70880000Y-99055000D01*
D10*
X23172142Y-101003571D02*
X23172142Y-99503571D01*
X23529285Y-99503571D01*
X23743571Y-99575000D01*
X23886428Y-99717857D01*
X23957857Y-99860714D01*
X24029285Y-100146428D01*
X24029285Y-100360714D01*
X23957857Y-100646428D01*
X23886428Y-100789285D01*
X23743571Y-100932142D01*
X23529285Y-101003571D01*
X23172142Y-101003571D01*
X24672142Y-101003571D02*
X24672142Y-100003571D01*
X24672142Y-99503571D02*
X24600714Y-99575000D01*
X24672142Y-99646428D01*
X24743571Y-99575000D01*
X24672142Y-99503571D01*
X24672142Y-99646428D01*
X25957857Y-100932142D02*
X25815000Y-101003571D01*
X25529285Y-101003571D01*
X25386428Y-100932142D01*
X25315000Y-100789285D01*
X25315000Y-100217857D01*
X25386428Y-100075000D01*
X25529285Y-100003571D01*
X25815000Y-100003571D01*
X25957857Y-100075000D01*
X26029285Y-100217857D01*
X26029285Y-100360714D01*
X25315000Y-100503571D01*
X26886428Y-101003571D02*
X26743571Y-100932142D01*
X26672142Y-100789285D01*
X26672142Y-99503571D01*
X28029285Y-100932142D02*
X27886428Y-101003571D01*
X27600714Y-101003571D01*
X27457857Y-100932142D01*
X27386428Y-100789285D01*
X27386428Y-100217857D01*
X27457857Y-100075000D01*
X27600714Y-100003571D01*
X27886428Y-100003571D01*
X28029285Y-100075000D01*
X28100714Y-100217857D01*
X28100714Y-100360714D01*
X27386428Y-100503571D01*
X29386428Y-100932142D02*
X29243571Y-101003571D01*
X28957857Y-101003571D01*
X28815000Y-100932142D01*
X28743571Y-100860714D01*
X28672142Y-100717857D01*
X28672142Y-100289285D01*
X28743571Y-100146428D01*
X28815000Y-100075000D01*
X28957857Y-100003571D01*
X29243571Y-100003571D01*
X29386428Y-100075000D01*
X29815000Y-100003571D02*
X30386428Y-100003571D01*
X30029285Y-99503571D02*
X30029285Y-100789285D01*
X30100714Y-100932142D01*
X30243571Y-101003571D01*
X30386428Y-101003571D01*
X30886428Y-101003571D02*
X30886428Y-100003571D01*
X30886428Y-100289285D02*
X30957857Y-100146428D01*
X31029285Y-100075000D01*
X31172142Y-100003571D01*
X31315000Y-100003571D01*
X31815000Y-101003571D02*
X31815000Y-100003571D01*
X31815000Y-99503571D02*
X31743571Y-99575000D01*
X31815000Y-99646428D01*
X31886428Y-99575000D01*
X31815000Y-99503571D01*
X31815000Y-99646428D01*
X33172142Y-100932142D02*
X33029285Y-101003571D01*
X32743571Y-101003571D01*
X32600714Y-100932142D01*
X32529285Y-100860714D01*
X32457857Y-100717857D01*
X32457857Y-100289285D01*
X32529285Y-100146428D01*
X32600714Y-100075000D01*
X32743571Y-100003571D01*
X33029285Y-100003571D01*
X33172142Y-100075000D01*
X33815000Y-100860714D02*
X33886428Y-100932142D01*
X33815000Y-101003571D01*
X33743571Y-100932142D01*
X33815000Y-100860714D01*
X33815000Y-101003571D01*
X33815000Y-100075000D02*
X33886428Y-100146428D01*
X33815000Y-100217857D01*
X33743571Y-100146428D01*
X33815000Y-100075000D01*
X33815000Y-100217857D01*
X35600714Y-99646428D02*
X35672142Y-99575000D01*
X35815000Y-99503571D01*
X36172142Y-99503571D01*
X36315000Y-99575000D01*
X36386428Y-99646428D01*
X36457857Y-99789285D01*
X36457857Y-99932142D01*
X36386428Y-100146428D01*
X35529285Y-101003571D01*
X36457857Y-101003571D01*
X37815000Y-99503571D02*
X37100714Y-99503571D01*
X37029285Y-100217857D01*
X37100714Y-100146428D01*
X37243571Y-100075000D01*
X37600714Y-100075000D01*
X37743571Y-100146428D01*
X37815000Y-100217857D01*
X37886428Y-100360714D01*
X37886428Y-100717857D01*
X37815000Y-100860714D01*
X37743571Y-100932142D01*
X37600714Y-101003571D01*
X37243571Y-101003571D01*
X37100714Y-100932142D01*
X37029285Y-100860714D01*
X38815000Y-99503571D02*
X38957857Y-99503571D01*
X39100714Y-99575000D01*
X39172142Y-99646428D01*
X39243571Y-99789285D01*
X39315000Y-100075000D01*
X39315000Y-100432142D01*
X39243571Y-100717857D01*
X39172142Y-100860714D01*
X39100714Y-100932142D01*
X38957857Y-101003571D01*
X38815000Y-101003571D01*
X38672142Y-100932142D01*
X38600714Y-100860714D01*
X38529285Y-100717857D01*
X38457857Y-100432142D01*
X38457857Y-100075000D01*
X38529285Y-99789285D01*
X38600714Y-99646428D01*
X38672142Y-99575000D01*
X38815000Y-99503571D01*
X41743571Y-100003571D02*
X41743571Y-101003571D01*
X41100714Y-100003571D02*
X41100714Y-100789285D01*
X41172142Y-100932142D01*
X41315000Y-101003571D01*
X41529285Y-101003571D01*
X41672142Y-100932142D01*
X41743571Y-100860714D01*
X42457857Y-101003571D02*
X42457857Y-100003571D01*
X42457857Y-100146428D02*
X42529285Y-100075000D01*
X42672142Y-100003571D01*
X42886428Y-100003571D01*
X43029285Y-100075000D01*
X43100714Y-100217857D01*
X43100714Y-101003571D01*
X43100714Y-100217857D02*
X43172142Y-100075000D01*
X43315000Y-100003571D01*
X43529285Y-100003571D01*
X43672142Y-100075000D01*
X43743571Y-100217857D01*
X43743571Y-101003571D01*
D11*
X17540000Y-101595000D02*
X70880000Y-101595000D01*
X17540000Y-95245000D02*
X70880000Y-95245000D01*
D10*
X23172142Y-94653571D02*
X23172142Y-93153571D01*
X23529285Y-93153571D01*
X23743571Y-93225000D01*
X23886428Y-93367857D01*
X23957857Y-93510714D01*
X24029285Y-93796428D01*
X24029285Y-94010714D01*
X23957857Y-94296428D01*
X23886428Y-94439285D01*
X23743571Y-94582142D01*
X23529285Y-94653571D01*
X23172142Y-94653571D01*
X24672142Y-94653571D02*
X24672142Y-93653571D01*
X24672142Y-93153571D02*
X24600714Y-93225000D01*
X24672142Y-93296428D01*
X24743571Y-93225000D01*
X24672142Y-93153571D01*
X24672142Y-93296428D01*
X25957857Y-94582142D02*
X25815000Y-94653571D01*
X25529285Y-94653571D01*
X25386428Y-94582142D01*
X25315000Y-94439285D01*
X25315000Y-93867857D01*
X25386428Y-93725000D01*
X25529285Y-93653571D01*
X25815000Y-93653571D01*
X25957857Y-93725000D01*
X26029285Y-93867857D01*
X26029285Y-94010714D01*
X25315000Y-94153571D01*
X26886428Y-94653571D02*
X26743571Y-94582142D01*
X26672142Y-94439285D01*
X26672142Y-93153571D01*
X28029285Y-94582142D02*
X27886428Y-94653571D01*
X27600714Y-94653571D01*
X27457857Y-94582142D01*
X27386428Y-94439285D01*
X27386428Y-93867857D01*
X27457857Y-93725000D01*
X27600714Y-93653571D01*
X27886428Y-93653571D01*
X28029285Y-93725000D01*
X28100714Y-93867857D01*
X28100714Y-94010714D01*
X27386428Y-94153571D01*
X29386428Y-94582142D02*
X29243571Y-94653571D01*
X28957857Y-94653571D01*
X28815000Y-94582142D01*
X28743571Y-94510714D01*
X28672142Y-94367857D01*
X28672142Y-93939285D01*
X28743571Y-93796428D01*
X28815000Y-93725000D01*
X28957857Y-93653571D01*
X29243571Y-93653571D01*
X29386428Y-93725000D01*
X29815000Y-93653571D02*
X30386428Y-93653571D01*
X30029285Y-93153571D02*
X30029285Y-94439285D01*
X30100714Y-94582142D01*
X30243571Y-94653571D01*
X30386428Y-94653571D01*
X30886428Y-94653571D02*
X30886428Y-93653571D01*
X30886428Y-93939285D02*
X30957857Y-93796428D01*
X31029285Y-93725000D01*
X31172142Y-93653571D01*
X31315000Y-93653571D01*
X31815000Y-94653571D02*
X31815000Y-93653571D01*
X31815000Y-93153571D02*
X31743571Y-93225000D01*
X31815000Y-93296428D01*
X31886428Y-93225000D01*
X31815000Y-93153571D01*
X31815000Y-93296428D01*
X33172142Y-94582142D02*
X33029285Y-94653571D01*
X32743571Y-94653571D01*
X32600714Y-94582142D01*
X32529285Y-94510714D01*
X32457857Y-94367857D01*
X32457857Y-93939285D01*
X32529285Y-93796428D01*
X32600714Y-93725000D01*
X32743571Y-93653571D01*
X33029285Y-93653571D01*
X33172142Y-93725000D01*
X33815000Y-94510714D02*
X33886428Y-94582142D01*
X33815000Y-94653571D01*
X33743571Y-94582142D01*
X33815000Y-94510714D01*
X33815000Y-94653571D01*
X33815000Y-93725000D02*
X33886428Y-93796428D01*
X33815000Y-93867857D01*
X33743571Y-93796428D01*
X33815000Y-93725000D01*
X33815000Y-93867857D01*
X36457857Y-94653571D02*
X35600714Y-94653571D01*
X36029285Y-94653571D02*
X36029285Y-93153571D01*
X35886428Y-93367857D01*
X35743571Y-93510714D01*
X35600714Y-93582142D01*
X37386428Y-93153571D02*
X37529285Y-93153571D01*
X37672142Y-93225000D01*
X37743571Y-93296428D01*
X37815000Y-93439285D01*
X37886428Y-93725000D01*
X37886428Y-94082142D01*
X37815000Y-94367857D01*
X37743571Y-94510714D01*
X37672142Y-94582142D01*
X37529285Y-94653571D01*
X37386428Y-94653571D01*
X37243571Y-94582142D01*
X37172142Y-94510714D01*
X37100714Y-94367857D01*
X37029285Y-94082142D01*
X37029285Y-93725000D01*
X37100714Y-93439285D01*
X37172142Y-93296428D01*
X37243571Y-93225000D01*
X37386428Y-93153571D01*
X39243571Y-93153571D02*
X38529285Y-93153571D01*
X38457857Y-93867857D01*
X38529285Y-93796428D01*
X38672142Y-93725000D01*
X39029285Y-93725000D01*
X39172142Y-93796428D01*
X39243571Y-93867857D01*
X39315000Y-94010714D01*
X39315000Y-94367857D01*
X39243571Y-94510714D01*
X39172142Y-94582142D01*
X39029285Y-94653571D01*
X38672142Y-94653571D01*
X38529285Y-94582142D01*
X38457857Y-94510714D01*
X41743571Y-93653571D02*
X41743571Y-94653571D01*
X41100714Y-93653571D02*
X41100714Y-94439285D01*
X41172142Y-94582142D01*
X41315000Y-94653571D01*
X41529285Y-94653571D01*
X41672142Y-94582142D01*
X41743571Y-94510714D01*
X42457857Y-94653571D02*
X42457857Y-93653571D01*
X42457857Y-93796428D02*
X42529285Y-93725000D01*
X42672142Y-93653571D01*
X42886428Y-93653571D01*
X43029285Y-93725000D01*
X43100714Y-93867857D01*
X43100714Y-94653571D01*
X43100714Y-93867857D02*
X43172142Y-93725000D01*
X43315000Y-93653571D01*
X43529285Y-93653571D01*
X43672142Y-93725000D01*
X43743571Y-93867857D01*
X43743571Y-94653571D01*
D11*
X17540000Y-92705000D02*
X70880000Y-92705000D01*
X70880000Y-95245000D02*
X70880000Y-92705000D01*
X17540000Y-95245000D02*
X17540000Y-92705000D01*
X17540000Y-92070000D02*
X17540000Y-89530000D01*
X70880000Y-92070000D02*
X70880000Y-89530000D01*
X17540000Y-89530000D02*
X70880000Y-89530000D01*
D10*
X23886428Y-91478571D02*
X23172142Y-91478571D01*
X23172142Y-89978571D01*
X25029285Y-91478571D02*
X25029285Y-90692857D01*
X24957857Y-90550000D01*
X24815000Y-90478571D01*
X24529285Y-90478571D01*
X24386428Y-90550000D01*
X25029285Y-91407142D02*
X24886428Y-91478571D01*
X24529285Y-91478571D01*
X24386428Y-91407142D01*
X24315000Y-91264285D01*
X24315000Y-91121428D01*
X24386428Y-90978571D01*
X24529285Y-90907142D01*
X24886428Y-90907142D01*
X25029285Y-90835714D01*
X25600714Y-90478571D02*
X25957857Y-91478571D01*
X26315000Y-90478571D02*
X25957857Y-91478571D01*
X25815000Y-91835714D01*
X25743571Y-91907142D01*
X25600714Y-91978571D01*
X27457857Y-91407142D02*
X27315000Y-91478571D01*
X27029285Y-91478571D01*
X26886428Y-91407142D01*
X26815000Y-91264285D01*
X26815000Y-90692857D01*
X26886428Y-90550000D01*
X27029285Y-90478571D01*
X27315000Y-90478571D01*
X27457857Y-90550000D01*
X27529285Y-90692857D01*
X27529285Y-90835714D01*
X26815000Y-90978571D01*
X28172142Y-91478571D02*
X28172142Y-90478571D01*
X28172142Y-90764285D02*
X28243571Y-90621428D01*
X28315000Y-90550000D01*
X28457857Y-90478571D01*
X28600714Y-90478571D01*
X30100714Y-89978571D02*
X31029285Y-89978571D01*
X30529285Y-90550000D01*
X30743571Y-90550000D01*
X30886428Y-90621428D01*
X30957857Y-90692857D01*
X31029285Y-90835714D01*
X31029285Y-91192857D01*
X30957857Y-91335714D01*
X30886428Y-91407142D01*
X30743571Y-91478571D01*
X30315000Y-91478571D01*
X30172142Y-91407142D01*
X30100714Y-91335714D01*
X31672142Y-91335714D02*
X31743571Y-91407142D01*
X31672142Y-91478571D01*
X31600714Y-91407142D01*
X31672142Y-91335714D01*
X31672142Y-91478571D01*
X31672142Y-90550000D02*
X31743571Y-90621428D01*
X31672142Y-90692857D01*
X31600714Y-90621428D01*
X31672142Y-90550000D01*
X31672142Y-90692857D01*
X33457857Y-91407142D02*
X33672142Y-91478571D01*
X34029285Y-91478571D01*
X34172142Y-91407142D01*
X34243571Y-91335714D01*
X34315000Y-91192857D01*
X34315000Y-91050000D01*
X34243571Y-90907142D01*
X34172142Y-90835714D01*
X34029285Y-90764285D01*
X33743571Y-90692857D01*
X33600714Y-90621428D01*
X33529285Y-90550000D01*
X33457857Y-90407142D01*
X33457857Y-90264285D01*
X33529285Y-90121428D01*
X33600714Y-90050000D01*
X33743571Y-89978571D01*
X34100714Y-89978571D01*
X34315000Y-90050000D01*
X34957857Y-91478571D02*
X34957857Y-90478571D01*
X34957857Y-89978571D02*
X34886428Y-90050000D01*
X34957857Y-90121428D01*
X35029285Y-90050000D01*
X34957857Y-89978571D01*
X34957857Y-90121428D01*
X36315000Y-90478571D02*
X36315000Y-91692857D01*
X36243571Y-91835714D01*
X36172142Y-91907142D01*
X36029285Y-91978571D01*
X35815000Y-91978571D01*
X35672142Y-91907142D01*
X36315000Y-91407142D02*
X36172142Y-91478571D01*
X35886428Y-91478571D01*
X35743571Y-91407142D01*
X35672142Y-91335714D01*
X35600714Y-91192857D01*
X35600714Y-90764285D01*
X35672142Y-90621428D01*
X35743571Y-90550000D01*
X35886428Y-90478571D01*
X36172142Y-90478571D01*
X36315000Y-90550000D01*
X37029285Y-90478571D02*
X37029285Y-91478571D01*
X37029285Y-90621428D02*
X37100714Y-90550000D01*
X37243571Y-90478571D01*
X37457857Y-90478571D01*
X37600714Y-90550000D01*
X37672142Y-90692857D01*
X37672142Y-91478571D01*
X39029285Y-91478571D02*
X39029285Y-90692857D01*
X38957857Y-90550000D01*
X38815000Y-90478571D01*
X38529285Y-90478571D01*
X38386428Y-90550000D01*
X39029285Y-91407142D02*
X38886428Y-91478571D01*
X38529285Y-91478571D01*
X38386428Y-91407142D01*
X38315000Y-91264285D01*
X38315000Y-91121428D01*
X38386428Y-90978571D01*
X38529285Y-90907142D01*
X38886428Y-90907142D01*
X39029285Y-90835714D01*
X39957857Y-91478571D02*
X39815000Y-91407142D01*
X39743571Y-91264285D01*
X39743571Y-89978571D01*
X42100714Y-92050000D02*
X42029285Y-91978571D01*
X41886428Y-91764285D01*
X41815000Y-91621428D01*
X41743571Y-91407142D01*
X41672142Y-91050000D01*
X41672142Y-90764285D01*
X41743571Y-90407142D01*
X41815000Y-90192857D01*
X41886428Y-90050000D01*
X42029285Y-89835714D01*
X42100714Y-89764285D01*
X42529285Y-89978571D02*
X43457857Y-89978571D01*
X42957857Y-90550000D01*
X43172142Y-90550000D01*
X43315000Y-90621428D01*
X43386428Y-90692857D01*
X43457857Y-90835714D01*
X43457857Y-91192857D01*
X43386428Y-91335714D01*
X43315000Y-91407142D01*
X43172142Y-91478571D01*
X42743571Y-91478571D01*
X42600714Y-91407142D01*
X42529285Y-91335714D01*
X44815000Y-89978571D02*
X44100714Y-89978571D01*
X44029285Y-90692857D01*
X44100714Y-90621428D01*
X44243571Y-90550000D01*
X44600714Y-90550000D01*
X44743571Y-90621428D01*
X44815000Y-90692857D01*
X44886428Y-90835714D01*
X44886428Y-91192857D01*
X44815000Y-91335714D01*
X44743571Y-91407142D01*
X44600714Y-91478571D01*
X44243571Y-91478571D01*
X44100714Y-91407142D01*
X44029285Y-91335714D01*
X47315000Y-90478571D02*
X47315000Y-91478571D01*
X46672142Y-90478571D02*
X46672142Y-91264285D01*
X46743571Y-91407142D01*
X46886428Y-91478571D01*
X47100714Y-91478571D01*
X47243571Y-91407142D01*
X47315000Y-91335714D01*
X48029285Y-91478571D02*
X48029285Y-90478571D01*
X48029285Y-90621428D02*
X48100714Y-90550000D01*
X48243571Y-90478571D01*
X48457857Y-90478571D01*
X48600714Y-90550000D01*
X48672142Y-90692857D01*
X48672142Y-91478571D01*
X48672142Y-90692857D02*
X48743571Y-90550000D01*
X48886428Y-90478571D01*
X49100714Y-90478571D01*
X49243571Y-90550000D01*
X49315000Y-90692857D01*
X49315000Y-91478571D01*
X52029285Y-91335714D02*
X51957857Y-91407142D01*
X51743571Y-91478571D01*
X51600714Y-91478571D01*
X51386428Y-91407142D01*
X51243571Y-91264285D01*
X51172142Y-91121428D01*
X51100714Y-90835714D01*
X51100714Y-90621428D01*
X51172142Y-90335714D01*
X51243571Y-90192857D01*
X51386428Y-90050000D01*
X51600714Y-89978571D01*
X51743571Y-89978571D01*
X51957857Y-90050000D01*
X52029285Y-90121428D01*
X53315000Y-90478571D02*
X53315000Y-91478571D01*
X52672142Y-90478571D02*
X52672142Y-91264285D01*
X52743571Y-91407142D01*
X52886428Y-91478571D01*
X53100714Y-91478571D01*
X53243571Y-91407142D01*
X53315000Y-91335714D01*
X53886428Y-92050000D02*
X53957857Y-91978571D01*
X54100714Y-91764285D01*
X54172142Y-91621428D01*
X54243571Y-91407142D01*
X54315000Y-91050000D01*
X54315000Y-90764285D01*
X54243571Y-90407142D01*
X54172142Y-90192857D01*
X54100714Y-90050000D01*
X53957857Y-89835714D01*
X53886428Y-89764285D01*
D11*
X17540000Y-92070000D02*
X70880000Y-92070000D01*
X17540000Y-95880000D02*
X70880000Y-95880000D01*
X17540000Y-89530000D02*
X70880000Y-89530000D01*
X17540000Y-85720000D02*
X70880000Y-85720000D01*
D10*
X23886428Y-85128571D02*
X23172142Y-85128571D01*
X23172142Y-83628571D01*
X25029285Y-85128571D02*
X25029285Y-84342857D01*
X24957857Y-84200000D01*
X24815000Y-84128571D01*
X24529285Y-84128571D01*
X24386428Y-84200000D01*
X25029285Y-85057142D02*
X24886428Y-85128571D01*
X24529285Y-85128571D01*
X24386428Y-85057142D01*
X24315000Y-84914285D01*
X24315000Y-84771428D01*
X24386428Y-84628571D01*
X24529285Y-84557142D01*
X24886428Y-84557142D01*
X25029285Y-84485714D01*
X25600714Y-84128571D02*
X25957857Y-85128571D01*
X26315000Y-84128571D02*
X25957857Y-85128571D01*
X25815000Y-85485714D01*
X25743571Y-85557142D01*
X25600714Y-85628571D01*
X27457857Y-85057142D02*
X27315000Y-85128571D01*
X27029285Y-85128571D01*
X26886428Y-85057142D01*
X26815000Y-84914285D01*
X26815000Y-84342857D01*
X26886428Y-84200000D01*
X27029285Y-84128571D01*
X27315000Y-84128571D01*
X27457857Y-84200000D01*
X27529285Y-84342857D01*
X27529285Y-84485714D01*
X26815000Y-84628571D01*
X28172142Y-85128571D02*
X28172142Y-84128571D01*
X28172142Y-84414285D02*
X28243571Y-84271428D01*
X28315000Y-84200000D01*
X28457857Y-84128571D01*
X28600714Y-84128571D01*
X30172142Y-83771428D02*
X30243571Y-83700000D01*
X30386428Y-83628571D01*
X30743571Y-83628571D01*
X30886428Y-83700000D01*
X30957857Y-83771428D01*
X31029285Y-83914285D01*
X31029285Y-84057142D01*
X30957857Y-84271428D01*
X30100714Y-85128571D01*
X31029285Y-85128571D01*
X31672142Y-84985714D02*
X31743571Y-85057142D01*
X31672142Y-85128571D01*
X31600714Y-85057142D01*
X31672142Y-84985714D01*
X31672142Y-85128571D01*
X31672142Y-84200000D02*
X31743571Y-84271428D01*
X31672142Y-84342857D01*
X31600714Y-84271428D01*
X31672142Y-84200000D01*
X31672142Y-84342857D01*
X33529285Y-85128571D02*
X33529285Y-83628571D01*
X34100714Y-83628571D01*
X34243571Y-83700000D01*
X34315000Y-83771428D01*
X34386428Y-83914285D01*
X34386428Y-84128571D01*
X34315000Y-84271428D01*
X34243571Y-84342857D01*
X34100714Y-84414285D01*
X33529285Y-84414285D01*
X35243571Y-85128571D02*
X35100714Y-85057142D01*
X35029285Y-84985714D01*
X34957857Y-84842857D01*
X34957857Y-84414285D01*
X35029285Y-84271428D01*
X35100714Y-84200000D01*
X35243571Y-84128571D01*
X35457857Y-84128571D01*
X35600714Y-84200000D01*
X35672142Y-84271428D01*
X35743571Y-84414285D01*
X35743571Y-84842857D01*
X35672142Y-84985714D01*
X35600714Y-85057142D01*
X35457857Y-85128571D01*
X35243571Y-85128571D01*
X36243571Y-84128571D02*
X36529285Y-85128571D01*
X36815000Y-84414285D01*
X37100714Y-85128571D01*
X37386428Y-84128571D01*
X38529285Y-85057142D02*
X38386428Y-85128571D01*
X38100714Y-85128571D01*
X37957857Y-85057142D01*
X37886428Y-84914285D01*
X37886428Y-84342857D01*
X37957857Y-84200000D01*
X38100714Y-84128571D01*
X38386428Y-84128571D01*
X38529285Y-84200000D01*
X38600714Y-84342857D01*
X38600714Y-84485714D01*
X37886428Y-84628571D01*
X39243571Y-85128571D02*
X39243571Y-84128571D01*
X39243571Y-84414285D02*
X39315000Y-84271428D01*
X39386428Y-84200000D01*
X39529285Y-84128571D01*
X39672142Y-84128571D01*
X41743571Y-85700000D02*
X41672142Y-85628571D01*
X41529285Y-85414285D01*
X41457857Y-85271428D01*
X41386428Y-85057142D01*
X41315000Y-84700000D01*
X41315000Y-84414285D01*
X41386428Y-84057142D01*
X41457857Y-83842857D01*
X41529285Y-83700000D01*
X41672142Y-83485714D01*
X41743571Y-83414285D01*
X42172142Y-83628571D02*
X43100714Y-83628571D01*
X42600714Y-84200000D01*
X42815000Y-84200000D01*
X42957857Y-84271428D01*
X43029285Y-84342857D01*
X43100714Y-84485714D01*
X43100714Y-84842857D01*
X43029285Y-84985714D01*
X42957857Y-85057142D01*
X42815000Y-85128571D01*
X42386428Y-85128571D01*
X42243571Y-85057142D01*
X42172142Y-84985714D01*
X44457857Y-83628571D02*
X43743571Y-83628571D01*
X43672142Y-84342857D01*
X43743571Y-84271428D01*
X43886428Y-84200000D01*
X44243571Y-84200000D01*
X44386428Y-84271428D01*
X44457857Y-84342857D01*
X44529285Y-84485714D01*
X44529285Y-84842857D01*
X44457857Y-84985714D01*
X44386428Y-85057142D01*
X44243571Y-85128571D01*
X43886428Y-85128571D01*
X43743571Y-85057142D01*
X43672142Y-84985714D01*
X46957857Y-84128571D02*
X46957857Y-85128571D01*
X46315000Y-84128571D02*
X46315000Y-84914285D01*
X46386428Y-85057142D01*
X46529285Y-85128571D01*
X46743571Y-85128571D01*
X46886428Y-85057142D01*
X46957857Y-84985714D01*
X47672142Y-85128571D02*
X47672142Y-84128571D01*
X47672142Y-84271428D02*
X47743571Y-84200000D01*
X47886428Y-84128571D01*
X48100714Y-84128571D01*
X48243571Y-84200000D01*
X48315000Y-84342857D01*
X48315000Y-85128571D01*
X48315000Y-84342857D02*
X48386428Y-84200000D01*
X48529285Y-84128571D01*
X48743571Y-84128571D01*
X48886428Y-84200000D01*
X48957857Y-84342857D01*
X48957857Y-85128571D01*
X51672142Y-84985714D02*
X51600714Y-85057142D01*
X51386428Y-85128571D01*
X51243571Y-85128571D01*
X51029285Y-85057142D01*
X50886428Y-84914285D01*
X50815000Y-84771428D01*
X50743571Y-84485714D01*
X50743571Y-84271428D01*
X50815000Y-83985714D01*
X50886428Y-83842857D01*
X51029285Y-83700000D01*
X51243571Y-83628571D01*
X51386428Y-83628571D01*
X51600714Y-83700000D01*
X51672142Y-83771428D01*
X52957857Y-84128571D02*
X52957857Y-85128571D01*
X52315000Y-84128571D02*
X52315000Y-84914285D01*
X52386428Y-85057142D01*
X52529285Y-85128571D01*
X52743571Y-85128571D01*
X52886428Y-85057142D01*
X52957857Y-84985714D01*
X53529285Y-85700000D02*
X53600714Y-85628571D01*
X53743571Y-85414285D01*
X53815000Y-85271428D01*
X53886428Y-85057142D01*
X53957857Y-84700000D01*
X53957857Y-84414285D01*
X53886428Y-84057142D01*
X53815000Y-83842857D01*
X53743571Y-83700000D01*
X53600714Y-83485714D01*
X53529285Y-83414285D01*
D11*
X17540000Y-83180000D02*
X70880000Y-83180000D01*
X70880000Y-85720000D02*
X70880000Y-83180000D01*
X17540000Y-85720000D02*
X17540000Y-83180000D01*
X17540000Y-88895000D02*
X17540000Y-86355000D01*
X70880000Y-88895000D02*
X70880000Y-86355000D01*
X17540000Y-86355000D02*
X70880000Y-86355000D01*
D10*
X23172142Y-88303571D02*
X23172142Y-86803571D01*
X23529285Y-86803571D01*
X23743571Y-86875000D01*
X23886428Y-87017857D01*
X23957857Y-87160714D01*
X24029285Y-87446428D01*
X24029285Y-87660714D01*
X23957857Y-87946428D01*
X23886428Y-88089285D01*
X23743571Y-88232142D01*
X23529285Y-88303571D01*
X23172142Y-88303571D01*
X24672142Y-88303571D02*
X24672142Y-87303571D01*
X24672142Y-86803571D02*
X24600714Y-86875000D01*
X24672142Y-86946428D01*
X24743571Y-86875000D01*
X24672142Y-86803571D01*
X24672142Y-86946428D01*
X25957857Y-88232142D02*
X25815000Y-88303571D01*
X25529285Y-88303571D01*
X25386428Y-88232142D01*
X25315000Y-88089285D01*
X25315000Y-87517857D01*
X25386428Y-87375000D01*
X25529285Y-87303571D01*
X25815000Y-87303571D01*
X25957857Y-87375000D01*
X26029285Y-87517857D01*
X26029285Y-87660714D01*
X25315000Y-87803571D01*
X26886428Y-88303571D02*
X26743571Y-88232142D01*
X26672142Y-88089285D01*
X26672142Y-86803571D01*
X28029285Y-88232142D02*
X27886428Y-88303571D01*
X27600714Y-88303571D01*
X27457857Y-88232142D01*
X27386428Y-88089285D01*
X27386428Y-87517857D01*
X27457857Y-87375000D01*
X27600714Y-87303571D01*
X27886428Y-87303571D01*
X28029285Y-87375000D01*
X28100714Y-87517857D01*
X28100714Y-87660714D01*
X27386428Y-87803571D01*
X29386428Y-88232142D02*
X29243571Y-88303571D01*
X28957857Y-88303571D01*
X28815000Y-88232142D01*
X28743571Y-88160714D01*
X28672142Y-88017857D01*
X28672142Y-87589285D01*
X28743571Y-87446428D01*
X28815000Y-87375000D01*
X28957857Y-87303571D01*
X29243571Y-87303571D01*
X29386428Y-87375000D01*
X29815000Y-87303571D02*
X30386428Y-87303571D01*
X30029285Y-86803571D02*
X30029285Y-88089285D01*
X30100714Y-88232142D01*
X30243571Y-88303571D01*
X30386428Y-88303571D01*
X30886428Y-88303571D02*
X30886428Y-87303571D01*
X30886428Y-87589285D02*
X30957857Y-87446428D01*
X31029285Y-87375000D01*
X31172142Y-87303571D01*
X31315000Y-87303571D01*
X31815000Y-88303571D02*
X31815000Y-87303571D01*
X31815000Y-86803571D02*
X31743571Y-86875000D01*
X31815000Y-86946428D01*
X31886428Y-86875000D01*
X31815000Y-86803571D01*
X31815000Y-86946428D01*
X33172142Y-88232142D02*
X33029285Y-88303571D01*
X32743571Y-88303571D01*
X32600714Y-88232142D01*
X32529285Y-88160714D01*
X32457857Y-88017857D01*
X32457857Y-87589285D01*
X32529285Y-87446428D01*
X32600714Y-87375000D01*
X32743571Y-87303571D01*
X33029285Y-87303571D01*
X33172142Y-87375000D01*
X33815000Y-88160714D02*
X33886428Y-88232142D01*
X33815000Y-88303571D01*
X33743571Y-88232142D01*
X33815000Y-88160714D01*
X33815000Y-88303571D01*
X33815000Y-87375000D02*
X33886428Y-87446428D01*
X33815000Y-87517857D01*
X33743571Y-87446428D01*
X33815000Y-87375000D01*
X33815000Y-87517857D01*
X35600714Y-86946428D02*
X35672142Y-86875000D01*
X35815000Y-86803571D01*
X36172142Y-86803571D01*
X36315000Y-86875000D01*
X36386428Y-86946428D01*
X36457857Y-87089285D01*
X36457857Y-87232142D01*
X36386428Y-87446428D01*
X35529285Y-88303571D01*
X36457857Y-88303571D01*
X37815000Y-86803571D02*
X37100714Y-86803571D01*
X37029285Y-87517857D01*
X37100714Y-87446428D01*
X37243571Y-87375000D01*
X37600714Y-87375000D01*
X37743571Y-87446428D01*
X37815000Y-87517857D01*
X37886428Y-87660714D01*
X37886428Y-88017857D01*
X37815000Y-88160714D01*
X37743571Y-88232142D01*
X37600714Y-88303571D01*
X37243571Y-88303571D01*
X37100714Y-88232142D01*
X37029285Y-88160714D01*
X38815000Y-86803571D02*
X38957857Y-86803571D01*
X39100714Y-86875000D01*
X39172142Y-86946428D01*
X39243571Y-87089285D01*
X39315000Y-87375000D01*
X39315000Y-87732142D01*
X39243571Y-88017857D01*
X39172142Y-88160714D01*
X39100714Y-88232142D01*
X38957857Y-88303571D01*
X38815000Y-88303571D01*
X38672142Y-88232142D01*
X38600714Y-88160714D01*
X38529285Y-88017857D01*
X38457857Y-87732142D01*
X38457857Y-87375000D01*
X38529285Y-87089285D01*
X38600714Y-86946428D01*
X38672142Y-86875000D01*
X38815000Y-86803571D01*
X41743571Y-87303571D02*
X41743571Y-88303571D01*
X41100714Y-87303571D02*
X41100714Y-88089285D01*
X41172142Y-88232142D01*
X41315000Y-88303571D01*
X41529285Y-88303571D01*
X41672142Y-88232142D01*
X41743571Y-88160714D01*
X42457857Y-88303571D02*
X42457857Y-87303571D01*
X42457857Y-87446428D02*
X42529285Y-87375000D01*
X42672142Y-87303571D01*
X42886428Y-87303571D01*
X43029285Y-87375000D01*
X43100714Y-87517857D01*
X43100714Y-88303571D01*
X43100714Y-87517857D02*
X43172142Y-87375000D01*
X43315000Y-87303571D01*
X43529285Y-87303571D01*
X43672142Y-87375000D01*
X43743571Y-87517857D01*
X43743571Y-88303571D01*
D11*
X17540000Y-88895000D02*
X70880000Y-88895000D01*
X17540000Y-89530000D02*
X70880000Y-89530000D01*
X17540000Y-108580000D02*
X70880000Y-108580000D01*
X17540000Y-107945000D02*
X70880000Y-107945000D01*
D10*
X23172142Y-107353571D02*
X23172142Y-105853571D01*
X23529285Y-105853571D01*
X23743571Y-105925000D01*
X23886428Y-106067857D01*
X23957857Y-106210714D01*
X24029285Y-106496428D01*
X24029285Y-106710714D01*
X23957857Y-106996428D01*
X23886428Y-107139285D01*
X23743571Y-107282142D01*
X23529285Y-107353571D01*
X23172142Y-107353571D01*
X24672142Y-107353571D02*
X24672142Y-106353571D01*
X24672142Y-105853571D02*
X24600714Y-105925000D01*
X24672142Y-105996428D01*
X24743571Y-105925000D01*
X24672142Y-105853571D01*
X24672142Y-105996428D01*
X25957857Y-107282142D02*
X25815000Y-107353571D01*
X25529285Y-107353571D01*
X25386428Y-107282142D01*
X25315000Y-107139285D01*
X25315000Y-106567857D01*
X25386428Y-106425000D01*
X25529285Y-106353571D01*
X25815000Y-106353571D01*
X25957857Y-106425000D01*
X26029285Y-106567857D01*
X26029285Y-106710714D01*
X25315000Y-106853571D01*
X26886428Y-107353571D02*
X26743571Y-107282142D01*
X26672142Y-107139285D01*
X26672142Y-105853571D01*
X28029285Y-107282142D02*
X27886428Y-107353571D01*
X27600714Y-107353571D01*
X27457857Y-107282142D01*
X27386428Y-107139285D01*
X27386428Y-106567857D01*
X27457857Y-106425000D01*
X27600714Y-106353571D01*
X27886428Y-106353571D01*
X28029285Y-106425000D01*
X28100714Y-106567857D01*
X28100714Y-106710714D01*
X27386428Y-106853571D01*
X29386428Y-107282142D02*
X29243571Y-107353571D01*
X28957857Y-107353571D01*
X28815000Y-107282142D01*
X28743571Y-107210714D01*
X28672142Y-107067857D01*
X28672142Y-106639285D01*
X28743571Y-106496428D01*
X28815000Y-106425000D01*
X28957857Y-106353571D01*
X29243571Y-106353571D01*
X29386428Y-106425000D01*
X29815000Y-106353571D02*
X30386428Y-106353571D01*
X30029285Y-105853571D02*
X30029285Y-107139285D01*
X30100714Y-107282142D01*
X30243571Y-107353571D01*
X30386428Y-107353571D01*
X30886428Y-107353571D02*
X30886428Y-106353571D01*
X30886428Y-106639285D02*
X30957857Y-106496428D01*
X31029285Y-106425000D01*
X31172142Y-106353571D01*
X31315000Y-106353571D01*
X31815000Y-107353571D02*
X31815000Y-106353571D01*
X31815000Y-105853571D02*
X31743571Y-105925000D01*
X31815000Y-105996428D01*
X31886428Y-105925000D01*
X31815000Y-105853571D01*
X31815000Y-105996428D01*
X33172142Y-107282142D02*
X33029285Y-107353571D01*
X32743571Y-107353571D01*
X32600714Y-107282142D01*
X32529285Y-107210714D01*
X32457857Y-107067857D01*
X32457857Y-106639285D01*
X32529285Y-106496428D01*
X32600714Y-106425000D01*
X32743571Y-106353571D01*
X33029285Y-106353571D01*
X33172142Y-106425000D01*
X33815000Y-107210714D02*
X33886428Y-107282142D01*
X33815000Y-107353571D01*
X33743571Y-107282142D01*
X33815000Y-107210714D01*
X33815000Y-107353571D01*
X33815000Y-106425000D02*
X33886428Y-106496428D01*
X33815000Y-106567857D01*
X33743571Y-106496428D01*
X33815000Y-106425000D01*
X33815000Y-106567857D01*
X36457857Y-107353571D02*
X35600714Y-107353571D01*
X36029285Y-107353571D02*
X36029285Y-105853571D01*
X35886428Y-106067857D01*
X35743571Y-106210714D01*
X35600714Y-106282142D01*
X37386428Y-105853571D02*
X37529285Y-105853571D01*
X37672142Y-105925000D01*
X37743571Y-105996428D01*
X37815000Y-106139285D01*
X37886428Y-106425000D01*
X37886428Y-106782142D01*
X37815000Y-107067857D01*
X37743571Y-107210714D01*
X37672142Y-107282142D01*
X37529285Y-107353571D01*
X37386428Y-107353571D01*
X37243571Y-107282142D01*
X37172142Y-107210714D01*
X37100714Y-107067857D01*
X37029285Y-106782142D01*
X37029285Y-106425000D01*
X37100714Y-106139285D01*
X37172142Y-105996428D01*
X37243571Y-105925000D01*
X37386428Y-105853571D01*
X39243571Y-105853571D02*
X38529285Y-105853571D01*
X38457857Y-106567857D01*
X38529285Y-106496428D01*
X38672142Y-106425000D01*
X39029285Y-106425000D01*
X39172142Y-106496428D01*
X39243571Y-106567857D01*
X39315000Y-106710714D01*
X39315000Y-107067857D01*
X39243571Y-107210714D01*
X39172142Y-107282142D01*
X39029285Y-107353571D01*
X38672142Y-107353571D01*
X38529285Y-107282142D01*
X38457857Y-107210714D01*
X41743571Y-106353571D02*
X41743571Y-107353571D01*
X41100714Y-106353571D02*
X41100714Y-107139285D01*
X41172142Y-107282142D01*
X41315000Y-107353571D01*
X41529285Y-107353571D01*
X41672142Y-107282142D01*
X41743571Y-107210714D01*
X42457857Y-107353571D02*
X42457857Y-106353571D01*
X42457857Y-106496428D02*
X42529285Y-106425000D01*
X42672142Y-106353571D01*
X42886428Y-106353571D01*
X43029285Y-106425000D01*
X43100714Y-106567857D01*
X43100714Y-107353571D01*
X43100714Y-106567857D02*
X43172142Y-106425000D01*
X43315000Y-106353571D01*
X43529285Y-106353571D01*
X43672142Y-106425000D01*
X43743571Y-106567857D01*
X43743571Y-107353571D01*
D11*
X17540000Y-105405000D02*
X70880000Y-105405000D01*
X70880000Y-107945000D02*
X70880000Y-105405000D01*
X17540000Y-107945000D02*
X17540000Y-105405000D01*
X17540000Y-104770000D02*
X17540000Y-102230000D01*
X70880000Y-104770000D02*
X70880000Y-102230000D01*
X17540000Y-102230000D02*
X70880000Y-102230000D01*
D10*
X23886428Y-104178571D02*
X23172142Y-104178571D01*
X23172142Y-102678571D01*
X25029285Y-104178571D02*
X25029285Y-103392857D01*
X24957857Y-103250000D01*
X24815000Y-103178571D01*
X24529285Y-103178571D01*
X24386428Y-103250000D01*
X25029285Y-104107142D02*
X24886428Y-104178571D01*
X24529285Y-104178571D01*
X24386428Y-104107142D01*
X24315000Y-103964285D01*
X24315000Y-103821428D01*
X24386428Y-103678571D01*
X24529285Y-103607142D01*
X24886428Y-103607142D01*
X25029285Y-103535714D01*
X25600714Y-103178571D02*
X25957857Y-104178571D01*
X26315000Y-103178571D02*
X25957857Y-104178571D01*
X25815000Y-104535714D01*
X25743571Y-104607142D01*
X25600714Y-104678571D01*
X27457857Y-104107142D02*
X27315000Y-104178571D01*
X27029285Y-104178571D01*
X26886428Y-104107142D01*
X26815000Y-103964285D01*
X26815000Y-103392857D01*
X26886428Y-103250000D01*
X27029285Y-103178571D01*
X27315000Y-103178571D01*
X27457857Y-103250000D01*
X27529285Y-103392857D01*
X27529285Y-103535714D01*
X26815000Y-103678571D01*
X28172142Y-104178571D02*
X28172142Y-103178571D01*
X28172142Y-103464285D02*
X28243571Y-103321428D01*
X28315000Y-103250000D01*
X28457857Y-103178571D01*
X28600714Y-103178571D01*
X30957857Y-102678571D02*
X30243571Y-102678571D01*
X30172142Y-103392857D01*
X30243571Y-103321428D01*
X30386428Y-103250000D01*
X30743571Y-103250000D01*
X30886428Y-103321428D01*
X30957857Y-103392857D01*
X31029285Y-103535714D01*
X31029285Y-103892857D01*
X30957857Y-104035714D01*
X30886428Y-104107142D01*
X30743571Y-104178571D01*
X30386428Y-104178571D01*
X30243571Y-104107142D01*
X30172142Y-104035714D01*
X31672142Y-104035714D02*
X31743571Y-104107142D01*
X31672142Y-104178571D01*
X31600714Y-104107142D01*
X31672142Y-104035714D01*
X31672142Y-104178571D01*
X31672142Y-103250000D02*
X31743571Y-103321428D01*
X31672142Y-103392857D01*
X31600714Y-103321428D01*
X31672142Y-103250000D01*
X31672142Y-103392857D01*
X33529285Y-104178571D02*
X33529285Y-102678571D01*
X34100714Y-102678571D01*
X34243571Y-102750000D01*
X34315000Y-102821428D01*
X34386428Y-102964285D01*
X34386428Y-103178571D01*
X34315000Y-103321428D01*
X34243571Y-103392857D01*
X34100714Y-103464285D01*
X33529285Y-103464285D01*
X35243571Y-104178571D02*
X35100714Y-104107142D01*
X35029285Y-104035714D01*
X34957857Y-103892857D01*
X34957857Y-103464285D01*
X35029285Y-103321428D01*
X35100714Y-103250000D01*
X35243571Y-103178571D01*
X35457857Y-103178571D01*
X35600714Y-103250000D01*
X35672142Y-103321428D01*
X35743571Y-103464285D01*
X35743571Y-103892857D01*
X35672142Y-104035714D01*
X35600714Y-104107142D01*
X35457857Y-104178571D01*
X35243571Y-104178571D01*
X36243571Y-103178571D02*
X36529285Y-104178571D01*
X36815000Y-103464285D01*
X37100714Y-104178571D01*
X37386428Y-103178571D01*
X38529285Y-104107142D02*
X38386428Y-104178571D01*
X38100714Y-104178571D01*
X37957857Y-104107142D01*
X37886428Y-103964285D01*
X37886428Y-103392857D01*
X37957857Y-103250000D01*
X38100714Y-103178571D01*
X38386428Y-103178571D01*
X38529285Y-103250000D01*
X38600714Y-103392857D01*
X38600714Y-103535714D01*
X37886428Y-103678571D01*
X39243571Y-104178571D02*
X39243571Y-103178571D01*
X39243571Y-103464285D02*
X39315000Y-103321428D01*
X39386428Y-103250000D01*
X39529285Y-103178571D01*
X39672142Y-103178571D01*
X41743571Y-104750000D02*
X41672142Y-104678571D01*
X41529285Y-104464285D01*
X41457857Y-104321428D01*
X41386428Y-104107142D01*
X41315000Y-103750000D01*
X41315000Y-103464285D01*
X41386428Y-103107142D01*
X41457857Y-102892857D01*
X41529285Y-102750000D01*
X41672142Y-102535714D01*
X41743571Y-102464285D01*
X42172142Y-102678571D02*
X43100714Y-102678571D01*
X42600714Y-103250000D01*
X42815000Y-103250000D01*
X42957857Y-103321428D01*
X43029285Y-103392857D01*
X43100714Y-103535714D01*
X43100714Y-103892857D01*
X43029285Y-104035714D01*
X42957857Y-104107142D01*
X42815000Y-104178571D01*
X42386428Y-104178571D01*
X42243571Y-104107142D01*
X42172142Y-104035714D01*
X44457857Y-102678571D02*
X43743571Y-102678571D01*
X43672142Y-103392857D01*
X43743571Y-103321428D01*
X43886428Y-103250000D01*
X44243571Y-103250000D01*
X44386428Y-103321428D01*
X44457857Y-103392857D01*
X44529285Y-103535714D01*
X44529285Y-103892857D01*
X44457857Y-104035714D01*
X44386428Y-104107142D01*
X44243571Y-104178571D01*
X43886428Y-104178571D01*
X43743571Y-104107142D01*
X43672142Y-104035714D01*
X46957857Y-103178571D02*
X46957857Y-104178571D01*
X46315000Y-103178571D02*
X46315000Y-103964285D01*
X46386428Y-104107142D01*
X46529285Y-104178571D01*
X46743571Y-104178571D01*
X46886428Y-104107142D01*
X46957857Y-104035714D01*
X47672142Y-104178571D02*
X47672142Y-103178571D01*
X47672142Y-103321428D02*
X47743571Y-103250000D01*
X47886428Y-103178571D01*
X48100714Y-103178571D01*
X48243571Y-103250000D01*
X48315000Y-103392857D01*
X48315000Y-104178571D01*
X48315000Y-103392857D02*
X48386428Y-103250000D01*
X48529285Y-103178571D01*
X48743571Y-103178571D01*
X48886428Y-103250000D01*
X48957857Y-103392857D01*
X48957857Y-104178571D01*
X51672142Y-104035714D02*
X51600714Y-104107142D01*
X51386428Y-104178571D01*
X51243571Y-104178571D01*
X51029285Y-104107142D01*
X50886428Y-103964285D01*
X50815000Y-103821428D01*
X50743571Y-103535714D01*
X50743571Y-103321428D01*
X50815000Y-103035714D01*
X50886428Y-102892857D01*
X51029285Y-102750000D01*
X51243571Y-102678571D01*
X51386428Y-102678571D01*
X51600714Y-102750000D01*
X51672142Y-102821428D01*
X52957857Y-103178571D02*
X52957857Y-104178571D01*
X52315000Y-103178571D02*
X52315000Y-103964285D01*
X52386428Y-104107142D01*
X52529285Y-104178571D01*
X52743571Y-104178571D01*
X52886428Y-104107142D01*
X52957857Y-104035714D01*
X53529285Y-104750000D02*
X53600714Y-104678571D01*
X53743571Y-104464285D01*
X53815000Y-104321428D01*
X53886428Y-104107142D01*
X53957857Y-103750000D01*
X53957857Y-103464285D01*
X53886428Y-103107142D01*
X53815000Y-102892857D01*
X53743571Y-102750000D01*
X53600714Y-102535714D01*
X53529285Y-102464285D01*
D11*
X17540000Y-104770000D02*
X70880000Y-104770000D01*
X17540000Y-108580000D02*
X70880000Y-108580000D01*
X17540000Y-114930000D02*
X70880000Y-114930000D01*
X17540000Y-111120000D02*
X70880000Y-111120000D01*
D10*
X23886428Y-110528571D02*
X23172142Y-110528571D01*
X23172142Y-109028571D01*
X25029285Y-110528571D02*
X25029285Y-109742857D01*
X24957857Y-109600000D01*
X24815000Y-109528571D01*
X24529285Y-109528571D01*
X24386428Y-109600000D01*
X25029285Y-110457142D02*
X24886428Y-110528571D01*
X24529285Y-110528571D01*
X24386428Y-110457142D01*
X24315000Y-110314285D01*
X24315000Y-110171428D01*
X24386428Y-110028571D01*
X24529285Y-109957142D01*
X24886428Y-109957142D01*
X25029285Y-109885714D01*
X25600714Y-109528571D02*
X25957857Y-110528571D01*
X26315000Y-109528571D02*
X25957857Y-110528571D01*
X25815000Y-110885714D01*
X25743571Y-110957142D01*
X25600714Y-111028571D01*
X27457857Y-110457142D02*
X27315000Y-110528571D01*
X27029285Y-110528571D01*
X26886428Y-110457142D01*
X26815000Y-110314285D01*
X26815000Y-109742857D01*
X26886428Y-109600000D01*
X27029285Y-109528571D01*
X27315000Y-109528571D01*
X27457857Y-109600000D01*
X27529285Y-109742857D01*
X27529285Y-109885714D01*
X26815000Y-110028571D01*
X28172142Y-110528571D02*
X28172142Y-109528571D01*
X28172142Y-109814285D02*
X28243571Y-109671428D01*
X28315000Y-109600000D01*
X28457857Y-109528571D01*
X28600714Y-109528571D01*
X30886428Y-109028571D02*
X30600714Y-109028571D01*
X30457857Y-109100000D01*
X30386428Y-109171428D01*
X30243571Y-109385714D01*
X30172142Y-109671428D01*
X30172142Y-110242857D01*
X30243571Y-110385714D01*
X30315000Y-110457142D01*
X30457857Y-110528571D01*
X30743571Y-110528571D01*
X30886428Y-110457142D01*
X30957857Y-110385714D01*
X31029285Y-110242857D01*
X31029285Y-109885714D01*
X30957857Y-109742857D01*
X30886428Y-109671428D01*
X30743571Y-109600000D01*
X30457857Y-109600000D01*
X30315000Y-109671428D01*
X30243571Y-109742857D01*
X30172142Y-109885714D01*
X31672142Y-110385714D02*
X31743571Y-110457142D01*
X31672142Y-110528571D01*
X31600714Y-110457142D01*
X31672142Y-110385714D01*
X31672142Y-110528571D01*
X31672142Y-109600000D02*
X31743571Y-109671428D01*
X31672142Y-109742857D01*
X31600714Y-109671428D01*
X31672142Y-109600000D01*
X31672142Y-109742857D01*
X33457857Y-110457142D02*
X33672142Y-110528571D01*
X34029285Y-110528571D01*
X34172142Y-110457142D01*
X34243571Y-110385714D01*
X34315000Y-110242857D01*
X34315000Y-110100000D01*
X34243571Y-109957142D01*
X34172142Y-109885714D01*
X34029285Y-109814285D01*
X33743571Y-109742857D01*
X33600714Y-109671428D01*
X33529285Y-109600000D01*
X33457857Y-109457142D01*
X33457857Y-109314285D01*
X33529285Y-109171428D01*
X33600714Y-109100000D01*
X33743571Y-109028571D01*
X34100714Y-109028571D01*
X34315000Y-109100000D01*
X34957857Y-110528571D02*
X34957857Y-109528571D01*
X34957857Y-109028571D02*
X34886428Y-109100000D01*
X34957857Y-109171428D01*
X35029285Y-109100000D01*
X34957857Y-109028571D01*
X34957857Y-109171428D01*
X36315000Y-109528571D02*
X36315000Y-110742857D01*
X36243571Y-110885714D01*
X36172142Y-110957142D01*
X36029285Y-111028571D01*
X35815000Y-111028571D01*
X35672142Y-110957142D01*
X36315000Y-110457142D02*
X36172142Y-110528571D01*
X35886428Y-110528571D01*
X35743571Y-110457142D01*
X35672142Y-110385714D01*
X35600714Y-110242857D01*
X35600714Y-109814285D01*
X35672142Y-109671428D01*
X35743571Y-109600000D01*
X35886428Y-109528571D01*
X36172142Y-109528571D01*
X36315000Y-109600000D01*
X37029285Y-109528571D02*
X37029285Y-110528571D01*
X37029285Y-109671428D02*
X37100714Y-109600000D01*
X37243571Y-109528571D01*
X37457857Y-109528571D01*
X37600714Y-109600000D01*
X37672142Y-109742857D01*
X37672142Y-110528571D01*
X39029285Y-110528571D02*
X39029285Y-109742857D01*
X38957857Y-109600000D01*
X38815000Y-109528571D01*
X38529285Y-109528571D01*
X38386428Y-109600000D01*
X39029285Y-110457142D02*
X38886428Y-110528571D01*
X38529285Y-110528571D01*
X38386428Y-110457142D01*
X38315000Y-110314285D01*
X38315000Y-110171428D01*
X38386428Y-110028571D01*
X38529285Y-109957142D01*
X38886428Y-109957142D01*
X39029285Y-109885714D01*
X39957857Y-110528571D02*
X39815000Y-110457142D01*
X39743571Y-110314285D01*
X39743571Y-109028571D01*
X43243571Y-111100000D02*
X43172142Y-111028571D01*
X43029285Y-110814285D01*
X42957857Y-110671428D01*
X42886428Y-110457142D01*
X42815000Y-110100000D01*
X42815000Y-109814285D01*
X42886428Y-109457142D01*
X42957857Y-109242857D01*
X43029285Y-109100000D01*
X43172142Y-108885714D01*
X43243571Y-108814285D01*
X43672142Y-109028571D02*
X44600714Y-109028571D01*
X44100714Y-109600000D01*
X44315000Y-109600000D01*
X44457857Y-109671428D01*
X44529285Y-109742857D01*
X44600714Y-109885714D01*
X44600714Y-110242857D01*
X44529285Y-110385714D01*
X44457857Y-110457142D01*
X44315000Y-110528571D01*
X43886428Y-110528571D01*
X43743571Y-110457142D01*
X43672142Y-110385714D01*
X45957857Y-109028571D02*
X45243571Y-109028571D01*
X45172142Y-109742857D01*
X45243571Y-109671428D01*
X45386428Y-109600000D01*
X45743571Y-109600000D01*
X45886428Y-109671428D01*
X45957857Y-109742857D01*
X46029285Y-109885714D01*
X46029285Y-110242857D01*
X45957857Y-110385714D01*
X45886428Y-110457142D01*
X45743571Y-110528571D01*
X45386428Y-110528571D01*
X45243571Y-110457142D01*
X45172142Y-110385714D01*
X48457857Y-109528571D02*
X48457857Y-110528571D01*
X47815000Y-109528571D02*
X47815000Y-110314285D01*
X47886428Y-110457142D01*
X48029285Y-110528571D01*
X48243571Y-110528571D01*
X48386428Y-110457142D01*
X48457857Y-110385714D01*
X49172142Y-110528571D02*
X49172142Y-109528571D01*
X49172142Y-109671428D02*
X49243571Y-109600000D01*
X49386428Y-109528571D01*
X49600714Y-109528571D01*
X49743571Y-109600000D01*
X49815000Y-109742857D01*
X49815000Y-110528571D01*
X49815000Y-109742857D02*
X49886428Y-109600000D01*
X50029285Y-109528571D01*
X50243571Y-109528571D01*
X50386428Y-109600000D01*
X50457857Y-109742857D01*
X50457857Y-110528571D01*
X53172142Y-110385714D02*
X53100714Y-110457142D01*
X52886428Y-110528571D01*
X52743571Y-110528571D01*
X52529285Y-110457142D01*
X52386428Y-110314285D01*
X52315000Y-110171428D01*
X52243571Y-109885714D01*
X52243571Y-109671428D01*
X52315000Y-109385714D01*
X52386428Y-109242857D01*
X52529285Y-109100000D01*
X52743571Y-109028571D01*
X52886428Y-109028571D01*
X53100714Y-109100000D01*
X53172142Y-109171428D01*
X54457857Y-109528571D02*
X54457857Y-110528571D01*
X53815000Y-109528571D02*
X53815000Y-110314285D01*
X53886428Y-110457142D01*
X54029285Y-110528571D01*
X54243571Y-110528571D01*
X54386428Y-110457142D01*
X54457857Y-110385714D01*
X55029285Y-111100000D02*
X55100714Y-111028571D01*
X55243571Y-110814285D01*
X55315000Y-110671428D01*
X55386428Y-110457142D01*
X55457857Y-110100000D01*
X55457857Y-109814285D01*
X55386428Y-109457142D01*
X55315000Y-109242857D01*
X55243571Y-109100000D01*
X55100714Y-108885714D01*
X55029285Y-108814285D01*
D11*
X17540000Y-108580000D02*
X70880000Y-108580000D01*
X70880000Y-111120000D02*
X70880000Y-108580000D01*
X17540000Y-111120000D02*
X17540000Y-108580000D01*
X17540000Y-114295000D02*
X17540000Y-111755000D01*
X70880000Y-114295000D02*
X70880000Y-111755000D01*
X17540000Y-111755000D02*
X70880000Y-111755000D01*
D10*
X23172142Y-113703571D02*
X23172142Y-112203571D01*
X23529285Y-112203571D01*
X23743571Y-112275000D01*
X23886428Y-112417857D01*
X23957857Y-112560714D01*
X24029285Y-112846428D01*
X24029285Y-113060714D01*
X23957857Y-113346428D01*
X23886428Y-113489285D01*
X23743571Y-113632142D01*
X23529285Y-113703571D01*
X23172142Y-113703571D01*
X24672142Y-113703571D02*
X24672142Y-112703571D01*
X24672142Y-112203571D02*
X24600714Y-112275000D01*
X24672142Y-112346428D01*
X24743571Y-112275000D01*
X24672142Y-112203571D01*
X24672142Y-112346428D01*
X25957857Y-113632142D02*
X25815000Y-113703571D01*
X25529285Y-113703571D01*
X25386428Y-113632142D01*
X25315000Y-113489285D01*
X25315000Y-112917857D01*
X25386428Y-112775000D01*
X25529285Y-112703571D01*
X25815000Y-112703571D01*
X25957857Y-112775000D01*
X26029285Y-112917857D01*
X26029285Y-113060714D01*
X25315000Y-113203571D01*
X26886428Y-113703571D02*
X26743571Y-113632142D01*
X26672142Y-113489285D01*
X26672142Y-112203571D01*
X28029285Y-113632142D02*
X27886428Y-113703571D01*
X27600714Y-113703571D01*
X27457857Y-113632142D01*
X27386428Y-113489285D01*
X27386428Y-112917857D01*
X27457857Y-112775000D01*
X27600714Y-112703571D01*
X27886428Y-112703571D01*
X28029285Y-112775000D01*
X28100714Y-112917857D01*
X28100714Y-113060714D01*
X27386428Y-113203571D01*
X29386428Y-113632142D02*
X29243571Y-113703571D01*
X28957857Y-113703571D01*
X28815000Y-113632142D01*
X28743571Y-113560714D01*
X28672142Y-113417857D01*
X28672142Y-112989285D01*
X28743571Y-112846428D01*
X28815000Y-112775000D01*
X28957857Y-112703571D01*
X29243571Y-112703571D01*
X29386428Y-112775000D01*
X29815000Y-112703571D02*
X30386428Y-112703571D01*
X30029285Y-112203571D02*
X30029285Y-113489285D01*
X30100714Y-113632142D01*
X30243571Y-113703571D01*
X30386428Y-113703571D01*
X30886428Y-113703571D02*
X30886428Y-112703571D01*
X30886428Y-112989285D02*
X30957857Y-112846428D01*
X31029285Y-112775000D01*
X31172142Y-112703571D01*
X31315000Y-112703571D01*
X31815000Y-113703571D02*
X31815000Y-112703571D01*
X31815000Y-112203571D02*
X31743571Y-112275000D01*
X31815000Y-112346428D01*
X31886428Y-112275000D01*
X31815000Y-112203571D01*
X31815000Y-112346428D01*
X33172142Y-113632142D02*
X33029285Y-113703571D01*
X32743571Y-113703571D01*
X32600714Y-113632142D01*
X32529285Y-113560714D01*
X32457857Y-113417857D01*
X32457857Y-112989285D01*
X32529285Y-112846428D01*
X32600714Y-112775000D01*
X32743571Y-112703571D01*
X33029285Y-112703571D01*
X33172142Y-112775000D01*
X33815000Y-113560714D02*
X33886428Y-113632142D01*
X33815000Y-113703571D01*
X33743571Y-113632142D01*
X33815000Y-113560714D01*
X33815000Y-113703571D01*
X33815000Y-112775000D02*
X33886428Y-112846428D01*
X33815000Y-112917857D01*
X33743571Y-112846428D01*
X33815000Y-112775000D01*
X33815000Y-112917857D01*
X35600714Y-112346428D02*
X35672142Y-112275000D01*
X35815000Y-112203571D01*
X36172142Y-112203571D01*
X36315000Y-112275000D01*
X36386428Y-112346428D01*
X36457857Y-112489285D01*
X36457857Y-112632142D01*
X36386428Y-112846428D01*
X35529285Y-113703571D01*
X36457857Y-113703571D01*
X37815000Y-112203571D02*
X37100714Y-112203571D01*
X37029285Y-112917857D01*
X37100714Y-112846428D01*
X37243571Y-112775000D01*
X37600714Y-112775000D01*
X37743571Y-112846428D01*
X37815000Y-112917857D01*
X37886428Y-113060714D01*
X37886428Y-113417857D01*
X37815000Y-113560714D01*
X37743571Y-113632142D01*
X37600714Y-113703571D01*
X37243571Y-113703571D01*
X37100714Y-113632142D01*
X37029285Y-113560714D01*
X38815000Y-112203571D02*
X38957857Y-112203571D01*
X39100714Y-112275000D01*
X39172142Y-112346428D01*
X39243571Y-112489285D01*
X39315000Y-112775000D01*
X39315000Y-113132142D01*
X39243571Y-113417857D01*
X39172142Y-113560714D01*
X39100714Y-113632142D01*
X38957857Y-113703571D01*
X38815000Y-113703571D01*
X38672142Y-113632142D01*
X38600714Y-113560714D01*
X38529285Y-113417857D01*
X38457857Y-113132142D01*
X38457857Y-112775000D01*
X38529285Y-112489285D01*
X38600714Y-112346428D01*
X38672142Y-112275000D01*
X38815000Y-112203571D01*
X41743571Y-112703571D02*
X41743571Y-113703571D01*
X41100714Y-112703571D02*
X41100714Y-113489285D01*
X41172142Y-113632142D01*
X41315000Y-113703571D01*
X41529285Y-113703571D01*
X41672142Y-113632142D01*
X41743571Y-113560714D01*
X42457857Y-113703571D02*
X42457857Y-112703571D01*
X42457857Y-112846428D02*
X42529285Y-112775000D01*
X42672142Y-112703571D01*
X42886428Y-112703571D01*
X43029285Y-112775000D01*
X43100714Y-112917857D01*
X43100714Y-113703571D01*
X43100714Y-112917857D02*
X43172142Y-112775000D01*
X43315000Y-112703571D01*
X43529285Y-112703571D01*
X43672142Y-112775000D01*
X43743571Y-112917857D01*
X43743571Y-113703571D01*
D11*
X17540000Y-114295000D02*
X70880000Y-114295000D01*
X17540000Y-120645000D02*
X70880000Y-120645000D01*
D10*
X23172142Y-120053571D02*
X23172142Y-118553571D01*
X23529285Y-118553571D01*
X23743571Y-118625000D01*
X23886428Y-118767857D01*
X23957857Y-118910714D01*
X24029285Y-119196428D01*
X24029285Y-119410714D01*
X23957857Y-119696428D01*
X23886428Y-119839285D01*
X23743571Y-119982142D01*
X23529285Y-120053571D01*
X23172142Y-120053571D01*
X24672142Y-120053571D02*
X24672142Y-119053571D01*
X24672142Y-118553571D02*
X24600714Y-118625000D01*
X24672142Y-118696428D01*
X24743571Y-118625000D01*
X24672142Y-118553571D01*
X24672142Y-118696428D01*
X25957857Y-119982142D02*
X25815000Y-120053571D01*
X25529285Y-120053571D01*
X25386428Y-119982142D01*
X25315000Y-119839285D01*
X25315000Y-119267857D01*
X25386428Y-119125000D01*
X25529285Y-119053571D01*
X25815000Y-119053571D01*
X25957857Y-119125000D01*
X26029285Y-119267857D01*
X26029285Y-119410714D01*
X25315000Y-119553571D01*
X26886428Y-120053571D02*
X26743571Y-119982142D01*
X26672142Y-119839285D01*
X26672142Y-118553571D01*
X28029285Y-119982142D02*
X27886428Y-120053571D01*
X27600714Y-120053571D01*
X27457857Y-119982142D01*
X27386428Y-119839285D01*
X27386428Y-119267857D01*
X27457857Y-119125000D01*
X27600714Y-119053571D01*
X27886428Y-119053571D01*
X28029285Y-119125000D01*
X28100714Y-119267857D01*
X28100714Y-119410714D01*
X27386428Y-119553571D01*
X29386428Y-119982142D02*
X29243571Y-120053571D01*
X28957857Y-120053571D01*
X28815000Y-119982142D01*
X28743571Y-119910714D01*
X28672142Y-119767857D01*
X28672142Y-119339285D01*
X28743571Y-119196428D01*
X28815000Y-119125000D01*
X28957857Y-119053571D01*
X29243571Y-119053571D01*
X29386428Y-119125000D01*
X29815000Y-119053571D02*
X30386428Y-119053571D01*
X30029285Y-118553571D02*
X30029285Y-119839285D01*
X30100714Y-119982142D01*
X30243571Y-120053571D01*
X30386428Y-120053571D01*
X30886428Y-120053571D02*
X30886428Y-119053571D01*
X30886428Y-119339285D02*
X30957857Y-119196428D01*
X31029285Y-119125000D01*
X31172142Y-119053571D01*
X31315000Y-119053571D01*
X31815000Y-120053571D02*
X31815000Y-119053571D01*
X31815000Y-118553571D02*
X31743571Y-118625000D01*
X31815000Y-118696428D01*
X31886428Y-118625000D01*
X31815000Y-118553571D01*
X31815000Y-118696428D01*
X33172142Y-119982142D02*
X33029285Y-120053571D01*
X32743571Y-120053571D01*
X32600714Y-119982142D01*
X32529285Y-119910714D01*
X32457857Y-119767857D01*
X32457857Y-119339285D01*
X32529285Y-119196428D01*
X32600714Y-119125000D01*
X32743571Y-119053571D01*
X33029285Y-119053571D01*
X33172142Y-119125000D01*
X33815000Y-119910714D02*
X33886428Y-119982142D01*
X33815000Y-120053571D01*
X33743571Y-119982142D01*
X33815000Y-119910714D01*
X33815000Y-120053571D01*
X33815000Y-119125000D02*
X33886428Y-119196428D01*
X33815000Y-119267857D01*
X33743571Y-119196428D01*
X33815000Y-119125000D01*
X33815000Y-119267857D01*
X36457857Y-120053571D02*
X35600714Y-120053571D01*
X36029285Y-120053571D02*
X36029285Y-118553571D01*
X35886428Y-118767857D01*
X35743571Y-118910714D01*
X35600714Y-118982142D01*
X37029285Y-118696428D02*
X37100714Y-118625000D01*
X37243571Y-118553571D01*
X37600714Y-118553571D01*
X37743571Y-118625000D01*
X37815000Y-118696428D01*
X37886428Y-118839285D01*
X37886428Y-118982142D01*
X37815000Y-119196428D01*
X36957857Y-120053571D01*
X37886428Y-120053571D01*
X38386428Y-118553571D02*
X39315000Y-118553571D01*
X38815000Y-119125000D01*
X39029285Y-119125000D01*
X39172142Y-119196428D01*
X39243571Y-119267857D01*
X39315000Y-119410714D01*
X39315000Y-119767857D01*
X39243571Y-119910714D01*
X39172142Y-119982142D01*
X39029285Y-120053571D01*
X38600714Y-120053571D01*
X38457857Y-119982142D01*
X38386428Y-119910714D01*
X41743571Y-119053571D02*
X41743571Y-120053571D01*
X41100714Y-119053571D02*
X41100714Y-119839285D01*
X41172142Y-119982142D01*
X41315000Y-120053571D01*
X41529285Y-120053571D01*
X41672142Y-119982142D01*
X41743571Y-119910714D01*
X42457857Y-120053571D02*
X42457857Y-119053571D01*
X42457857Y-119196428D02*
X42529285Y-119125000D01*
X42672142Y-119053571D01*
X42886428Y-119053571D01*
X43029285Y-119125000D01*
X43100714Y-119267857D01*
X43100714Y-120053571D01*
X43100714Y-119267857D02*
X43172142Y-119125000D01*
X43315000Y-119053571D01*
X43529285Y-119053571D01*
X43672142Y-119125000D01*
X43743571Y-119267857D01*
X43743571Y-120053571D01*
D11*
X17540000Y-118105000D02*
X70880000Y-118105000D01*
X70880000Y-120645000D02*
X70880000Y-118105000D01*
X17540000Y-120645000D02*
X17540000Y-118105000D01*
X17540000Y-117470000D02*
X17540000Y-114930000D01*
X70880000Y-117470000D02*
X70880000Y-114930000D01*
X17540000Y-114930000D02*
X70880000Y-114930000D01*
D10*
X23886428Y-116878571D02*
X23172142Y-116878571D01*
X23172142Y-115378571D01*
X25029285Y-116878571D02*
X25029285Y-116092857D01*
X24957857Y-115950000D01*
X24815000Y-115878571D01*
X24529285Y-115878571D01*
X24386428Y-115950000D01*
X25029285Y-116807142D02*
X24886428Y-116878571D01*
X24529285Y-116878571D01*
X24386428Y-116807142D01*
X24315000Y-116664285D01*
X24315000Y-116521428D01*
X24386428Y-116378571D01*
X24529285Y-116307142D01*
X24886428Y-116307142D01*
X25029285Y-116235714D01*
X25600714Y-115878571D02*
X25957857Y-116878571D01*
X26315000Y-115878571D02*
X25957857Y-116878571D01*
X25815000Y-117235714D01*
X25743571Y-117307142D01*
X25600714Y-117378571D01*
X27457857Y-116807142D02*
X27315000Y-116878571D01*
X27029285Y-116878571D01*
X26886428Y-116807142D01*
X26815000Y-116664285D01*
X26815000Y-116092857D01*
X26886428Y-115950000D01*
X27029285Y-115878571D01*
X27315000Y-115878571D01*
X27457857Y-115950000D01*
X27529285Y-116092857D01*
X27529285Y-116235714D01*
X26815000Y-116378571D01*
X28172142Y-116878571D02*
X28172142Y-115878571D01*
X28172142Y-116164285D02*
X28243571Y-116021428D01*
X28315000Y-115950000D01*
X28457857Y-115878571D01*
X28600714Y-115878571D01*
X30100714Y-115378571D02*
X31100714Y-115378571D01*
X30457857Y-116878571D01*
X31672142Y-116735714D02*
X31743571Y-116807142D01*
X31672142Y-116878571D01*
X31600714Y-116807142D01*
X31672142Y-116735714D01*
X31672142Y-116878571D01*
X31672142Y-115950000D02*
X31743571Y-116021428D01*
X31672142Y-116092857D01*
X31600714Y-116021428D01*
X31672142Y-115950000D01*
X31672142Y-116092857D01*
X33529285Y-116878571D02*
X33529285Y-115378571D01*
X34100714Y-115378571D01*
X34243571Y-115450000D01*
X34315000Y-115521428D01*
X34386428Y-115664285D01*
X34386428Y-115878571D01*
X34315000Y-116021428D01*
X34243571Y-116092857D01*
X34100714Y-116164285D01*
X33529285Y-116164285D01*
X35243571Y-116878571D02*
X35100714Y-116807142D01*
X35029285Y-116735714D01*
X34957857Y-116592857D01*
X34957857Y-116164285D01*
X35029285Y-116021428D01*
X35100714Y-115950000D01*
X35243571Y-115878571D01*
X35457857Y-115878571D01*
X35600714Y-115950000D01*
X35672142Y-116021428D01*
X35743571Y-116164285D01*
X35743571Y-116592857D01*
X35672142Y-116735714D01*
X35600714Y-116807142D01*
X35457857Y-116878571D01*
X35243571Y-116878571D01*
X36243571Y-115878571D02*
X36529285Y-116878571D01*
X36815000Y-116164285D01*
X37100714Y-116878571D01*
X37386428Y-115878571D01*
X38529285Y-116807142D02*
X38386428Y-116878571D01*
X38100714Y-116878571D01*
X37957857Y-116807142D01*
X37886428Y-116664285D01*
X37886428Y-116092857D01*
X37957857Y-115950000D01*
X38100714Y-115878571D01*
X38386428Y-115878571D01*
X38529285Y-115950000D01*
X38600714Y-116092857D01*
X38600714Y-116235714D01*
X37886428Y-116378571D01*
X39243571Y-116878571D02*
X39243571Y-115878571D01*
X39243571Y-116164285D02*
X39315000Y-116021428D01*
X39386428Y-115950000D01*
X39529285Y-115878571D01*
X39672142Y-115878571D01*
X42886428Y-117450000D02*
X42815000Y-117378571D01*
X42672142Y-117164285D01*
X42600714Y-117021428D01*
X42529285Y-116807142D01*
X42457857Y-116450000D01*
X42457857Y-116164285D01*
X42529285Y-115807142D01*
X42600714Y-115592857D01*
X42672142Y-115450000D01*
X42815000Y-115235714D01*
X42886428Y-115164285D01*
X43315000Y-115378571D02*
X44243571Y-115378571D01*
X43743571Y-115950000D01*
X43957857Y-115950000D01*
X44100714Y-116021428D01*
X44172142Y-116092857D01*
X44243571Y-116235714D01*
X44243571Y-116592857D01*
X44172142Y-116735714D01*
X44100714Y-116807142D01*
X43957857Y-116878571D01*
X43529285Y-116878571D01*
X43386428Y-116807142D01*
X43315000Y-116735714D01*
X45600714Y-115378571D02*
X44886428Y-115378571D01*
X44815000Y-116092857D01*
X44886428Y-116021428D01*
X45029285Y-115950000D01*
X45386428Y-115950000D01*
X45529285Y-116021428D01*
X45600714Y-116092857D01*
X45672142Y-116235714D01*
X45672142Y-116592857D01*
X45600714Y-116735714D01*
X45529285Y-116807142D01*
X45386428Y-116878571D01*
X45029285Y-116878571D01*
X44886428Y-116807142D01*
X44815000Y-116735714D01*
X48100714Y-115878571D02*
X48100714Y-116878571D01*
X47457857Y-115878571D02*
X47457857Y-116664285D01*
X47529285Y-116807142D01*
X47672142Y-116878571D01*
X47886428Y-116878571D01*
X48029285Y-116807142D01*
X48100714Y-116735714D01*
X48815000Y-116878571D02*
X48815000Y-115878571D01*
X48815000Y-116021428D02*
X48886428Y-115950000D01*
X49029285Y-115878571D01*
X49243571Y-115878571D01*
X49386428Y-115950000D01*
X49457857Y-116092857D01*
X49457857Y-116878571D01*
X49457857Y-116092857D02*
X49529285Y-115950000D01*
X49672142Y-115878571D01*
X49886428Y-115878571D01*
X50029285Y-115950000D01*
X50100714Y-116092857D01*
X50100714Y-116878571D01*
X52815000Y-116735714D02*
X52743571Y-116807142D01*
X52529285Y-116878571D01*
X52386428Y-116878571D01*
X52172142Y-116807142D01*
X52029285Y-116664285D01*
X51957857Y-116521428D01*
X51886428Y-116235714D01*
X51886428Y-116021428D01*
X51957857Y-115735714D01*
X52029285Y-115592857D01*
X52172142Y-115450000D01*
X52386428Y-115378571D01*
X52529285Y-115378571D01*
X52743571Y-115450000D01*
X52815000Y-115521428D01*
X54100714Y-115878571D02*
X54100714Y-116878571D01*
X53457857Y-115878571D02*
X53457857Y-116664285D01*
X53529285Y-116807142D01*
X53672142Y-116878571D01*
X53886428Y-116878571D01*
X54029285Y-116807142D01*
X54100714Y-116735714D01*
X54672142Y-117450000D02*
X54743571Y-117378571D01*
X54886428Y-117164285D01*
X54957857Y-117021428D01*
X55029285Y-116807142D01*
X55100714Y-116450000D01*
X55100714Y-116164285D01*
X55029285Y-115807142D01*
X54957857Y-115592857D01*
X54886428Y-115450000D01*
X54743571Y-115235714D01*
X54672142Y-115164285D01*
D11*
X17540000Y-117470000D02*
X70880000Y-117470000D01*
X17540000Y-123820000D02*
X70880000Y-123820000D01*
D10*
X23886428Y-123228571D02*
X23172142Y-123228571D01*
X23172142Y-121728571D01*
X25029285Y-123228571D02*
X25029285Y-122442857D01*
X24957857Y-122300000D01*
X24815000Y-122228571D01*
X24529285Y-122228571D01*
X24386428Y-122300000D01*
X25029285Y-123157142D02*
X24886428Y-123228571D01*
X24529285Y-123228571D01*
X24386428Y-123157142D01*
X24315000Y-123014285D01*
X24315000Y-122871428D01*
X24386428Y-122728571D01*
X24529285Y-122657142D01*
X24886428Y-122657142D01*
X25029285Y-122585714D01*
X25600714Y-122228571D02*
X25957857Y-123228571D01*
X26315000Y-122228571D02*
X25957857Y-123228571D01*
X25815000Y-123585714D01*
X25743571Y-123657142D01*
X25600714Y-123728571D01*
X27457857Y-123157142D02*
X27315000Y-123228571D01*
X27029285Y-123228571D01*
X26886428Y-123157142D01*
X26815000Y-123014285D01*
X26815000Y-122442857D01*
X26886428Y-122300000D01*
X27029285Y-122228571D01*
X27315000Y-122228571D01*
X27457857Y-122300000D01*
X27529285Y-122442857D01*
X27529285Y-122585714D01*
X26815000Y-122728571D01*
X28172142Y-123228571D02*
X28172142Y-122228571D01*
X28172142Y-122514285D02*
X28243571Y-122371428D01*
X28315000Y-122300000D01*
X28457857Y-122228571D01*
X28600714Y-122228571D01*
X30457857Y-122371428D02*
X30315000Y-122300000D01*
X30243571Y-122228571D01*
X30172142Y-122085714D01*
X30172142Y-122014285D01*
X30243571Y-121871428D01*
X30315000Y-121800000D01*
X30457857Y-121728571D01*
X30743571Y-121728571D01*
X30886428Y-121800000D01*
X30957857Y-121871428D01*
X31029285Y-122014285D01*
X31029285Y-122085714D01*
X30957857Y-122228571D01*
X30886428Y-122300000D01*
X30743571Y-122371428D01*
X30457857Y-122371428D01*
X30315000Y-122442857D01*
X30243571Y-122514285D01*
X30172142Y-122657142D01*
X30172142Y-122942857D01*
X30243571Y-123085714D01*
X30315000Y-123157142D01*
X30457857Y-123228571D01*
X30743571Y-123228571D01*
X30886428Y-123157142D01*
X30957857Y-123085714D01*
X31029285Y-122942857D01*
X31029285Y-122657142D01*
X30957857Y-122514285D01*
X30886428Y-122442857D01*
X30743571Y-122371428D01*
X31672142Y-123085714D02*
X31743571Y-123157142D01*
X31672142Y-123228571D01*
X31600714Y-123157142D01*
X31672142Y-123085714D01*
X31672142Y-123228571D01*
X31672142Y-122300000D02*
X31743571Y-122371428D01*
X31672142Y-122442857D01*
X31600714Y-122371428D01*
X31672142Y-122300000D01*
X31672142Y-122442857D01*
X33457857Y-123157142D02*
X33600714Y-123228571D01*
X33886428Y-123228571D01*
X34029285Y-123157142D01*
X34100714Y-123014285D01*
X34100714Y-122942857D01*
X34029285Y-122800000D01*
X33886428Y-122728571D01*
X33672142Y-122728571D01*
X33529285Y-122657142D01*
X33457857Y-122514285D01*
X33457857Y-122442857D01*
X33529285Y-122300000D01*
X33672142Y-122228571D01*
X33886428Y-122228571D01*
X34029285Y-122300000D01*
X34743571Y-123228571D02*
X34743571Y-122228571D01*
X34743571Y-121728571D02*
X34672142Y-121800000D01*
X34743571Y-121871428D01*
X34815000Y-121800000D01*
X34743571Y-121728571D01*
X34743571Y-121871428D01*
X36100714Y-122228571D02*
X36100714Y-123442857D01*
X36029285Y-123585714D01*
X35957857Y-123657142D01*
X35815000Y-123728571D01*
X35600714Y-123728571D01*
X35457857Y-123657142D01*
X36100714Y-123157142D02*
X35957857Y-123228571D01*
X35672142Y-123228571D01*
X35529285Y-123157142D01*
X35457857Y-123085714D01*
X35386428Y-122942857D01*
X35386428Y-122514285D01*
X35457857Y-122371428D01*
X35529285Y-122300000D01*
X35672142Y-122228571D01*
X35957857Y-122228571D01*
X36100714Y-122300000D01*
X36815000Y-122228571D02*
X36815000Y-123228571D01*
X36815000Y-122371428D02*
X36886428Y-122300000D01*
X37029285Y-122228571D01*
X37243571Y-122228571D01*
X37386428Y-122300000D01*
X37457857Y-122442857D01*
X37457857Y-123228571D01*
X38815000Y-123228571D02*
X38815000Y-122442857D01*
X38743571Y-122300000D01*
X38600714Y-122228571D01*
X38315000Y-122228571D01*
X38172142Y-122300000D01*
X38815000Y-123157142D02*
X38672142Y-123228571D01*
X38315000Y-123228571D01*
X38172142Y-123157142D01*
X38100714Y-123014285D01*
X38100714Y-122871428D01*
X38172142Y-122728571D01*
X38315000Y-122657142D01*
X38672142Y-122657142D01*
X38815000Y-122585714D01*
X39743571Y-123228571D02*
X39600714Y-123157142D01*
X39529285Y-123014285D01*
X39529285Y-121728571D01*
X43029285Y-123800000D02*
X42957857Y-123728571D01*
X42815000Y-123514285D01*
X42743571Y-123371428D01*
X42672142Y-123157142D01*
X42600714Y-122800000D01*
X42600714Y-122514285D01*
X42672142Y-122157142D01*
X42743571Y-121942857D01*
X42815000Y-121800000D01*
X42957857Y-121585714D01*
X43029285Y-121514285D01*
X43457857Y-121728571D02*
X44386428Y-121728571D01*
X43886428Y-122300000D01*
X44100714Y-122300000D01*
X44243571Y-122371428D01*
X44315000Y-122442857D01*
X44386428Y-122585714D01*
X44386428Y-122942857D01*
X44315000Y-123085714D01*
X44243571Y-123157142D01*
X44100714Y-123228571D01*
X43672142Y-123228571D01*
X43529285Y-123157142D01*
X43457857Y-123085714D01*
X45743571Y-121728571D02*
X45029285Y-121728571D01*
X44957857Y-122442857D01*
X45029285Y-122371428D01*
X45172142Y-122300000D01*
X45529285Y-122300000D01*
X45672142Y-122371428D01*
X45743571Y-122442857D01*
X45815000Y-122585714D01*
X45815000Y-122942857D01*
X45743571Y-123085714D01*
X45672142Y-123157142D01*
X45529285Y-123228571D01*
X45172142Y-123228571D01*
X45029285Y-123157142D01*
X44957857Y-123085714D01*
X48243571Y-122228571D02*
X48243571Y-123228571D01*
X47600714Y-122228571D02*
X47600714Y-123014285D01*
X47672142Y-123157142D01*
X47815000Y-123228571D01*
X48029285Y-123228571D01*
X48172142Y-123157142D01*
X48243571Y-123085714D01*
X48957857Y-123228571D02*
X48957857Y-122228571D01*
X48957857Y-122371428D02*
X49029285Y-122300000D01*
X49172142Y-122228571D01*
X49386428Y-122228571D01*
X49529285Y-122300000D01*
X49600714Y-122442857D01*
X49600714Y-123228571D01*
X49600714Y-122442857D02*
X49672142Y-122300000D01*
X49815000Y-122228571D01*
X50029285Y-122228571D01*
X50172142Y-122300000D01*
X50243571Y-122442857D01*
X50243571Y-123228571D01*
X52957857Y-123085714D02*
X52886428Y-123157142D01*
X52672142Y-123228571D01*
X52529285Y-123228571D01*
X52315000Y-123157142D01*
X52172142Y-123014285D01*
X52100714Y-122871428D01*
X52029285Y-122585714D01*
X52029285Y-122371428D01*
X52100714Y-122085714D01*
X52172142Y-121942857D01*
X52315000Y-121800000D01*
X52529285Y-121728571D01*
X52672142Y-121728571D01*
X52886428Y-121800000D01*
X52957857Y-121871428D01*
X54243571Y-122228571D02*
X54243571Y-123228571D01*
X53600714Y-122228571D02*
X53600714Y-123014285D01*
X53672142Y-123157142D01*
X53815000Y-123228571D01*
X54029285Y-123228571D01*
X54172142Y-123157142D01*
X54243571Y-123085714D01*
X56100714Y-123228571D02*
X56100714Y-122228571D01*
X56100714Y-121728571D02*
X56029285Y-121800000D01*
X56100714Y-121871428D01*
X56172142Y-121800000D01*
X56100714Y-121728571D01*
X56100714Y-121871428D01*
X56815000Y-122228571D02*
X56815000Y-123228571D01*
X56815000Y-122371428D02*
X56886428Y-122300000D01*
X57029285Y-122228571D01*
X57243571Y-122228571D01*
X57386428Y-122300000D01*
X57457857Y-122442857D01*
X57457857Y-123228571D01*
X58172142Y-123228571D02*
X58172142Y-122228571D01*
X58172142Y-121728571D02*
X58100714Y-121800000D01*
X58172142Y-121871428D01*
X58243571Y-121800000D01*
X58172142Y-121728571D01*
X58172142Y-121871428D01*
X58672142Y-122228571D02*
X59243571Y-122228571D01*
X58886428Y-121728571D02*
X58886428Y-123014285D01*
X58957857Y-123157142D01*
X59100714Y-123228571D01*
X59243571Y-123228571D01*
X59743571Y-123228571D02*
X59743571Y-122228571D01*
X59743571Y-121728571D02*
X59672142Y-121800000D01*
X59743571Y-121871428D01*
X59815000Y-121800000D01*
X59743571Y-121728571D01*
X59743571Y-121871428D01*
X61100714Y-123228571D02*
X61100714Y-122442857D01*
X61029285Y-122300000D01*
X60886428Y-122228571D01*
X60600714Y-122228571D01*
X60457857Y-122300000D01*
X61100714Y-123157142D02*
X60957857Y-123228571D01*
X60600714Y-123228571D01*
X60457857Y-123157142D01*
X60386428Y-123014285D01*
X60386428Y-122871428D01*
X60457857Y-122728571D01*
X60600714Y-122657142D01*
X60957857Y-122657142D01*
X61100714Y-122585714D01*
X62029285Y-123228571D02*
X61886428Y-123157142D01*
X61815000Y-123014285D01*
X61815000Y-121728571D01*
X62457857Y-123800000D02*
X62529285Y-123728571D01*
X62672142Y-123514285D01*
X62743571Y-123371428D01*
X62815000Y-123157142D01*
X62886428Y-122800000D01*
X62886428Y-122514285D01*
X62815000Y-122157142D01*
X62743571Y-121942857D01*
X62672142Y-121800000D01*
X62529285Y-121585714D01*
X62457857Y-121514285D01*
D11*
X17540000Y-121280000D02*
X70880000Y-121280000D01*
X70880000Y-123820000D02*
X70880000Y-121280000D01*
X17540000Y-123820000D02*
X17540000Y-121280000D01*
X17540000Y-126995000D02*
X17540000Y-124455000D01*
X70880000Y-126995000D02*
X70880000Y-124455000D01*
X17540000Y-124455000D02*
X70880000Y-124455000D01*
D10*
X23100714Y-126332142D02*
X23315000Y-126403571D01*
X23672142Y-126403571D01*
X23815000Y-126332142D01*
X23886428Y-126260714D01*
X23957857Y-126117857D01*
X23957857Y-125975000D01*
X23886428Y-125832142D01*
X23815000Y-125760714D01*
X23672142Y-125689285D01*
X23386428Y-125617857D01*
X23243571Y-125546428D01*
X23172142Y-125475000D01*
X23100714Y-125332142D01*
X23100714Y-125189285D01*
X23172142Y-125046428D01*
X23243571Y-124975000D01*
X23386428Y-124903571D01*
X23743571Y-124903571D01*
X23957857Y-124975000D01*
X25243571Y-125403571D02*
X25243571Y-126403571D01*
X24600714Y-125403571D02*
X24600714Y-126189285D01*
X24672142Y-126332142D01*
X24815000Y-126403571D01*
X25029285Y-126403571D01*
X25172142Y-126332142D01*
X25243571Y-126260714D01*
X25957857Y-126403571D02*
X25957857Y-125403571D01*
X25957857Y-125689285D02*
X26029285Y-125546428D01*
X26100714Y-125475000D01*
X26243571Y-125403571D01*
X26386428Y-125403571D01*
X26672142Y-125403571D02*
X27243571Y-125403571D01*
X26886428Y-126403571D02*
X26886428Y-125117857D01*
X26957857Y-124975000D01*
X27100714Y-124903571D01*
X27243571Y-124903571D01*
X28386428Y-126403571D02*
X28386428Y-125617857D01*
X28315000Y-125475000D01*
X28172142Y-125403571D01*
X27886428Y-125403571D01*
X27743571Y-125475000D01*
X28386428Y-126332142D02*
X28243571Y-126403571D01*
X27886428Y-126403571D01*
X27743571Y-126332142D01*
X27672142Y-126189285D01*
X27672142Y-126046428D01*
X27743571Y-125903571D01*
X27886428Y-125832142D01*
X28243571Y-125832142D01*
X28386428Y-125760714D01*
X29743571Y-126332142D02*
X29600714Y-126403571D01*
X29315000Y-126403571D01*
X29172142Y-126332142D01*
X29100714Y-126260714D01*
X29029285Y-126117857D01*
X29029285Y-125689285D01*
X29100714Y-125546428D01*
X29172142Y-125475000D01*
X29315000Y-125403571D01*
X29600714Y-125403571D01*
X29743571Y-125475000D01*
X30957857Y-126332142D02*
X30815000Y-126403571D01*
X30529285Y-126403571D01*
X30386428Y-126332142D01*
X30315000Y-126189285D01*
X30315000Y-125617857D01*
X30386428Y-125475000D01*
X30529285Y-125403571D01*
X30815000Y-125403571D01*
X30957857Y-125475000D01*
X31029285Y-125617857D01*
X31029285Y-125760714D01*
X30315000Y-125903571D01*
D11*
X17540000Y-126995000D02*
X70880000Y-126995000D01*
D10*
X156426270Y-133955328D02*
X155569128Y-133955251D01*
X155997699Y-133955289D02*
X155997833Y-132455289D01*
X155854956Y-132669562D01*
X155712087Y-132812407D01*
X155569223Y-132883823D01*
X157854842Y-133955455D02*
X156997699Y-133955379D01*
X157426270Y-133955417D02*
X157426404Y-132455417D01*
X157283528Y-132669690D01*
X157140658Y-132812534D01*
X156997795Y-132883950D01*
X159140645Y-132955570D02*
X159140556Y-133955570D01*
X158783553Y-132384109D02*
X158426315Y-133455506D01*
X159354886Y-133455589D01*
X161069128Y-133955741D02*
X161069217Y-132955741D01*
X161069204Y-133098599D02*
X161140639Y-133027176D01*
X161283502Y-132955761D01*
X161497788Y-132955780D01*
X161640639Y-133027221D01*
X161712055Y-133170084D01*
X161711985Y-133955799D01*
X161712055Y-133170084D02*
X161783496Y-133027234D01*
X161926360Y-132955818D01*
X162140645Y-132955837D01*
X162283496Y-133027278D01*
X162354912Y-133170142D01*
X162354842Y-133955856D01*
X163069128Y-133955920D02*
X163069217Y-132955920D01*
X163069204Y-133098777D02*
X163140639Y-133027355D01*
X163283502Y-132955939D01*
X163497788Y-132955958D01*
X163640639Y-133027399D01*
X163712055Y-133170263D01*
X163711985Y-133955977D01*
X163712055Y-133170263D02*
X163783496Y-133027412D01*
X163926360Y-132955996D01*
X164140645Y-132956015D01*
X164283496Y-133027456D01*
X164354912Y-133170320D01*
X164354842Y-133956034D01*
X102999011Y-131921995D02*
X216996751Y-131932155D01*
X102999540Y-125989080D02*
X102998770Y-134621995D01*
X216997280Y-125999240D02*
X216996510Y-134632155D01*
X216996751Y-131932155D02*
X215870195Y-132518475D01*
X216996751Y-131932155D02*
X215870300Y-131345634D01*
X102999011Y-131921995D02*
X104125462Y-132508516D01*
X102999011Y-131921995D02*
X104125567Y-131335675D01*
M02*
