xpm_cdc.sv,systemverilog,xpm,../../../../../../../../../Xilinx/Vivado/2019.2/data/ip/xpm/xpm_cdc/hdl/xpm_cdc.sv,
xpm_fifo.sv,systemverilog,xpm,../../../../../../../../../Xilinx/Vivado/2019.2/data/ip/xpm/xpm_fifo/hdl/xpm_fifo.sv,
xpm_memory.sv,systemverilog,xpm,../../../../../../../../../Xilinx/Vivado/2019.2/data/ip/xpm/xpm_memory/hdl/xpm_memory.sv,
xpm_VCOMP.vhd,vhdl,xpm,../../../../../../../../../Xilinx/Vivado/2019.2/data/ip/xpm/xpm_VCOMP.vhd,
glbl.v,Verilog,xil_defaultlib,glbl.v
