EESchema Schematic File Version 4
EELAYER 30 0
EELAYER END
$Descr A4 11693 8268
encoding utf-8
Sheet 11 11
Title ""
Date ""
Rev ""
Comp ""
Comment1 ""
Comment2 ""
Comment3 ""
Comment4 ""
$EndDescr
$Comp
L FEAD-rescue:GND-power1 #PWR01119
U 1 1 5BAC498E
P 7850 1150
F 0 "#PWR01119" H 7850 900 50  0001 C CNN
F 1 "GND" H 7850 1000 50  0000 C CNN
F 2 "" H 7850 1150 50  0000 C CNN
F 3 "" H 7850 1150 50  0000 C CNN
	1    7850 1150
	1    0    0    -1  
$EndComp
Wire Wire Line
	6775 850  7200 850 
Connection ~ 7200 850 
$Comp
L FEAD-rescue:GND-power1 #PWR01118
U 1 1 5BAC4996
P 7400 2100
F 0 "#PWR01118" H 7400 1850 50  0001 C CNN
F 1 "GND" H 7400 1950 50  0000 C CNN
F 2 "" H 7400 2100 50  0000 C CNN
F 3 "" H 7400 2100 50  0000 C CNN
	1    7400 2100
	1    0    0    -1  
$EndComp
$Comp
L Device:R R1107
U 1 1 5BAC499C
P 6775 1225
F 0 "R1107" V 6855 1225 50  0000 C CNN
F 1 "DNP" V 6775 1225 50  0000 C CNN
F 2 "Resistor_SMD:R_0402_1005Metric" H 6775 1225 50  0001 C CNN
F 3 "" H 6775 1225 50  0000 C CNN
	1    6775 1225
	1    0    0    -1  
$EndComp
$Comp
L Device:R R1108
U 1 1 5BAC49A3
P 6775 1675
F 0 "R1108" V 6855 1675 50  0000 C CNN
F 1 "DNP" V 6775 1675 50  0000 C CNN
F 2 "Resistor_SMD:R_0402_1005Metric" H 6775 1675 50  0001 C CNN
F 3 "" H 6775 1675 50  0000 C CNN
	1    6775 1675
	1    0    0    -1  
$EndComp
Wire Wire Line
	7400 2050 6775 2050
Wire Wire Line
	6775 1375 6775 1450
Wire Wire Line
	6775 1450 6850 1450
Connection ~ 6775 1450
Wire Wire Line
	7400 2000 7400 2050
Connection ~ 7400 2050
$Comp
L FEAD-rescue:VccO-power1 #PWR01117
U 1 1 5BAC49B2
P 7200 800
F 0 "#PWR01117" H 7200 650 50  0001 C CNN
F 1 "VccO" H 7200 950 50  0000 C CNN
F 2 "" H 7200 800 50  0000 C CNN
F 3 "" H 7200 800 50  0000 C CNN
	1    7200 800 
	1    0    0    -1  
$EndComp
Wire Wire Line
	7200 850  7200 800 
Wire Wire Line
	7400 900  7400 850 
Connection ~ 7400 850 
Wire Wire Line
	7200 850  7400 850 
Wire Wire Line
	6775 1450 6775 1525
Wire Wire Line
	7400 2050 7400 2100
Wire Wire Line
	7400 850  7850 850 
Text HLabel 1825 650  0    39   Input ~ 0
CLK_from_FE_P[1..5]
$Comp
L MDJ_compo:SI590B U1106
U 1 1 5BAD4CA7
P 7400 1450
F 0 "U1106" H 7175 1700 60  0000 C CNN
F 1 "SI590B" H 7225 1800 60  0000 C CNN
F 2 "MDJ_mod:Si590" H 7400 1450 60  0001 C CNN
F 3 "" H 7400 1450 60  0001 C CNN
	1    7400 1450
	1    0    0    -1  
$EndComp
$Comp
L Device:C C1126
U 1 1 5BADE5E1
P 7850 1000
F 0 "C1126" H 7875 1075 50  0000 L CNN
F 1 "100nF" H 7650 925 50  0000 L CNN
F 2 "Capacitor_SMD:C_0201_0603Metric" H 7888 850 50  0001 C CNN
F 3 "~" H 7850 1000 50  0001 C CNN
	1    7850 1000
	1    0    0    -1  
$EndComp
Wire Wire Line
	6775 850  6775 1075
Wire Wire Line
	6775 1825 6775 2050
$Comp
L Device:R R1109
U 1 1 5C5858F4
P 8650 1400
F 0 "R1109" V 8725 1400 50  0000 C CNN
F 1 "100" V 8650 1400 50  0000 C CNN
F 2 "Resistor_SMD:R_0201_0603Metric" H 8650 1400 50  0001 C CNN
F 3 "" H 8650 1400 50  0000 C CNN
	1    8650 1400
	0    -1   -1   0   
$EndComp
Text HLabel 1825 725  0    39   Input ~ 0
CLK_from_FE_N[1..5]
Text HLabel 1825 800  0    39   Output ~ 0
CLK_to_VFE_P[1..5]
Text HLabel 1825 875  0    39   Output ~ 0
CLK_to_VFE_N[1..5]
NoConn ~ 3400 2575
NoConn ~ 3400 2475
NoConn ~ 3400 2825
NoConn ~ 3400 2725
Wire Wire Line
	2750 3375 2650 3375
$Comp
L FEAD-rescue:GND-power1 #PWR01101
U 1 1 5D10D3B0
P 2650 3375
F 0 "#PWR01101" H 2650 3125 50  0001 C CNN
F 1 "GND" H 2650 3225 50  0000 C CNN
F 2 "" H 2650 3375 50  0000 C CNN
F 3 "" H 2650 3375 50  0000 C CNN
	1    2650 3375
	1    0    0    -1  
$EndComp
$Comp
L FEAD-rescue:VccO-power1 #PWR01103
U 1 1 5D10D38D
P 2700 1925
F 0 "#PWR01103" H 2700 1775 50  0001 C CNN
F 1 "VccO" H 2700 2075 50  0000 C CNN
F 2 "" H 2700 1925 50  0000 C CNN
F 3 "" H 2700 1925 50  0000 C CNN
	1    2700 1925
	1    0    0    -1  
$EndComp
Text Label 1550 2925 0    39   ~ 0
VFE_Clk_Select
Wire Wire Line
	1550 2925 2000 2925
Text Label 3850 2325 0    39   ~ 0
CLK_to_VFE_N1
Wire Wire Line
	3400 2325 4275 2325
Text Label 3850 2225 0    39   ~ 0
CLK_to_VFE_P1
Text Label 1550 2725 0    39   ~ 0
loc_CLK-
Text Label 1550 2625 0    39   ~ 0
loc_CLK+
Wire Wire Line
	1550 2725 2000 2725
Wire Wire Line
	1550 2625 2000 2625
Text Label 700  2425 0    39   ~ 0
CLK_from_FE_N1
Text Label 700  2325 0    39   ~ 0
CLK_from_FE_P1
Connection ~ 2650 3375
$Comp
L MDJ_compo:SI53340 U1101
U 1 1 5D0D747D
P 2700 2625
F 0 "U1101" H 2700 2550 50  0000 C CNN
F 1 "SI53340" H 2700 2625 50  0000 C CNN
F 2 "MDJ_mod:QFN-16-1EP_3x3mm_P0.5mm_EP1.8x1.8mm_4Gnd" H 3750 1625 50  0001 C CNN
F 3 "https://www.silabs.com/documents/public/data-sheets/Si5330.pdf" H 2200 3125 50  0001 C CNN
	1    2700 2625
	1    0    0    -1  
$EndComp
$Comp
L Device:C C1104
U 1 1 5D13D218
P 1500 2325
F 0 "C1104" V 1450 2375 50  0000 L CNN
F 1 "100nF" V 1450 2075 50  0000 L CNN
F 2 "Capacitor_SMD:C_0201_0603Metric" H 1538 2175 50  0001 C CNN
F 3 "~" H 1500 2325 50  0001 C CNN
	1    1500 2325
	0    1    1    0   
$EndComp
$Comp
L Device:C C1101
U 1 1 5D13D21E
P 1350 2425
F 0 "C1101" V 1400 2175 50  0000 L CNN
F 1 "100nF" V 1300 2200 50  0000 L CNN
F 2 "Capacitor_SMD:C_0201_0603Metric" H 1388 2275 50  0001 C CNN
F 3 "~" H 1350 2425 50  0001 C CNN
	1    1350 2425
	0    1    1    0   
$EndComp
$Comp
L Device:R R1101
U 1 1 5D13D224
P 1675 2075
F 0 "R1101" V 1750 2075 50  0000 C CNN
F 1 "100" V 1675 2075 50  0000 C CNN
F 2 "Resistor_SMD:R_0201_0603Metric" H 1675 2075 50  0001 C CNN
F 3 "" H 1675 2075 50  0000 C CNN
	1    1675 2075
	1    0    0    -1  
$EndComp
Wire Wire Line
	1650 2325 1675 2325
Wire Wire Line
	1675 2225 1675 2325
Connection ~ 1675 2325
Wire Wire Line
	1675 2325 2000 2325
Wire Wire Line
	700  2325 1350 2325
Wire Wire Line
	700  2425 1200 2425
NoConn ~ 3425 5000
NoConn ~ 3425 4900
NoConn ~ 3425 4750
NoConn ~ 3425 4650
NoConn ~ 3425 4500
NoConn ~ 3425 4400
Wire Wire Line
	2775 5300 2675 5300
$Comp
L FEAD-rescue:GND-power1 #PWR01102
U 1 1 5D16579A
P 2675 5300
F 0 "#PWR01102" H 2675 5050 50  0001 C CNN
F 1 "GND" H 2675 5150 50  0000 C CNN
F 2 "" H 2675 5300 50  0000 C CNN
F 3 "" H 2675 5300 50  0000 C CNN
	1    2675 5300
	1    0    0    -1  
$EndComp
$Comp
L FEAD-rescue:VccO-power1 #PWR01105
U 1 1 5D1657A0
P 2725 3850
F 0 "#PWR01105" H 2725 3700 50  0001 C CNN
F 1 "VccO" H 2725 4000 50  0000 C CNN
F 2 "" H 2725 3850 50  0000 C CNN
F 3 "" H 2725 3850 50  0000 C CNN
	1    2725 3850
	1    0    0    -1  
$EndComp
Text Label 1575 4850 0    39   ~ 0
VFE_Clk_Select
Wire Wire Line
	1575 4850 2025 4850
Text Label 3875 4250 0    39   ~ 0
CLK_to_VFE_N2
Wire Wire Line
	3425 4250 4300 4250
Text Label 3875 4150 0    39   ~ 0
CLK_to_VFE_P2
Text Label 1575 4650 0    39   ~ 0
loc_CLK-
Text Label 1575 4550 0    39   ~ 0
loc_CLK+
Wire Wire Line
	1575 4650 2025 4650
Wire Wire Line
	1575 4550 2025 4550
Text Label 725  4350 0    39   ~ 0
CLK_from_FE_N2
Text Label 725  4250 0    39   ~ 0
CLK_from_FE_P2
Connection ~ 2675 5300
$Comp
L MDJ_compo:SI53340 U1102
U 1 1 5D1657B3
P 2725 4550
F 0 "U1102" H 2725 4475 50  0000 C CNN
F 1 "SI53340" H 2725 4550 50  0000 C CNN
F 2 "MDJ_mod:QFN-16-1EP_3x3mm_P0.5mm_EP1.8x1.8mm_4Gnd" H 3775 3550 50  0001 C CNN
F 3 "https://www.silabs.com/documents/public/data-sheets/Si5330.pdf" H 2225 5050 50  0001 C CNN
	1    2725 4550
	1    0    0    -1  
$EndComp
$Comp
L Device:C C1105
U 1 1 5D1657B9
P 1525 4250
F 0 "C1105" V 1475 4300 50  0000 L CNN
F 1 "100nF" V 1475 4000 50  0000 L CNN
F 2 "Capacitor_SMD:C_0201_0603Metric" H 1563 4100 50  0001 C CNN
F 3 "~" H 1525 4250 50  0001 C CNN
	1    1525 4250
	0    1    1    0   
$EndComp
$Comp
L Device:C C1102
U 1 1 5D1657BF
P 1375 4350
F 0 "C1102" V 1425 4100 50  0000 L CNN
F 1 "100nF" V 1325 4125 50  0000 L CNN
F 2 "Capacitor_SMD:C_0201_0603Metric" H 1413 4200 50  0001 C CNN
F 3 "~" H 1375 4350 50  0001 C CNN
	1    1375 4350
	0    1    1    0   
$EndComp
$Comp
L Device:R R1102
U 1 1 5D1657C5
P 1700 4000
F 0 "R1102" V 1775 4000 50  0000 C CNN
F 1 "100" V 1700 4000 50  0000 C CNN
F 2 "Resistor_SMD:R_0201_0603Metric" H 1700 4000 50  0001 C CNN
F 3 "" H 1700 4000 50  0000 C CNN
	1    1700 4000
	1    0    0    -1  
$EndComp
Wire Wire Line
	1675 4250 1700 4250
Wire Wire Line
	1700 4150 1700 4250
Connection ~ 1700 4250
Wire Wire Line
	1700 4250 2025 4250
Wire Wire Line
	725  4250 1375 4250
Wire Wire Line
	725  4350 1225 4350
NoConn ~ 3450 7050
NoConn ~ 3450 6950
NoConn ~ 3450 6800
NoConn ~ 3450 6700
NoConn ~ 3450 6550
NoConn ~ 3450 6450
Wire Wire Line
	2800 7350 2700 7350
$Comp
L FEAD-rescue:GND-power1 #PWR01104
U 1 1 5D169456
P 2700 7350
F 0 "#PWR01104" H 2700 7100 50  0001 C CNN
F 1 "GND" H 2700 7200 50  0000 C CNN
F 2 "" H 2700 7350 50  0000 C CNN
F 3 "" H 2700 7350 50  0000 C CNN
	1    2700 7350
	1    0    0    -1  
$EndComp
$Comp
L FEAD-rescue:VccO-power1 #PWR01106
U 1 1 5D16945C
P 2750 5900
F 0 "#PWR01106" H 2750 5750 50  0001 C CNN
F 1 "VccO" H 2750 6050 50  0000 C CNN
F 2 "" H 2750 5900 50  0000 C CNN
F 3 "" H 2750 5900 50  0000 C CNN
	1    2750 5900
	1    0    0    -1  
$EndComp
Text Label 1600 6900 0    39   ~ 0
VFE_Clk_Select
Wire Wire Line
	1600 6900 2050 6900
Text Label 3900 6300 0    39   ~ 0
CLK_to_VFE_N3
Wire Wire Line
	3450 6300 4325 6300
Text Label 3900 6200 0    39   ~ 0
CLK_to_VFE_P3
Text Label 1600 6700 0    39   ~ 0
loc_CLK-
Text Label 1600 6600 0    39   ~ 0
loc_CLK+
Wire Wire Line
	1600 6700 2050 6700
Wire Wire Line
	1600 6600 2050 6600
Text Label 750  6400 0    39   ~ 0
CLK_from_FE_N3
Text Label 750  6300 0    39   ~ 0
CLK_from_FE_P3
Connection ~ 2700 7350
$Comp
L MDJ_compo:SI53340 U1103
U 1 1 5D16946F
P 2750 6600
F 0 "U1103" H 2750 6525 50  0000 C CNN
F 1 "SI53340" H 2750 6600 50  0000 C CNN
F 2 "MDJ_mod:QFN-16-1EP_3x3mm_P0.5mm_EP1.8x1.8mm_4Gnd" H 3800 5600 50  0001 C CNN
F 3 "https://www.silabs.com/documents/public/data-sheets/Si5330.pdf" H 2250 7100 50  0001 C CNN
	1    2750 6600
	1    0    0    -1  
$EndComp
$Comp
L Device:C C1106
U 1 1 5D169475
P 1550 6300
F 0 "C1106" V 1500 6350 50  0000 L CNN
F 1 "100nF" V 1500 6050 50  0000 L CNN
F 2 "Capacitor_SMD:C_0201_0603Metric" H 1588 6150 50  0001 C CNN
F 3 "~" H 1550 6300 50  0001 C CNN
	1    1550 6300
	0    1    1    0   
$EndComp
$Comp
L Device:C C1103
U 1 1 5D16947B
P 1400 6400
F 0 "C1103" V 1450 6150 50  0000 L CNN
F 1 "100nF" V 1350 6175 50  0000 L CNN
F 2 "Capacitor_SMD:C_0201_0603Metric" H 1438 6250 50  0001 C CNN
F 3 "~" H 1400 6400 50  0001 C CNN
	1    1400 6400
	0    1    1    0   
$EndComp
$Comp
L Device:R R1103
U 1 1 5D169481
P 1725 6050
F 0 "R1103" V 1800 6050 50  0000 C CNN
F 1 "100" V 1725 6050 50  0000 C CNN
F 2 "Resistor_SMD:R_0201_0603Metric" H 1725 6050 50  0001 C CNN
F 3 "" H 1725 6050 50  0000 C CNN
	1    1725 6050
	1    0    0    -1  
$EndComp
Wire Wire Line
	1700 6300 1725 6300
Wire Wire Line
	1725 6200 1725 6300
Connection ~ 1725 6300
Wire Wire Line
	1725 6300 2050 6300
Wire Wire Line
	750  6300 1400 6300
Wire Wire Line
	750  6400 1250 6400
NoConn ~ 7250 4100
NoConn ~ 7250 4000
NoConn ~ 7250 3850
NoConn ~ 7250 3750
NoConn ~ 7250 3600
NoConn ~ 7250 3500
Wire Wire Line
	6600 4400 6500 4400
$Comp
L FEAD-rescue:GND-power1 #PWR01111
U 1 1 5D16F3CB
P 6500 4400
F 0 "#PWR01111" H 6500 4150 50  0001 C CNN
F 1 "GND" H 6500 4250 50  0000 C CNN
F 2 "" H 6500 4400 50  0000 C CNN
F 3 "" H 6500 4400 50  0000 C CNN
	1    6500 4400
	1    0    0    -1  
$EndComp
$Comp
L FEAD-rescue:VccO-power1 #PWR01113
U 1 1 5D16F3D1
P 6550 2950
F 0 "#PWR01113" H 6550 2800 50  0001 C CNN
F 1 "VccO" H 6550 3100 50  0000 C CNN
F 2 "" H 6550 2950 50  0000 C CNN
F 3 "" H 6550 2950 50  0000 C CNN
	1    6550 2950
	1    0    0    -1  
$EndComp
Text Label 5400 3950 0    39   ~ 0
VFE_Clk_Select
Wire Wire Line
	5400 3950 5850 3950
Text Label 7700 3350 0    39   ~ 0
CLK_to_VFE_N4
Wire Wire Line
	7250 3350 8125 3350
Text Label 7700 3250 0    39   ~ 0
CLK_to_VFE_P4
Text Label 5400 3750 0    39   ~ 0
loc_CLK-
Text Label 5400 3650 0    39   ~ 0
loc_CLK+
Wire Wire Line
	5400 3750 5850 3750
Wire Wire Line
	5400 3650 5850 3650
Text Label 4550 3450 0    39   ~ 0
CLK_from_FE_N4
Text Label 4550 3350 0    39   ~ 0
CLK_from_FE_P4
Connection ~ 6500 4400
$Comp
L MDJ_compo:SI53340 U1104
U 1 1 5D16F3E4
P 6550 3650
F 0 "U1104" H 6550 3575 50  0000 C CNN
F 1 "SI53340" H 6550 3650 50  0000 C CNN
F 2 "MDJ_mod:QFN-16-1EP_3x3mm_P0.5mm_EP1.8x1.8mm_4Gnd" H 7600 2650 50  0001 C CNN
F 3 "https://www.silabs.com/documents/public/data-sheets/Si5330.pdf" H 6050 4150 50  0001 C CNN
	1    6550 3650
	1    0    0    -1  
$EndComp
$Comp
L Device:C C1118
U 1 1 5D16F3EA
P 5350 3350
F 0 "C1118" V 5300 3400 50  0000 L CNN
F 1 "100nF" V 5300 3100 50  0000 L CNN
F 2 "Capacitor_SMD:C_0201_0603Metric" H 5388 3200 50  0001 C CNN
F 3 "~" H 5350 3350 50  0001 C CNN
	1    5350 3350
	0    1    1    0   
$EndComp
$Comp
L Device:C C1116
U 1 1 5D16F3F0
P 5200 3450
F 0 "C1116" V 5250 3200 50  0000 L CNN
F 1 "100nF" V 5150 3225 50  0000 L CNN
F 2 "Capacitor_SMD:C_0201_0603Metric" H 5238 3300 50  0001 C CNN
F 3 "~" H 5200 3450 50  0001 C CNN
	1    5200 3450
	0    1    1    0   
$EndComp
$Comp
L Device:R R1105
U 1 1 5D16F3F6
P 5525 3100
F 0 "R1105" V 5600 3100 50  0000 C CNN
F 1 "100" V 5525 3100 50  0000 C CNN
F 2 "Resistor_SMD:R_0201_0603Metric" H 5525 3100 50  0001 C CNN
F 3 "" H 5525 3100 50  0000 C CNN
	1    5525 3100
	1    0    0    -1  
$EndComp
Wire Wire Line
	5500 3350 5525 3350
Wire Wire Line
	5525 3250 5525 3350
Connection ~ 5525 3350
Wire Wire Line
	5525 3350 5850 3350
Wire Wire Line
	4550 3350 5200 3350
Wire Wire Line
	4550 3450 5050 3450
NoConn ~ 7275 6025
NoConn ~ 7275 5925
NoConn ~ 7275 5775
NoConn ~ 7275 5675
NoConn ~ 7275 5525
NoConn ~ 7275 5425
Wire Wire Line
	6625 6325 6525 6325
$Comp
L FEAD-rescue:GND-power1 #PWR01112
U 1 1 5D16F41A
P 6525 6325
F 0 "#PWR01112" H 6525 6075 50  0001 C CNN
F 1 "GND" H 6525 6175 50  0000 C CNN
F 2 "" H 6525 6325 50  0000 C CNN
F 3 "" H 6525 6325 50  0000 C CNN
	1    6525 6325
	1    0    0    -1  
$EndComp
$Comp
L FEAD-rescue:VccO-power1 #PWR01114
U 1 1 5D16F420
P 6575 4875
F 0 "#PWR01114" H 6575 4725 50  0001 C CNN
F 1 "VccO" H 6575 5025 50  0000 C CNN
F 2 "" H 6575 4875 50  0000 C CNN
F 3 "" H 6575 4875 50  0000 C CNN
	1    6575 4875
	1    0    0    -1  
$EndComp
Text Label 5425 5875 0    39   ~ 0
VFE_Clk_Select
Wire Wire Line
	5425 5875 5875 5875
Text Label 7725 5275 0    39   ~ 0
CLK_to_VFE_N5
Wire Wire Line
	7275 5275 8150 5275
Text Label 7725 5175 0    39   ~ 0
CLK_to_VFE_P5
Text Label 5425 5675 0    39   ~ 0
loc_CLK-
Text Label 5425 5575 0    39   ~ 0
loc_CLK+
Wire Wire Line
	5425 5675 5875 5675
Wire Wire Line
	5425 5575 5875 5575
Text Label 4575 5375 0    39   ~ 0
CLK_from_FE_N5
Text Label 4575 5275 0    39   ~ 0
CLK_from_FE_P5
Connection ~ 6525 6325
$Comp
L MDJ_compo:SI53340 U1105
U 1 1 5D16F433
P 6575 5575
F 0 "U1105" H 6575 5500 50  0000 C CNN
F 1 "SI53340" H 6575 5575 50  0000 C CNN
F 2 "MDJ_mod:QFN-16-1EP_3x3mm_P0.5mm_EP1.8x1.8mm_4Gnd" H 7625 4575 50  0001 C CNN
F 3 "https://www.silabs.com/documents/public/data-sheets/Si5330.pdf" H 6075 6075 50  0001 C CNN
	1    6575 5575
	1    0    0    -1  
$EndComp
$Comp
L Device:C C1119
U 1 1 5D16F439
P 5375 5275
F 0 "C1119" V 5325 5325 50  0000 L CNN
F 1 "100nF" V 5325 5025 50  0000 L CNN
F 2 "Capacitor_SMD:C_0201_0603Metric" H 5413 5125 50  0001 C CNN
F 3 "~" H 5375 5275 50  0001 C CNN
	1    5375 5275
	0    1    1    0   
$EndComp
$Comp
L Device:C C1117
U 1 1 5D16F43F
P 5225 5375
F 0 "C1117" V 5275 5125 50  0000 L CNN
F 1 "100nF" V 5175 5150 50  0000 L CNN
F 2 "Capacitor_SMD:C_0201_0603Metric" H 5263 5225 50  0001 C CNN
F 3 "~" H 5225 5375 50  0001 C CNN
	1    5225 5375
	0    1    1    0   
$EndComp
$Comp
L Device:R R1106
U 1 1 5D16F445
P 5550 5025
F 0 "R1106" V 5625 5025 50  0000 C CNN
F 1 "100" V 5550 5025 50  0000 C CNN
F 2 "Resistor_SMD:R_0201_0603Metric" H 5550 5025 50  0001 C CNN
F 3 "" H 5550 5025 50  0000 C CNN
	1    5550 5025
	1    0    0    -1  
$EndComp
Wire Wire Line
	5525 5275 5550 5275
Wire Wire Line
	5550 5175 5550 5275
Connection ~ 5550 5275
Wire Wire Line
	5550 5275 5875 5275
Wire Wire Line
	4575 5275 5225 5275
Wire Wire Line
	4575 5375 5075 5375
$Comp
L Device:C C1120
U 1 1 5D17C047
P 6700 2950
F 0 "C1120" V 6575 3000 50  0000 L CNN
F 1 "10uF" V 6650 3000 50  0000 L CNN
F 2 "Capacitor_SMD:C_0402_1005Metric" H 6738 2800 50  0001 C CNN
F 3 "~" H 6700 2950 50  0001 C CNN
	1    6700 2950
	0    1    1    0   
$EndComp
Connection ~ 6550 2950
$Comp
L FEAD-rescue:GND-power1 #PWR01115
U 1 1 5D184444
P 6850 2950
F 0 "#PWR01115" H 6850 2700 50  0001 C CNN
F 1 "GND" H 6850 2800 50  0000 C CNN
F 2 "" H 6850 2950 50  0000 C CNN
F 3 "" H 6850 2950 50  0000 C CNN
	1    6850 2950
	1    0    0    -1  
$EndComp
$Comp
L Device:C C1121
U 1 1 5D1845CF
P 6725 4875
F 0 "C1121" V 6600 4925 50  0000 L CNN
F 1 "10uF" V 6675 4925 50  0000 L CNN
F 2 "Capacitor_SMD:C_0402_1005Metric" H 6763 4725 50  0001 C CNN
F 3 "~" H 6725 4875 50  0001 C CNN
	1    6725 4875
	0    1    1    0   
$EndComp
$Comp
L FEAD-rescue:GND-power1 #PWR01116
U 1 1 5D184718
P 6875 4875
F 0 "#PWR01116" H 6875 4625 50  0001 C CNN
F 1 "GND" H 6875 4725 50  0000 C CNN
F 2 "" H 6875 4875 50  0000 C CNN
F 3 "" H 6875 4875 50  0000 C CNN
	1    6875 4875
	1    0    0    -1  
$EndComp
$Comp
L Device:C C1107
U 1 1 5D18C75B
P 2850 1925
F 0 "C1107" V 2725 1975 50  0000 L CNN
F 1 "10uF" V 2800 1975 50  0000 L CNN
F 2 "Capacitor_SMD:C_0402_1005Metric" H 2888 1775 50  0001 C CNN
F 3 "~" H 2850 1925 50  0001 C CNN
	1    2850 1925
	0    1    1    0   
$EndComp
$Comp
L FEAD-rescue:GND-power1 #PWR01107
U 1 1 5D18C761
P 3000 1925
F 0 "#PWR01107" H 3000 1675 50  0001 C CNN
F 1 "GND" H 3000 1775 50  0000 C CNN
F 2 "" H 3000 1925 50  0000 C CNN
F 3 "" H 3000 1925 50  0000 C CNN
	1    3000 1925
	1    0    0    -1  
$EndComp
$Comp
L Device:C C1108
U 1 1 5D1945CC
P 2875 3850
F 0 "C1108" V 2750 3900 50  0000 L CNN
F 1 "10uF" V 2825 3900 50  0000 L CNN
F 2 "Capacitor_SMD:C_0402_1005Metric" H 2913 3700 50  0001 C CNN
F 3 "~" H 2875 3850 50  0001 C CNN
	1    2875 3850
	0    1    1    0   
$EndComp
$Comp
L FEAD-rescue:GND-power1 #PWR01108
U 1 1 5D1945D2
P 3025 3850
F 0 "#PWR01108" H 3025 3600 50  0001 C CNN
F 1 "GND" H 3025 3700 50  0000 C CNN
F 2 "" H 3025 3850 50  0000 C CNN
F 3 "" H 3025 3850 50  0000 C CNN
	1    3025 3850
	1    0    0    -1  
$EndComp
$Comp
L Device:C C1109
U 1 1 5D19C5E4
P 2900 5900
F 0 "C1109" V 2775 5950 50  0000 L CNN
F 1 "10uF" V 2850 5950 50  0000 L CNN
F 2 "Capacitor_SMD:C_0402_1005Metric" H 2938 5750 50  0001 C CNN
F 3 "~" H 2900 5900 50  0001 C CNN
	1    2900 5900
	0    1    1    0   
$EndComp
$Comp
L FEAD-rescue:GND-power1 #PWR01109
U 1 1 5D19C5EA
P 3050 5900
F 0 "#PWR01109" H 3050 5650 50  0001 C CNN
F 1 "GND" H 3050 5750 50  0000 C CNN
F 2 "" H 3050 5900 50  0000 C CNN
F 3 "" H 3050 5900 50  0000 C CNN
	1    3050 5900
	1    0    0    -1  
$EndComp
Connection ~ 2700 1925
Connection ~ 2725 3850
Connection ~ 2750 5900
Connection ~ 6575 4875
Text HLabel 4275 2975 2    39   Output ~ 0
CLK_to_FPGA-
Text HLabel 4275 3075 2    39   Output ~ 0
CLK_to_FPGA+
Text HLabel 5300 1100 0    39   Input ~ 0
VFE_Clk_Select
$Comp
L Device:R R1104
U 1 1 5C67F97A
P 5425 950
F 0 "R1104" V 5500 950 50  0000 C CNN
F 1 "10k" V 5425 950 50  0000 C CNN
F 2 "Resistor_SMD:R_0201_0603Metric" H 5425 950 50  0001 C CNN
F 3 "" H 5425 950 50  0000 C CNN
	1    5425 950 
	1    0    0    -1  
$EndComp
$Comp
L FEAD-rescue:VccO-power1 #PWR01110
U 1 1 5C67FAB1
P 5425 800
F 0 "#PWR01110" H 5425 650 50  0001 C CNN
F 1 "VccO" H 5425 950 50  0000 C CNN
F 2 "" H 5425 800 50  0000 C CNN
F 3 "" H 5425 800 50  0000 C CNN
	1    5425 800 
	1    0    0    -1  
$EndComp
Wire Wire Line
	5300 1100 5425 1100
Wire Wire Line
	3400 2975 4275 2975
Wire Wire Line
	3400 3075 4275 3075
Text Label 5750 5375 1    39   ~ 0
CLK_from_FE_AC_N5
Wire Wire Line
	5375 5375 5675 5375
Wire Wire Line
	5550 4875 5675 4875
Wire Wire Line
	5675 4875 5675 5375
Connection ~ 5675 5375
Wire Wire Line
	5675 5375 5875 5375
Text Label 5825 5275 1    39   ~ 0
CLK_from_FE_AC_P5
Text Label 5725 3450 1    39   ~ 0
CLK_from_FE_AC_N4
Text Label 5800 3350 1    39   ~ 0
CLK_from_FE_AC_P4
Wire Wire Line
	5350 3450 5650 3450
Wire Wire Line
	5525 2950 5650 2950
Wire Wire Line
	5650 2950 5650 3450
Connection ~ 5650 3450
Wire Wire Line
	5650 3450 5850 3450
Wire Wire Line
	1500 2425 1800 2425
Wire Wire Line
	1525 4350 1825 4350
Wire Wire Line
	1550 6400 1850 6400
Wire Wire Line
	1725 5900 1850 5900
Wire Wire Line
	1850 5900 1850 6400
Connection ~ 1850 6400
Wire Wire Line
	1850 6400 2050 6400
Wire Wire Line
	1700 3850 1825 3850
Wire Wire Line
	1825 3850 1825 4350
Connection ~ 1825 4350
Wire Wire Line
	1825 4350 2025 4350
Wire Wire Line
	1675 1925 1800 1925
Wire Wire Line
	1800 1925 1800 2425
Connection ~ 1800 2425
Wire Wire Line
	1800 2425 2000 2425
Text Label 1875 2425 1    39   ~ 0
CLK_from_FE_AC_N1
Text Label 1950 2325 1    39   ~ 0
CLK_from_FE_AC_P1
Text Label 1900 4350 1    39   ~ 0
CLK_from_FE_AC_N2
Text Label 1975 4250 1    39   ~ 0
CLK_from_FE_AC_P2
Text Label 1925 6400 1    39   ~ 0
CLK_from_FE_AC_P3
Text Label 2000 6300 1    39   ~ 0
CLK_from_FE_AC_N3
Wire Wire Line
	7950 1400 8500 1400
Wire Wire Line
	3400 2225 4275 2225
Wire Wire Line
	3425 4150 4300 4150
Wire Wire Line
	3450 6200 4325 6200
Wire Wire Line
	7250 3250 8125 3250
Wire Wire Line
	7275 5175 8150 5175
Wire Wire Line
	7950 1500 8800 1500
Wire Wire Line
	8800 1500 8800 1400
Text Label 8000 1400 0    39   ~ 0
loc_CLK+
Text Label 8000 1500 0    39   ~ 0
loc_CLK-
$EndSCHEMATC
