(kicad_sch (version 20230121) (generator eeschema)

  (uuid 6bd7efd5-74f5-4b09-8bb7-5762073a2f78)

  (paper "A4")

  (lib_symbols
    (symbol "Device:R" (pin_numbers hide) (pin_names (offset 0)) (in_bom yes) (on_board yes)
      (property "Reference" "R" (at 2.032 0 90)
        (effects (font (size 1.27 1.27)))
      )
      (property "Value" "R" (at 0 0 90)
        (effects (font (size 1.27 1.27)))
      )
      (property "Footprint" "" (at -1.778 0 90)
        (effects (font (size 1.27 1.27)) hide)
      )
      (property "Datasheet" "~" (at 0 0 0)
        (effects (font (size 1.27 1.27)) hide)
      )
      (property "ki_keywords" "R res resistor" (at 0 0 0)
        (effects (font (size 1.27 1.27)) hide)
      )
      (property "ki_description" "Resistor" (at 0 0 0)
        (effects (font (size 1.27 1.27)) hide)
      )
      (property "ki_fp_filters" "R_*" (at 0 0 0)
        (effects (font (size 1.27 1.27)) hide)
      )
      (symbol "R_0_1"
        (rectangle (start -1.016 -2.54) (end 1.016 2.54)
          (stroke (width 0.254) (type default))
          (fill (type none))
        )
      )
      (symbol "R_1_1"
        (pin passive line (at 0 3.81 270) (length 1.27)
          (name "~" (effects (font (size 1.27 1.27))))
          (number "1" (effects (font (size 1.27 1.27))))
        )
        (pin passive line (at 0 -3.81 90) (length 1.27)
          (name "~" (effects (font (size 1.27 1.27))))
          (number "2" (effects (font (size 1.27 1.27))))
        )
      )
    )
    (symbol "MDJ_compo:ERNI-154765" (pin_names (offset 1.016)) (in_bom yes) (on_board yes)
      (property "Reference" "J" (at 0 -36.83 0)
        (effects (font (size 1.524 1.524)))
      )
      (property "Value" "ERNI-154765" (at 0 0 90)
        (effects (font (size 1.524 1.524)))
      )
      (property "Footprint" "" (at -2.54 0 0)
        (effects (font (size 1.524 1.524)))
      )
      (property "Datasheet" "" (at -2.54 0 0)
        (effects (font (size 1.524 1.524)))
      )
      (property "ki_description" "ERNI right angle male" (at 0 0 0)
        (effects (font (size 1.27 1.27)) hide)
      )
      (symbol "ERNI-154765_0_1"
        (rectangle (start -8.89 35.56) (end 8.89 -34.29)
          (stroke (width 0) (type default))
          (fill (type background))
        )
      )
      (symbol "ERNI-154765_1_1"
        (pin input line (at 13.97 33.02 180) (length 5.08)
          (name "1" (effects (font (size 1.27 1.27))))
          (number "1" (effects (font (size 1.27 1.27))))
        )
        (pin passive line (at 13.97 7.62 180) (length 5.08)
          (name "10A" (effects (font (size 1.27 1.27))))
          (number "10A" (effects (font (size 1.27 1.27))))
        )
        (pin passive line (at -13.97 7.62 0) (length 5.08)
          (name "10B" (effects (font (size 1.27 1.27))))
          (number "10B" (effects (font (size 1.27 1.27))))
        )
        (pin passive line (at 13.97 5.08 180) (length 5.08)
          (name "11A" (effects (font (size 1.27 1.27))))
          (number "11A" (effects (font (size 1.27 1.27))))
        )
        (pin passive line (at -13.97 5.08 0) (length 5.08)
          (name "11B" (effects (font (size 1.27 1.27))))
          (number "11B" (effects (font (size 1.27 1.27))))
        )
        (pin passive line (at 13.97 2.54 180) (length 5.08)
          (name "12A" (effects (font (size 1.27 1.27))))
          (number "12A" (effects (font (size 1.27 1.27))))
        )
        (pin passive line (at -13.97 2.54 0) (length 5.08)
          (name "12B" (effects (font (size 1.27 1.27))))
          (number "12B" (effects (font (size 1.27 1.27))))
        )
        (pin passive line (at 13.97 0 180) (length 5.08)
          (name "13A" (effects (font (size 1.27 1.27))))
          (number "13A" (effects (font (size 1.27 1.27))))
        )
        (pin passive line (at -13.97 0 0) (length 5.08)
          (name "13B" (effects (font (size 1.27 1.27))))
          (number "13B" (effects (font (size 1.27 1.27))))
        )
        (pin passive line (at 13.97 -2.54 180) (length 5.08)
          (name "14A" (effects (font (size 1.27 1.27))))
          (number "14A" (effects (font (size 1.27 1.27))))
        )
        (pin passive line (at -13.97 -2.54 0) (length 5.08)
          (name "14B" (effects (font (size 1.27 1.27))))
          (number "14B" (effects (font (size 1.27 1.27))))
        )
        (pin passive line (at 13.97 -5.08 180) (length 5.08)
          (name "15A" (effects (font (size 1.27 1.27))))
          (number "15A" (effects (font (size 1.27 1.27))))
        )
        (pin passive line (at -13.97 -5.08 0) (length 5.08)
          (name "15B" (effects (font (size 1.27 1.27))))
          (number "15B" (effects (font (size 1.27 1.27))))
        )
        (pin passive line (at 13.97 -7.62 180) (length 5.08)
          (name "16A" (effects (font (size 1.27 1.27))))
          (number "16A" (effects (font (size 1.27 1.27))))
        )
        (pin passive line (at -13.97 -7.62 0) (length 5.08)
          (name "16B" (effects (font (size 1.27 1.27))))
          (number "16B" (effects (font (size 1.27 1.27))))
        )
        (pin passive line (at 13.97 -10.16 180) (length 5.08)
          (name "17A" (effects (font (size 1.27 1.27))))
          (number "17A" (effects (font (size 1.27 1.27))))
        )
        (pin passive line (at -13.97 -10.16 0) (length 5.08)
          (name "17B" (effects (font (size 1.27 1.27))))
          (number "17B" (effects (font (size 1.27 1.27))))
        )
        (pin passive line (at 13.97 -12.7 180) (length 5.08)
          (name "18A" (effects (font (size 1.27 1.27))))
          (number "18A" (effects (font (size 1.27 1.27))))
        )
        (pin passive line (at -13.97 -12.7 0) (length 5.08)
          (name "18B" (effects (font (size 1.27 1.27))))
          (number "18B" (effects (font (size 1.27 1.27))))
        )
        (pin passive line (at 13.97 -15.24 180) (length 5.08)
          (name "19A" (effects (font (size 1.27 1.27))))
          (number "19A" (effects (font (size 1.27 1.27))))
        )
        (pin passive line (at -13.97 -15.24 0) (length 5.08)
          (name "19B" (effects (font (size 1.27 1.27))))
          (number "19B" (effects (font (size 1.27 1.27))))
        )
        (pin passive line (at 13.97 30.48 180) (length 5.08)
          (name "1A" (effects (font (size 1.27 1.27))))
          (number "1A" (effects (font (size 1.27 1.27))))
        )
        (pin passive line (at -13.97 30.48 0) (length 5.08)
          (name "1B" (effects (font (size 1.27 1.27))))
          (number "1B" (effects (font (size 1.27 1.27))))
        )
        (pin input line (at -13.97 33.02 0) (length 5.08)
          (name "2" (effects (font (size 1.27 1.27))))
          (number "2" (effects (font (size 1.27 1.27))))
        )
        (pin passive line (at 13.97 -17.78 180) (length 5.08)
          (name "20A" (effects (font (size 1.27 1.27))))
          (number "20A" (effects (font (size 1.27 1.27))))
        )
        (pin passive line (at -13.97 -17.78 0) (length 5.08)
          (name "20B" (effects (font (size 1.27 1.27))))
          (number "20B" (effects (font (size 1.27 1.27))))
        )
        (pin passive line (at 13.97 -20.32 180) (length 5.08)
          (name "21A" (effects (font (size 1.27 1.27))))
          (number "21A" (effects (font (size 1.27 1.27))))
        )
        (pin passive line (at -13.97 -20.32 0) (length 5.08)
          (name "21B" (effects (font (size 1.27 1.27))))
          (number "21B" (effects (font (size 1.27 1.27))))
        )
        (pin passive line (at 13.97 -22.86 180) (length 5.08)
          (name "22A" (effects (font (size 1.27 1.27))))
          (number "22A" (effects (font (size 1.27 1.27))))
        )
        (pin passive line (at -13.97 -22.86 0) (length 5.08)
          (name "22B" (effects (font (size 1.27 1.27))))
          (number "22B" (effects (font (size 1.27 1.27))))
        )
        (pin passive line (at 13.97 -25.4 180) (length 5.08)
          (name "23A" (effects (font (size 1.27 1.27))))
          (number "23A" (effects (font (size 1.27 1.27))))
        )
        (pin passive line (at -13.97 -25.4 0) (length 5.08)
          (name "23B" (effects (font (size 1.27 1.27))))
          (number "23B" (effects (font (size 1.27 1.27))))
        )
        (pin passive line (at 13.97 -27.94 180) (length 5.08)
          (name "24A" (effects (font (size 1.27 1.27))))
          (number "24A" (effects (font (size 1.27 1.27))))
        )
        (pin passive line (at -13.97 -27.94 0) (length 5.08)
          (name "24B" (effects (font (size 1.27 1.27))))
          (number "24B" (effects (font (size 1.27 1.27))))
        )
        (pin passive line (at 13.97 -30.48 180) (length 5.08)
          (name "25A" (effects (font (size 1.27 1.27))))
          (number "25A" (effects (font (size 1.27 1.27))))
        )
        (pin passive line (at -13.97 -30.48 0) (length 5.08)
          (name "25B" (effects (font (size 1.27 1.27))))
          (number "25B" (effects (font (size 1.27 1.27))))
        )
        (pin passive line (at 13.97 27.94 180) (length 5.08)
          (name "2A" (effects (font (size 1.27 1.27))))
          (number "2A" (effects (font (size 1.27 1.27))))
        )
        (pin passive line (at -13.97 27.94 0) (length 5.08)
          (name "2B" (effects (font (size 1.27 1.27))))
          (number "2B" (effects (font (size 1.27 1.27))))
        )
        (pin input line (at -13.97 -33.02 0) (length 5.08)
          (name "3" (effects (font (size 1.27 1.27))))
          (number "3" (effects (font (size 1.27 1.27))))
        )
        (pin passive line (at 13.97 25.4 180) (length 5.08)
          (name "3A" (effects (font (size 1.27 1.27))))
          (number "3A" (effects (font (size 1.27 1.27))))
        )
        (pin passive line (at -13.97 25.4 0) (length 5.08)
          (name "3B" (effects (font (size 1.27 1.27))))
          (number "3B" (effects (font (size 1.27 1.27))))
        )
        (pin input line (at 13.97 -33.02 180) (length 5.08)
          (name "4" (effects (font (size 1.27 1.27))))
          (number "4" (effects (font (size 1.27 1.27))))
        )
        (pin passive line (at 13.97 22.86 180) (length 5.08)
          (name "4A" (effects (font (size 1.27 1.27))))
          (number "4A" (effects (font (size 1.27 1.27))))
        )
        (pin passive line (at -13.97 22.86 0) (length 5.08)
          (name "4B" (effects (font (size 1.27 1.27))))
          (number "4B" (effects (font (size 1.27 1.27))))
        )
        (pin passive line (at 13.97 20.32 180) (length 5.08)
          (name "5A" (effects (font (size 1.27 1.27))))
          (number "5A" (effects (font (size 1.27 1.27))))
        )
        (pin passive line (at -13.97 20.32 0) (length 5.08)
          (name "5B" (effects (font (size 1.27 1.27))))
          (number "5B" (effects (font (size 1.27 1.27))))
        )
        (pin passive line (at 13.97 17.78 180) (length 5.08)
          (name "6A" (effects (font (size 1.27 1.27))))
          (number "6A" (effects (font (size 1.27 1.27))))
        )
        (pin passive line (at -13.97 17.78 0) (length 5.08)
          (name "6B" (effects (font (size 1.27 1.27))))
          (number "6B" (effects (font (size 1.27 1.27))))
        )
        (pin passive line (at 13.97 15.24 180) (length 5.08)
          (name "7A" (effects (font (size 1.27 1.27))))
          (number "7A" (effects (font (size 1.27 1.27))))
        )
        (pin passive line (at -13.97 15.24 0) (length 5.08)
          (name "7B" (effects (font (size 1.27 1.27))))
          (number "7B" (effects (font (size 1.27 1.27))))
        )
        (pin passive line (at 13.97 12.7 180) (length 5.08)
          (name "8A" (effects (font (size 1.27 1.27))))
          (number "8A" (effects (font (size 1.27 1.27))))
        )
        (pin passive line (at -13.97 12.7 0) (length 5.08)
          (name "8B" (effects (font (size 1.27 1.27))))
          (number "8B" (effects (font (size 1.27 1.27))))
        )
        (pin passive line (at 13.97 10.16 180) (length 5.08)
          (name "9A" (effects (font (size 1.27 1.27))))
          (number "9A" (effects (font (size 1.27 1.27))))
        )
        (pin passive line (at -13.97 10.16 0) (length 5.08)
          (name "9B" (effects (font (size 1.27 1.27))))
          (number "9B" (effects (font (size 1.27 1.27))))
        )
      )
    )
    (symbol "MDJ_compo:FE_VD" (power) (pin_names (offset 0)) (in_bom yes) (on_board yes)
      (property "Reference" "#PWR" (at 0 -3.81 0)
        (effects (font (size 1.27 1.27)) hide)
      )
      (property "Value" "FE_VD" (at 0 3.556 0)
        (effects (font (size 1.27 1.27)))
      )
      (property "Footprint" "" (at 0 0 0)
        (effects (font (size 1.27 1.27)))
      )
      (property "Datasheet" "" (at 0 0 0)
        (effects (font (size 1.27 1.27)))
      )
      (symbol "FE_VD_0_1"
        (polyline
          (pts
            (xy -0.762 1.27)
            (xy 0 2.54)
          )
          (stroke (width 0) (type default))
          (fill (type none))
        )
        (polyline
          (pts
            (xy 0 0)
            (xy 0 2.54)
          )
          (stroke (width 0) (type default))
          (fill (type none))
        )
        (polyline
          (pts
            (xy 0 2.54)
            (xy 0.762 1.27)
          )
          (stroke (width 0) (type default))
          (fill (type none))
        )
      )
      (symbol "FE_VD_1_1"
        (pin power_in line (at 0 0 90) (length 0) hide
          (name "FE_VD" (effects (font (size 1.27 1.27))))
          (number "1" (effects (font (size 1.27 1.27))))
        )
      )
    )
    (symbol "power:GND" (power) (pin_names (offset 0)) (in_bom yes) (on_board yes)
      (property "Reference" "#PWR" (at 0 -6.35 0)
        (effects (font (size 1.27 1.27)) hide)
      )
      (property "Value" "GND" (at 0 -3.81 0)
        (effects (font (size 1.27 1.27)))
      )
      (property "Footprint" "" (at 0 0 0)
        (effects (font (size 1.27 1.27)) hide)
      )
      (property "Datasheet" "" (at 0 0 0)
        (effects (font (size 1.27 1.27)) hide)
      )
      (property "ki_keywords" "global power" (at 0 0 0)
        (effects (font (size 1.27 1.27)) hide)
      )
      (property "ki_description" "Power symbol creates a global label with name \"GND\" , ground" (at 0 0 0)
        (effects (font (size 1.27 1.27)) hide)
      )
      (symbol "GND_0_1"
        (polyline
          (pts
            (xy 0 0)
            (xy 0 -1.27)
            (xy 1.27 -1.27)
            (xy 0 -2.54)
            (xy -1.27 -1.27)
            (xy 0 -1.27)
          )
          (stroke (width 0) (type default))
          (fill (type none))
        )
      )
      (symbol "GND_1_1"
        (pin power_in line (at 0 0 270) (length 0) hide
          (name "GND" (effects (font (size 1.27 1.27))))
          (number "1" (effects (font (size 1.27 1.27))))
        )
      )
    )
  )

  (junction (at 52.705 110.49) (diameter 0) (color 0 0 0 0)
    (uuid 0091242a-bd9b-46a6-8cd0-cc81fa5db24e)
  )
  (junction (at 52.705 168.91) (diameter 0) (color 0 0 0 0)
    (uuid 09986a87-49c2-4491-b1b1-87dfad52ab95)
  )
  (junction (at 36.83 24.13) (diameter 0) (color 0 0 0 0)
    (uuid 101131db-475d-4275-89d4-ac43ee9a25d5)
  )
  (junction (at 86.995 140.97) (diameter 0) (color 0 0 0 0)
    (uuid 115c2483-0d3d-4658-9c56-55683456b2f9)
  )
  (junction (at 86.995 34.29) (diameter 0) (color 0 0 0 0)
    (uuid 1ba339fd-3eed-4093-adef-1f8b6939e3c2)
  )
  (junction (at 52.705 64.77) (diameter 0) (color 0 0 0 0)
    (uuid 21de29f1-55e6-491f-9b72-2d0cf15d30d9)
  )
  (junction (at 52.705 153.67) (diameter 0) (color 0 0 0 0)
    (uuid 260c26af-1e30-4624-94a4-7cbfebc53f93)
  )
  (junction (at 52.705 31.75) (diameter 0) (color 0 0 0 0)
    (uuid 2b3b0810-cd1d-48a1-a104-fe015cf2af3c)
  )
  (junction (at 52.705 123.19) (diameter 0) (color 0 0 0 0)
    (uuid 2f51df0b-67e2-48cd-baf9-810701c16be9)
  )
  (junction (at 86.995 135.89) (diameter 0) (color 0 0 0 0)
    (uuid 3472ac51-2496-4774-b525-ca48b4eac389)
  )
  (junction (at 36.83 15.24) (diameter 0) (color 0 0 0 0)
    (uuid 34f494d3-f727-4e92-b04b-bb02d398ea06)
  )
  (junction (at 86.995 54.61) (diameter 0) (color 0 0 0 0)
    (uuid 3915f1cf-e224-42a7-8e50-b5aa000e1dd3)
  )
  (junction (at 86.995 82.55) (diameter 0) (color 0 0 0 0)
    (uuid 4055fe96-6cd0-4098-a3eb-28bdaf898065)
  )
  (junction (at 52.705 36.83) (diameter 0) (color 0 0 0 0)
    (uuid 41456f29-a703-4d12-85d0-c21ea7c0a452)
  )
  (junction (at 52.705 59.69) (diameter 0) (color 0 0 0 0)
    (uuid 441f9c55-be25-4fae-8b9b-6a71ad3b0b86)
  )
  (junction (at 86.995 26.67) (diameter 0) (color 0 0 0 0)
    (uuid 4a333138-062a-4541-87e1-d6ef03b1e3dd)
  )
  (junction (at 86.995 120.65) (diameter 0) (color 0 0 0 0)
    (uuid 584970dc-5538-419b-b998-8d8d4ada798f)
  )
  (junction (at 86.995 74.93) (diameter 0) (color 0 0 0 0)
    (uuid 5a43f40c-f75b-4db3-8642-220e4b806437)
  )
  (junction (at 52.705 80.01) (diameter 0) (color 0 0 0 0)
    (uuid 5cff2459-d275-4803-8fa2-8289cb689a75)
  )
  (junction (at 52.705 57.15) (diameter 0) (color 0 0 0 0)
    (uuid 5d580eb5-0e83-488b-a0fd-a803c630f551)
  )
  (junction (at 52.705 125.73) (diameter 0) (color 0 0 0 0)
    (uuid 5ed8deae-e8d8-451d-b355-245f684ec0f6)
  )
  (junction (at 86.995 24.13) (diameter 0) (color 0 0 0 0)
    (uuid 5ff98705-cf67-403d-b0a1-4c57aba0bbdc)
  )
  (junction (at 52.705 146.05) (diameter 0) (color 0 0 0 0)
    (uuid 6792a032-9256-487f-aa0b-8c689e242f4e)
  )
  (junction (at 52.705 29.21) (diameter 0) (color 0 0 0 0)
    (uuid 7f8f1c43-60e8-4996-bc14-4119dfb0064e)
  )
  (junction (at 52.705 39.37) (diameter 0) (color 0 0 0 0)
    (uuid 84a6c803-a4ac-48df-95fb-6930cca4e25e)
  )
  (junction (at 52.705 77.47) (diameter 0) (color 0 0 0 0)
    (uuid 885fe160-5562-498c-ba18-9f416e1d87d2)
  )
  (junction (at 52.705 87.63) (diameter 0) (color 0 0 0 0)
    (uuid 8c1a53c3-eda8-4cf7-9683-1f61b02265f4)
  )
  (junction (at 52.705 143.51) (diameter 0) (color 0 0 0 0)
    (uuid 8e2a2f6b-8167-4ac5-b2a6-8fefc2e5007d)
  )
  (junction (at 52.705 113.03) (diameter 0) (color 0 0 0 0)
    (uuid 92f9a7fe-12b9-455c-b3cb-646f2e8901ef)
  )
  (junction (at 86.995 62.23) (diameter 0) (color 0 0 0 0)
    (uuid 932b167d-ddab-4c71-b0d5-3168e84d05b6)
  )
  (junction (at 86.995 115.57) (diameter 0) (color 0 0 0 0)
    (uuid 9c81b9e4-c3e8-4c27-acdb-80b385e836a7)
  )
  (junction (at 86.995 156.21) (diameter 0) (color 0 0 0 0)
    (uuid a277cb94-54f4-4201-9b19-13124e8120b4)
  )
  (junction (at 52.705 46.99) (diameter 0) (color 0 0 0 0)
    (uuid a2d16f16-08e6-4947-a6d1-6d787ead02c9)
  )
  (junction (at 52.705 171.45) (diameter 0) (color 0 0 0 0)
    (uuid a78169fb-08eb-4bc4-9ac3-2069e70c447b)
  )
  (junction (at 52.705 67.31) (diameter 0) (color 0 0 0 0)
    (uuid a7f09cc9-2878-4daf-b4fb-2ce63103f4de)
  )
  (junction (at 86.995 49.53) (diameter 0) (color 0 0 0 0)
    (uuid a889c295-2d25-4852-8cf9-7f4cc11f3612)
  )
  (junction (at 52.705 130.81) (diameter 0) (color 0 0 0 0)
    (uuid aa95d6eb-61a1-46de-9823-1ac851e53563)
  )
  (junction (at 52.705 44.45) (diameter 0) (color 0 0 0 0)
    (uuid b11ebd64-c9c7-457c-8a22-c5fed71aadd1)
  )
  (junction (at 52.705 133.35) (diameter 0) (color 0 0 0 0)
    (uuid b4180bb0-8dc9-48ec-9931-26e9377a82e1)
  )
  (junction (at 39.37 26.67) (diameter 0) (color 0 0 0 0)
    (uuid c0cb9ac4-a13f-4ce2-8aea-f334c934d5b3)
  )
  (junction (at 86.995 148.59) (diameter 0) (color 0 0 0 0)
    (uuid c6f64293-5e29-4afa-8644-d8f9ea3d34e8)
  )
  (junction (at 52.705 90.17) (diameter 0) (color 0 0 0 0)
    (uuid cb23e2e7-de0c-4a6a-9419-1c472c13f509)
  )
  (junction (at 86.995 41.91) (diameter 0) (color 0 0 0 0)
    (uuid ccdcd4fd-03cc-4196-93ad-841bb5ede2f5)
  )
  (junction (at 86.995 87.63) (diameter 0) (color 0 0 0 0)
    (uuid cd4406c8-1d31-4759-9e62-d689d76eb5ee)
  )
  (junction (at 52.705 107.95) (diameter 0) (color 0 0 0 0)
    (uuid d2551b77-8cbc-4e7a-af3b-fc16fb61dc91)
  )
  (junction (at 86.995 128.27) (diameter 0) (color 0 0 0 0)
    (uuid d916b305-a832-4de9-944b-164deaf38300)
  )
  (junction (at 86.995 69.85) (diameter 0) (color 0 0 0 0)
    (uuid dd1edec3-c7ba-4ffa-8ee5-8e55b6e96e86)
  )
  (junction (at 52.705 151.13) (diameter 0) (color 0 0 0 0)
    (uuid e06f99ab-70c9-48e0-9786-de35bc5b9bdc)
  )
  (junction (at 86.995 107.95) (diameter 0) (color 0 0 0 0)
    (uuid e37b0ec1-e6e0-41cc-abe1-ad47cc32e2d2)
  )
  (junction (at 86.995 168.91) (diameter 0) (color 0 0 0 0)
    (uuid fe3862ad-c819-4b65-9e75-6bbc512422a7)
  )

  (wire (pts (xy 41.91 105.41) (xy 41.91 104.14))
    (stroke (width 0) (type default))
    (uuid 0339f2f9-1d07-4033-b6d0-c95452f524c6)
  )
  (wire (pts (xy 83.82 21.59) (xy 86.995 21.59))
    (stroke (width 0) (type default))
    (uuid 0432af54-cd35-4c3c-88e6-bbc1a7d2c6b4)
  )
  (wire (pts (xy 52.705 151.13) (xy 52.705 153.67))
    (stroke (width 0) (type default))
    (uuid 060a9d78-785b-4e95-9f27-c70c9bd79368)
  )
  (wire (pts (xy 99.695 57.15) (xy 83.82 57.15))
    (stroke (width 0) (type default))
    (uuid 06bccb0b-2f4b-4092-834b-3871294199da)
  )
  (wire (pts (xy 33.655 24.13) (xy 36.83 24.13))
    (stroke (width 0) (type default))
    (uuid 07ea9fe0-fccf-4161-ae79-4bb53994d273)
  )
  (wire (pts (xy 55.88 151.13) (xy 52.705 151.13))
    (stroke (width 0) (type default))
    (uuid 0816bee4-5935-4741-bd0f-c370f413b02b)
  )
  (wire (pts (xy 55.88 105.41) (xy 41.91 105.41))
    (stroke (width 0) (type default))
    (uuid 0c190730-a9e0-4c4a-8e33-74ee97fb990f)
  )
  (wire (pts (xy 99.695 146.05) (xy 83.82 146.05))
    (stroke (width 0) (type default))
    (uuid 0da7e2aa-d9f3-4593-ac1b-d89c546ab178)
  )
  (wire (pts (xy 52.705 102.87) (xy 52.705 107.95))
    (stroke (width 0) (type default))
    (uuid 0daddb18-1491-4767-9ffd-66c8a8ce3cbd)
  )
  (wire (pts (xy 86.995 24.13) (xy 86.995 26.67))
    (stroke (width 0) (type default))
    (uuid 0de56762-ce56-43f6-b2d4-e1179688ff91)
  )
  (wire (pts (xy 83.82 74.93) (xy 86.995 74.93))
    (stroke (width 0) (type default))
    (uuid 1087999d-983e-42bf-b325-b81c766947cc)
  )
  (wire (pts (xy 52.705 36.83) (xy 52.705 39.37))
    (stroke (width 0) (type default))
    (uuid 12fc5fae-2589-481a-9c5c-1325ed3bb3b8)
  )
  (wire (pts (xy 86.995 140.97) (xy 86.995 148.59))
    (stroke (width 0) (type default))
    (uuid 133e4738-5308-4c8f-a278-ff3a4b573a42)
  )
  (wire (pts (xy 39.37 22.86) (xy 39.37 26.67))
    (stroke (width 0) (type default))
    (uuid 15849db9-220e-4afd-b7a0-07e5cbc925e5)
  )
  (wire (pts (xy 55.88 29.21) (xy 52.705 29.21))
    (stroke (width 0) (type default))
    (uuid 1641185a-e805-403b-b872-eb3450148cc8)
  )
  (wire (pts (xy 83.82 140.97) (xy 86.995 140.97))
    (stroke (width 0) (type default))
    (uuid 1807c891-5ccf-491b-b7cb-6605d0030f30)
  )
  (wire (pts (xy 83.82 168.91) (xy 86.995 168.91))
    (stroke (width 0) (type default))
    (uuid 180f785b-776f-4bd7-9484-793776580425)
  )
  (wire (pts (xy 86.995 41.91) (xy 86.995 49.53))
    (stroke (width 0) (type default))
    (uuid 1cdb9155-c146-40d9-bead-b709bf7a6467)
  )
  (wire (pts (xy 52.705 39.37) (xy 52.705 44.45))
    (stroke (width 0) (type default))
    (uuid 1d052412-811d-4384-b62d-b10970534fb5)
  )
  (wire (pts (xy 55.88 166.37) (xy 50.8 166.37))
    (stroke (width 0) (type default))
    (uuid 1dc423f3-1741-4cb4-aa3d-a702d125d769)
  )
  (wire (pts (xy 52.705 113.03) (xy 52.705 123.19))
    (stroke (width 0) (type default))
    (uuid 22e92cb2-fddd-4edc-a5bc-370417db5793)
  )
  (wire (pts (xy 55.88 85.09) (xy 36.195 85.09))
    (stroke (width 0) (type default))
    (uuid 27fc8656-6226-4381-8e8c-fcbb6b9cbbc0)
  )
  (wire (pts (xy 55.88 156.21) (xy 40.005 156.21))
    (stroke (width 0) (type default))
    (uuid 2aa21e55-25c6-4cf4-bd8a-94f164963f6d)
  )
  (wire (pts (xy 55.88 135.89) (xy 40.005 135.89))
    (stroke (width 0) (type default))
    (uuid 2adf9a42-71f2-422d-9815-628bfa0df6ad)
  )
  (wire (pts (xy 55.88 153.67) (xy 52.705 153.67))
    (stroke (width 0) (type default))
    (uuid 2b5ef57e-9829-4c8c-a772-0c450fa178e8)
  )
  (wire (pts (xy 55.88 140.97) (xy 40.005 140.97))
    (stroke (width 0) (type default))
    (uuid 2c6fedfa-d124-4a32-aaf9-1170178a9e41)
  )
  (wire (pts (xy 52.705 146.05) (xy 52.705 151.13))
    (stroke (width 0) (type default))
    (uuid 2ca7d35c-f03b-45eb-bc5e-72292d02981d)
  )
  (wire (pts (xy 55.88 148.59) (xy 40.005 148.59))
    (stroke (width 0) (type default))
    (uuid 2d54211d-88b2-466c-9078-d1f5c442f872)
  )
  (wire (pts (xy 86.995 156.21) (xy 86.995 168.91))
    (stroke (width 0) (type default))
    (uuid 2d9bce5f-b18b-47a2-9654-99086bc7c8ca)
  )
  (wire (pts (xy 99.695 153.67) (xy 83.82 153.67))
    (stroke (width 0) (type default))
    (uuid 2dd9a5be-3aa9-4cf6-850b-b3df04cedb00)
  )
  (wire (pts (xy 55.88 110.49) (xy 52.705 110.49))
    (stroke (width 0) (type default))
    (uuid 31f320f8-9fca-458c-80c9-a63045dda05e)
  )
  (wire (pts (xy 39.37 26.67) (xy 55.88 26.67))
    (stroke (width 0) (type default))
    (uuid 31fb150b-1634-44a3-bbf0-4f27407886b5)
  )
  (wire (pts (xy 86.995 102.87) (xy 86.995 107.95))
    (stroke (width 0) (type default))
    (uuid 32152384-5f30-4790-a5a7-40a77da6c53b)
  )
  (wire (pts (xy 52.705 57.15) (xy 52.705 59.69))
    (stroke (width 0) (type default))
    (uuid 331e4b06-587c-447e-bea7-ab3ccd3f7d67)
  )
  (wire (pts (xy 83.82 166.37) (xy 88.9 166.37))
    (stroke (width 0) (type default))
    (uuid 346289f5-7fed-42d0-915e-ef27086b0782)
  )
  (wire (pts (xy 55.88 143.51) (xy 52.705 143.51))
    (stroke (width 0) (type default))
    (uuid 3585a139-cfc6-4b57-99ce-0163d84caa4b)
  )
  (wire (pts (xy 55.88 72.39) (xy 40.005 72.39))
    (stroke (width 0) (type default))
    (uuid 35fc5917-85ed-430a-af29-e1aaa9fddb54)
  )
  (wire (pts (xy 86.995 62.23) (xy 86.995 69.85))
    (stroke (width 0) (type default))
    (uuid 37a423bc-f22b-4f78-8391-c64cc41bfdd6)
  )
  (wire (pts (xy 55.88 123.19) (xy 52.705 123.19))
    (stroke (width 0) (type default))
    (uuid 38de0c27-43f9-4d0c-b62d-48e6b8ab2200)
  )
  (wire (pts (xy 52.705 168.91) (xy 55.88 168.91))
    (stroke (width 0) (type default))
    (uuid 39527c7c-05aa-4994-8d55-39b3fd9e47ff)
  )
  (wire (pts (xy 55.88 57.15) (xy 52.705 57.15))
    (stroke (width 0) (type default))
    (uuid 3a07246e-3a61-43dd-8b09-0bdf03c3e6f3)
  )
  (wire (pts (xy 86.995 115.57) (xy 86.995 120.65))
    (stroke (width 0) (type default))
    (uuid 3a43f2ef-4839-435a-bede-c90252339a51)
  )
  (wire (pts (xy 99.695 77.47) (xy 83.82 77.47))
    (stroke (width 0) (type default))
    (uuid 3ae98a70-72b8-4d72-8f0c-ecef7b1ca6d6)
  )
  (wire (pts (xy 55.88 21.59) (xy 52.705 21.59))
    (stroke (width 0) (type default))
    (uuid 3e63fcaa-261d-4d3c-a5b9-9e80616e71a6)
  )
  (wire (pts (xy 83.82 41.91) (xy 86.995 41.91))
    (stroke (width 0) (type default))
    (uuid 3e93cc50-fa1e-445b-8e48-b92594ec9006)
  )
  (wire (pts (xy 99.695 67.31) (xy 83.82 67.31))
    (stroke (width 0) (type default))
    (uuid 3f787304-0f09-428f-9615-a178d53b5ed2)
  )
  (wire (pts (xy 86.995 90.17) (xy 52.705 90.17))
    (stroke (width 0) (type default))
    (uuid 465b9a35-7fb3-44cf-baad-d436034be791)
  )
  (wire (pts (xy 55.88 128.27) (xy 40.005 128.27))
    (stroke (width 0) (type default))
    (uuid 4660c6bf-e69d-4a4d-bdfe-d125b039e05b)
  )
  (wire (pts (xy 83.82 52.07) (xy 99.695 52.07))
    (stroke (width 0) (type default))
    (uuid 47d22e24-7c7f-4617-a22e-884660a7a8ff)
  )
  (wire (pts (xy 52.705 123.19) (xy 52.705 125.73))
    (stroke (width 0) (type default))
    (uuid 4ccb0e93-36f7-4d7b-baba-2457a90267b7)
  )
  (wire (pts (xy 99.695 64.77) (xy 83.82 64.77))
    (stroke (width 0) (type default))
    (uuid 4e9a87a3-418a-43a4-a902-c2e3103424a6)
  )
  (wire (pts (xy 55.88 31.75) (xy 52.705 31.75))
    (stroke (width 0) (type default))
    (uuid 50e82998-94a9-4b38-a960-5b276fe8586e)
  )
  (wire (pts (xy 55.88 62.23) (xy 40.005 62.23))
    (stroke (width 0) (type default))
    (uuid 51aef7ea-783f-44d5-8cab-9faf10da9064)
  )
  (wire (pts (xy 52.705 64.77) (xy 52.705 67.31))
    (stroke (width 0) (type default))
    (uuid 51c3e3cc-739b-4bac-a271-7f779051de39)
  )
  (wire (pts (xy 99.695 123.19) (xy 83.82 123.19))
    (stroke (width 0) (type default))
    (uuid 525775d5-0e6e-4c76-b5ab-199b2e54ac41)
  )
  (wire (pts (xy 86.995 54.61) (xy 86.995 62.23))
    (stroke (width 0) (type default))
    (uuid 5289bc61-7716-4d1c-91dd-03b886b4760f)
  )
  (wire (pts (xy 55.88 161.29) (xy 50.8 161.29))
    (stroke (width 0) (type default))
    (uuid 55baceed-f7d9-4d73-84e4-b06c780623b7)
  )
  (wire (pts (xy 83.82 54.61) (xy 86.995 54.61))
    (stroke (width 0) (type default))
    (uuid 57a35f7e-1eec-4bce-82d8-651d3f20ac22)
  )
  (wire (pts (xy 52.705 171.45) (xy 86.995 171.45))
    (stroke (width 0) (type default))
    (uuid 5985ca3b-83e7-485c-a804-db4e4c6c7fcd)
  )
  (wire (pts (xy 52.705 110.49) (xy 52.705 113.03))
    (stroke (width 0) (type default))
    (uuid 59e71b82-fd2c-4d50-9aac-2d0df67acc80)
  )
  (wire (pts (xy 52.705 67.31) (xy 52.705 77.47))
    (stroke (width 0) (type default))
    (uuid 5b3893c6-e4cc-4fa9-be23-63d62d12d2ee)
  )
  (wire (pts (xy 83.82 148.59) (xy 86.995 148.59))
    (stroke (width 0) (type default))
    (uuid 5cfef867-dff5-4abc-9cf1-6fa8f45eaef2)
  )
  (wire (pts (xy 55.88 125.73) (xy 52.705 125.73))
    (stroke (width 0) (type default))
    (uuid 5e182438-6e6f-45ba-bef5-6be708805673)
  )
  (wire (pts (xy 99.695 151.13) (xy 83.82 151.13))
    (stroke (width 0) (type default))
    (uuid 5f10ab2e-0baa-42eb-b877-7c3c9e704ef3)
  )
  (wire (pts (xy 83.82 72.39) (xy 99.695 72.39))
    (stroke (width 0) (type default))
    (uuid 6109efee-34d5-4820-b2f1-2e5974922f54)
  )
  (wire (pts (xy 83.82 62.23) (xy 86.995 62.23))
    (stroke (width 0) (type default))
    (uuid 620fd31f-1d7e-453a-874c-5731a4bbc505)
  )
  (wire (pts (xy 86.995 26.67) (xy 86.995 34.29))
    (stroke (width 0) (type default))
    (uuid 62681247-dfee-4fe9-a797-fef33eb74a7f)
  )
  (wire (pts (xy 52.705 77.47) (xy 52.705 80.01))
    (stroke (width 0) (type default))
    (uuid 659d7e05-6d30-4048-9451-144bfa6ef129)
  )
  (wire (pts (xy 83.82 29.21) (xy 91.44 29.21))
    (stroke (width 0) (type default))
    (uuid 6933eb41-d471-4ac8-9862-a876011c4773)
  )
  (wire (pts (xy 99.695 36.83) (xy 83.82 36.83))
    (stroke (width 0) (type default))
    (uuid 6a787b26-86fe-4c4f-b92f-6381c95ee933)
  )
  (wire (pts (xy 55.88 34.29) (xy 40.005 34.29))
    (stroke (width 0) (type default))
    (uuid 6b24a7a2-717b-4448-a40d-7886a2ed3d71)
  )
  (wire (pts (xy 83.82 135.89) (xy 86.995 135.89))
    (stroke (width 0) (type default))
    (uuid 6bcc4470-6fe4-4c8d-ba29-7eeb8005d7fa)
  )
  (wire (pts (xy 55.88 64.77) (xy 52.705 64.77))
    (stroke (width 0) (type default))
    (uuid 6f4bbdb8-5bb2-4c5f-b604-50c819181981)
  )
  (wire (pts (xy 55.88 107.95) (xy 52.705 107.95))
    (stroke (width 0) (type default))
    (uuid 6f9f8538-0b96-4eb3-a978-1c7439c0e8bf)
  )
  (wire (pts (xy 52.705 130.81) (xy 52.705 133.35))
    (stroke (width 0) (type default))
    (uuid 7131ee3d-de36-4b6f-a391-6695d97d81c2)
  )
  (wire (pts (xy 83.82 69.85) (xy 86.995 69.85))
    (stroke (width 0) (type default))
    (uuid 7279a0ce-75b5-4d17-adea-e5e9949407a6)
  )
  (wire (pts (xy 99.06 105.41) (xy 99.06 104.14))
    (stroke (width 0) (type default))
    (uuid 74b09255-300b-41bc-a348-4c1575c49b6b)
  )
  (wire (pts (xy 99.695 46.99) (xy 83.82 46.99))
    (stroke (width 0) (type default))
    (uuid 7594fd2b-c5d9-4333-9f70-e53128d27c5a)
  )
  (wire (pts (xy 55.88 36.83) (xy 52.705 36.83))
    (stroke (width 0) (type default))
    (uuid 774bd91e-6eb9-41ae-a7fd-20b88a031e1c)
  )
  (wire (pts (xy 83.82 82.55) (xy 86.995 82.55))
    (stroke (width 0) (type default))
    (uuid 77697486-3706-446b-b0dc-99c11e5b6fb4)
  )
  (wire (pts (xy 55.88 59.69) (xy 52.705 59.69))
    (stroke (width 0) (type default))
    (uuid 7aec2799-4000-4098-a752-1bed4b75fdcf)
  )
  (wire (pts (xy 55.88 49.53) (xy 40.005 49.53))
    (stroke (width 0) (type default))
    (uuid 7af1455e-5ab2-4286-8c74-1c6dee563208)
  )
  (wire (pts (xy 52.705 31.75) (xy 52.705 36.83))
    (stroke (width 0) (type default))
    (uuid 7de935c6-9119-4940-8080-9aaeda4f0cdd)
  )
  (wire (pts (xy 83.82 102.87) (xy 86.995 102.87))
    (stroke (width 0) (type default))
    (uuid 7e60f163-8805-4bc8-82a5-453da20ba1a2)
  )
  (wire (pts (xy 86.995 120.65) (xy 86.995 128.27))
    (stroke (width 0) (type default))
    (uuid 825fbe04-7d0f-48c0-b196-0082d6b05859)
  )
  (wire (pts (xy 83.82 49.53) (xy 86.995 49.53))
    (stroke (width 0) (type default))
    (uuid 85322b6b-1523-4ed9-b09b-510e91ab3a2d)
  )
  (wire (pts (xy 55.88 113.03) (xy 52.705 113.03))
    (stroke (width 0) (type default))
    (uuid 857af45d-9795-41a2-9845-b5953516cc70)
  )
  (wire (pts (xy 86.995 128.27) (xy 86.995 135.89))
    (stroke (width 0) (type default))
    (uuid 85ce4d4c-d093-4323-9a04-70d33e2d6c7e)
  )
  (wire (pts (xy 55.88 138.43) (xy 40.005 138.43))
    (stroke (width 0) (type default))
    (uuid 88071c39-7478-4d42-a0c9-ea227d61f16f)
  )
  (wire (pts (xy 55.88 163.83) (xy 50.8 163.83))
    (stroke (width 0) (type default))
    (uuid 888c6fdf-c198-440a-97af-035b863dc875)
  )
  (wire (pts (xy 52.705 102.87) (xy 55.88 102.87))
    (stroke (width 0) (type default))
    (uuid 8a68ab9f-49b9-4556-9773-ed86cd9bea27)
  )
  (wire (pts (xy 52.705 59.69) (xy 52.705 64.77))
    (stroke (width 0) (type default))
    (uuid 8d1c6119-4f8d-41bb-ac26-14b7b55b90f2)
  )
  (wire (pts (xy 83.82 128.27) (xy 86.995 128.27))
    (stroke (width 0) (type default))
    (uuid 8d2043d0-1e2a-47a8-b40c-1d3c6b8242cf)
  )
  (wire (pts (xy 52.705 143.51) (xy 52.705 146.05))
    (stroke (width 0) (type default))
    (uuid 8d6a069f-4023-40e5-b77a-c447eb7c2730)
  )
  (wire (pts (xy 83.82 31.75) (xy 91.44 31.75))
    (stroke (width 0) (type default))
    (uuid 8da81810-0dba-4c36-b58c-934ee2c0935b)
  )
  (wire (pts (xy 52.705 29.21) (xy 52.705 31.75))
    (stroke (width 0) (type default))
    (uuid 918a6a26-88ff-465a-a552-2e52adce8a03)
  )
  (wire (pts (xy 55.88 133.35) (xy 52.705 133.35))
    (stroke (width 0) (type default))
    (uuid 91d0ac33-7c52-4428-ba83-8720a383522c)
  )
  (wire (pts (xy 52.705 87.63) (xy 52.705 90.17))
    (stroke (width 0) (type default))
    (uuid 91d49aaf-5758-42d3-9e51-e9b2b8cd5c5c)
  )
  (wire (pts (xy 55.88 67.31) (xy 52.705 67.31))
    (stroke (width 0) (type default))
    (uuid 93b57547-14ef-426b-8dd7-720b4647ee08)
  )
  (wire (pts (xy 99.695 39.37) (xy 83.82 39.37))
    (stroke (width 0) (type default))
    (uuid 93ef09ab-58f4-40ee-8d2b-6370d66890c0)
  )
  (wire (pts (xy 55.88 74.93) (xy 40.005 74.93))
    (stroke (width 0) (type default))
    (uuid 97c58935-8898-41d5-af6f-2caecb03bd8b)
  )
  (wire (pts (xy 52.705 46.99) (xy 52.705 57.15))
    (stroke (width 0) (type default))
    (uuid 97e1f64a-ea8c-4ff4-8e5c-27686d0544c1)
  )
  (wire (pts (xy 36.83 15.24) (xy 39.37 15.24))
    (stroke (width 0) (type default))
    (uuid 98fdaaa4-ab6c-4567-b372-3bc94fd81e5f)
  )
  (wire (pts (xy 55.88 77.47) (xy 52.705 77.47))
    (stroke (width 0) (type default))
    (uuid 99f42b58-88eb-419e-9dff-f13059ef50e4)
  )
  (wire (pts (xy 55.88 146.05) (xy 52.705 146.05))
    (stroke (width 0) (type default))
    (uuid 9aa4051b-5d8e-420b-bd92-028862775303)
  )
  (wire (pts (xy 86.995 148.59) (xy 86.995 156.21))
    (stroke (width 0) (type default))
    (uuid 9d460f71-ca89-4f90-b952-20c79bec7158)
  )
  (wire (pts (xy 99.695 125.73) (xy 83.82 125.73))
    (stroke (width 0) (type default))
    (uuid 9dffc0da-762b-42b7-80b1-72a451bb294f)
  )
  (wire (pts (xy 83.82 115.57) (xy 86.995 115.57))
    (stroke (width 0) (type default))
    (uuid 9e72b1b6-3005-465f-b29c-9fb2358144c7)
  )
  (wire (pts (xy 52.705 125.73) (xy 52.705 130.81))
    (stroke (width 0) (type default))
    (uuid 9fa8af66-62ad-41ac-afee-78344131d7e2)
  )
  (wire (pts (xy 83.82 34.29) (xy 86.995 34.29))
    (stroke (width 0) (type default))
    (uuid a4d622ec-e75f-4ce0-9338-865fac55dc34)
  )
  (wire (pts (xy 33.655 26.67) (xy 39.37 26.67))
    (stroke (width 0) (type default))
    (uuid a86ebb7d-c08b-41a3-932e-4967a39ce5f9)
  )
  (wire (pts (xy 99.695 130.81) (xy 83.82 130.81))
    (stroke (width 0) (type default))
    (uuid a8e78b6b-5175-49a4-b7f2-c08b88186745)
  )
  (wire (pts (xy 86.995 168.91) (xy 86.995 171.45))
    (stroke (width 0) (type default))
    (uuid aa939002-c65a-4bc5-8b33-1d5bc4c91f9d)
  )
  (wire (pts (xy 83.82 120.65) (xy 86.995 120.65))
    (stroke (width 0) (type default))
    (uuid accfea22-0220-4bfc-bc57-88d0ba04c651)
  )
  (wire (pts (xy 55.88 39.37) (xy 52.705 39.37))
    (stroke (width 0) (type default))
    (uuid adcccd0e-f5ea-4c83-bd8f-8b220d307709)
  )
  (wire (pts (xy 99.695 133.35) (xy 83.82 133.35))
    (stroke (width 0) (type default))
    (uuid b0c1f62a-b351-48b8-ac88-59c1c4ffa2ff)
  )
  (wire (pts (xy 83.82 118.11) (xy 99.695 118.11))
    (stroke (width 0) (type default))
    (uuid b10dfd5a-5d78-45f7-bb38-39704568a3b6)
  )
  (wire (pts (xy 55.88 130.81) (xy 52.705 130.81))
    (stroke (width 0) (type default))
    (uuid b1dad93c-ba77-40bd-9b75-65e2d6f9b5a1)
  )
  (wire (pts (xy 99.695 143.51) (xy 83.82 143.51))
    (stroke (width 0) (type default))
    (uuid b7c70258-e563-4ab0-a10c-bab04504f68f)
  )
  (wire (pts (xy 52.705 107.95) (xy 52.705 110.49))
    (stroke (width 0) (type default))
    (uuid b908b981-26a7-43ab-bb19-96137e6f2a5a)
  )
  (wire (pts (xy 83.82 26.67) (xy 86.995 26.67))
    (stroke (width 0) (type default))
    (uuid beb82a37-d3f9-4faf-8a12-3d7cff00e7e0)
  )
  (wire (pts (xy 83.82 87.63) (xy 86.995 87.63))
    (stroke (width 0) (type default))
    (uuid bf562497-0a71-4eb8-8045-49f675de552e)
  )
  (wire (pts (xy 52.705 44.45) (xy 52.705 46.99))
    (stroke (width 0) (type default))
    (uuid c09f8970-d399-4978-b7bf-c426fa2f915a)
  )
  (wire (pts (xy 86.995 49.53) (xy 86.995 54.61))
    (stroke (width 0) (type default))
    (uuid c217d968-abfe-45cc-8ff9-0996be5bc8c7)
  )
  (wire (pts (xy 36.83 24.13) (xy 36.83 22.86))
    (stroke (width 0) (type default))
    (uuid c36e7618-99ac-4188-82ad-148b9401ee0f)
  )
  (wire (pts (xy 52.705 21.59) (xy 52.705 29.21))
    (stroke (width 0) (type default))
    (uuid c564e755-48d6-44b3-a4f6-ab960a5df536)
  )
  (wire (pts (xy 52.705 133.35) (xy 52.705 143.51))
    (stroke (width 0) (type default))
    (uuid c89b3dc0-3882-490a-b628-aad226ceaf7d)
  )
  (wire (pts (xy 55.88 87.63) (xy 52.705 87.63))
    (stroke (width 0) (type default))
    (uuid c9a96d3d-0de1-42f4-91c4-77ed8c428365)
  )
  (wire (pts (xy 52.705 153.67) (xy 52.705 168.91))
    (stroke (width 0) (type default))
    (uuid ca9b4264-1527-4eb9-9c4a-0f8f3219656b)
  )
  (wire (pts (xy 52.705 80.01) (xy 52.705 87.63))
    (stroke (width 0) (type default))
    (uuid cb65e3b7-af7c-4e91-bec7-ee202fea2815)
  )
  (wire (pts (xy 55.88 82.55) (xy 40.005 82.55))
    (stroke (width 0) (type default))
    (uuid cc4a02a5-f906-413a-8c0e-7a4399db78ee)
  )
  (wire (pts (xy 52.705 90.17) (xy 52.705 92.71))
    (stroke (width 0) (type default))
    (uuid cca964ad-d64e-4c84-a05a-4b48498db544)
  )
  (wire (pts (xy 83.82 107.95) (xy 86.995 107.95))
    (stroke (width 0) (type default))
    (uuid ce81dad1-984f-418b-94c3-c50892ce4eaf)
  )
  (wire (pts (xy 55.88 158.75) (xy 40.005 158.75))
    (stroke (width 0) (type default))
    (uuid cebe7807-269a-438d-9ce8-7474a1e8d4b1)
  )
  (wire (pts (xy 55.88 54.61) (xy 40.005 54.61))
    (stroke (width 0) (type default))
    (uuid cfc3b2fc-1257-4353-9902-85cb6291fba4)
  )
  (wire (pts (xy 86.995 74.93) (xy 86.995 82.55))
    (stroke (width 0) (type default))
    (uuid d253b606-c6d4-4ab5-bb6d-97f4b72f210a)
  )
  (wire (pts (xy 86.995 87.63) (xy 86.995 90.17))
    (stroke (width 0) (type default))
    (uuid d2711918-afcc-4a2b-9377-d1e27a7930b4)
  )
  (wire (pts (xy 99.695 59.69) (xy 83.82 59.69))
    (stroke (width 0) (type default))
    (uuid d2f6c7ec-fb14-4c80-b507-e05e76c13bdf)
  )
  (wire (pts (xy 55.88 46.99) (xy 52.705 46.99))
    (stroke (width 0) (type default))
    (uuid d4512ec7-3389-4b56-9e8b-bdbd8a828957)
  )
  (wire (pts (xy 55.88 118.11) (xy 40.005 118.11))
    (stroke (width 0) (type default))
    (uuid d4afa5e8-9757-447e-9a26-66d5df023d71)
  )
  (wire (pts (xy 99.695 80.01) (xy 83.82 80.01))
    (stroke (width 0) (type default))
    (uuid d51ba27b-8ed7-4eca-b0be-3ba1363dff58)
  )
  (wire (pts (xy 83.82 85.09) (xy 99.06 85.09))
    (stroke (width 0) (type default))
    (uuid d6707dd1-1c60-4d7e-8bf8-d81571e173bf)
  )
  (wire (pts (xy 55.88 41.91) (xy 40.005 41.91))
    (stroke (width 0) (type default))
    (uuid d6ba3164-fde5-407c-b20d-e6bb69620a1b)
  )
  (wire (pts (xy 55.88 52.07) (xy 40.005 52.07))
    (stroke (width 0) (type default))
    (uuid d7ca4669-23a4-4571-85ab-fbd03c4b29b9)
  )
  (wire (pts (xy 55.88 120.65) (xy 40.005 120.65))
    (stroke (width 0) (type default))
    (uuid dc121f4e-0673-4834-a909-ead2af2c069f)
  )
  (wire (pts (xy 55.88 115.57) (xy 40.005 115.57))
    (stroke (width 0) (type default))
    (uuid dc13dc22-84a0-4f1c-b185-bc18995f27cf)
  )
  (wire (pts (xy 55.88 80.01) (xy 52.705 80.01))
    (stroke (width 0) (type default))
    (uuid dc588c3d-5206-4af5-96df-dc33e470667e)
  )
  (wire (pts (xy 83.82 24.13) (xy 86.995 24.13))
    (stroke (width 0) (type default))
    (uuid dc6a9fd0-8a12-4e12-ba4e-7f59c3508f44)
  )
  (wire (pts (xy 83.82 138.43) (xy 99.695 138.43))
    (stroke (width 0) (type default))
    (uuid dca493a0-6eda-488f-a002-b8342b37cfb9)
  )
  (wire (pts (xy 83.82 105.41) (xy 99.06 105.41))
    (stroke (width 0) (type default))
    (uuid dd5d8675-d91a-46c9-a0f4-ca5bb7941f9f)
  )
  (wire (pts (xy 83.82 156.21) (xy 86.995 156.21))
    (stroke (width 0) (type default))
    (uuid dd7274bb-36be-4baa-903e-939c1f1b99f6)
  )
  (wire (pts (xy 36.83 24.13) (xy 55.88 24.13))
    (stroke (width 0) (type default))
    (uuid e2438ac6-18fb-4b36-bec6-4ea332ad0f99)
  )
  (wire (pts (xy 55.88 44.45) (xy 52.705 44.45))
    (stroke (width 0) (type default))
    (uuid e294d04e-3720-4cda-b63e-078484e0733c)
  )
  (wire (pts (xy 86.995 107.95) (xy 86.995 115.57))
    (stroke (width 0) (type default))
    (uuid e48d619a-e38f-4825-9d22-87e3b38d9c99)
  )
  (wire (pts (xy 52.705 171.45) (xy 52.705 168.91))
    (stroke (width 0) (type default))
    (uuid e8c88107-4c00-44bc-b07f-5c8bcb21af78)
  )
  (wire (pts (xy 99.695 113.03) (xy 83.82 113.03))
    (stroke (width 0) (type default))
    (uuid ea31f51c-3f0e-4e37-9fd4-9e1b1b7d7784)
  )
  (wire (pts (xy 86.995 82.55) (xy 86.995 87.63))
    (stroke (width 0) (type default))
    (uuid ec4fc551-9561-4ff0-a309-1fd93dc95354)
  )
  (wire (pts (xy 99.695 110.49) (xy 83.82 110.49))
    (stroke (width 0) (type default))
    (uuid ec620b77-8919-4285-a6c0-f21b0acac14b)
  )
  (wire (pts (xy 86.995 21.59) (xy 86.995 24.13))
    (stroke (width 0) (type default))
    (uuid ed456be0-07b8-43ac-86b3-64162a4bcc9a)
  )
  (wire (pts (xy 86.995 34.29) (xy 86.995 41.91))
    (stroke (width 0) (type default))
    (uuid ee823590-ecbd-4107-bb1f-1a309e1b21af)
  )
  (wire (pts (xy 83.82 158.75) (xy 99.695 158.75))
    (stroke (width 0) (type default))
    (uuid f263cfd5-7b24-4140-97ba-078a691115b5)
  )
  (wire (pts (xy 83.82 163.83) (xy 88.9 163.83))
    (stroke (width 0) (type default))
    (uuid f3300c0f-bc1d-4506-88a5-7b5425daafbe)
  )
  (wire (pts (xy 86.995 69.85) (xy 86.995 74.93))
    (stroke (width 0) (type default))
    (uuid f48726b8-0a84-4a45-918f-9908a36bbb39)
  )
  (wire (pts (xy 55.88 69.85) (xy 40.005 69.85))
    (stroke (width 0) (type default))
    (uuid f50237bb-f9c4-46da-b66f-024d10bb7b7e)
  )
  (wire (pts (xy 83.82 161.29) (xy 88.9 161.29))
    (stroke (width 0) (type default))
    (uuid f603df29-ba7f-4366-8b24-7592d4086934)
  )
  (wire (pts (xy 86.995 135.89) (xy 86.995 140.97))
    (stroke (width 0) (type default))
    (uuid f69e205d-71f1-4bed-8e46-d37fa1b7672f)
  )
  (wire (pts (xy 99.695 44.45) (xy 83.82 44.45))
    (stroke (width 0) (type default))
    (uuid fb07492c-d4ca-4a78-b92a-c3b14ed44b3f)
  )

  (label "Ch_out_P2" (at 99.695 64.77 180) (fields_autoplaced)
    (effects (font (size 1.27 1.27)) (justify right bottom))
    (uuid 066e1992-d763-4a9e-8986-82a289c6f7d3)
  )
  (label "OVF_out_2" (at 40.005 72.39 0) (fields_autoplaced)
    (effects (font (size 1.27 1.27)) (justify left bottom))
    (uuid 0fa241a2-e684-4224-bccf-feed816795b0)
  )
  (label "Ch_out_P1" (at 99.695 44.45 180) (fields_autoplaced)
    (effects (font (size 1.27 1.27)) (justify right bottom))
    (uuid 16fbbcc3-471d-4df7-bd39-383fab759fde)
  )
  (label "CalBusy_out_3" (at 99.695 118.11 180) (fields_autoplaced)
    (effects (font (size 1.27 1.27)) (justify right bottom))
    (uuid 218239a9-f46b-4a60-abfb-8e61afe4c024)
  )
  (label "SEUA_out_1" (at 40.005 49.53 0) (fields_autoplaced)
    (effects (font (size 1.27 1.27)) (justify left bottom))
    (uuid 23b2684a-2e45-4486-8777-c94a6d847baf)
  )
  (label "PllLock_out_3" (at 40.005 74.93 0) (fields_autoplaced)
    (effects (font (size 1.27 1.27)) (justify left bottom))
    (uuid 2415f537-fa6d-4c04-bd97-00b9f7ab939d)
  )
  (label "OVF_out_5" (at 40.005 158.75 0) (fields_autoplaced)
    (effects (font (size 1.27 1.27)) (justify left bottom))
    (uuid 27101d2b-1f80-4d40-be5b-78bdcb31c291)
  )
  (label "OVF_out_4" (at 40.005 138.43 0) (fields_autoplaced)
    (effects (font (size 1.27 1.27)) (justify left bottom))
    (uuid 2e7f3dd4-50ff-427a-80eb-8563e69a085c)
  )
  (label "Ch_out_N4" (at 99.695 133.35 180) (fields_autoplaced)
    (effects (font (size 1.27 1.27)) (justify right bottom))
    (uuid 2f389684-fc2a-46a1-b11d-5ff1e4efe356)
  )
  (label "SEUD_out_3" (at 40.005 82.55 0) (fields_autoplaced)
    (effects (font (size 1.27 1.27)) (justify left bottom))
    (uuid 3097fea7-46a7-47a9-9cae-e148c8b5c995)
  )
  (label "SEUA_out_2" (at 40.005 69.85 0) (fields_autoplaced)
    (effects (font (size 1.27 1.27)) (justify left bottom))
    (uuid 32a2f93b-16df-4770-bc80-527fdb2ae15f)
  )
  (label "Ch_out_N1" (at 99.695 46.99 180) (fields_autoplaced)
    (effects (font (size 1.27 1.27)) (justify right bottom))
    (uuid 4f5c185a-e11b-4d82-a8bc-b9689c9c633b)
  )
  (label "Ch_out_N3" (at 99.695 113.03 180) (fields_autoplaced)
    (effects (font (size 1.27 1.27)) (justify right bottom))
    (uuid 56ff2288-13d4-4098-a5c7-84a24b2613d1)
  )
  (label "Ch_out_P4" (at 99.695 130.81 180) (fields_autoplaced)
    (effects (font (size 1.27 1.27)) (justify right bottom))
    (uuid 582bf52d-f931-4c83-b941-f1087e1fcfee)
  )
  (label "SEUD_out_1" (at 40.005 41.91 0) (fields_autoplaced)
    (effects (font (size 1.27 1.27)) (justify left bottom))
    (uuid 58d7fa4b-9912-4b07-bc12-5c063b15dc64)
  )
  (label "CLK_in_P3" (at 99.695 77.47 180) (fields_autoplaced)
    (effects (font (size 1.27 1.27)) (justify right bottom))
    (uuid 5b77bfad-fdd5-4e7d-86ed-ad21fd1ee4e0)
  )
  (label "CLK_in_N2" (at 99.695 59.69 180) (fields_autoplaced)
    (effects (font (size 1.27 1.27)) (justify right bottom))
    (uuid 5d82a0b1-5c8e-42d0-8222-7c4b7e42e518)
  )
  (label "PllLock_out_4" (at 40.005 120.65 0) (fields_autoplaced)
    (effects (font (size 1.27 1.27)) (justify left bottom))
    (uuid 5e40bd00-596e-4595-8afb-832031e7cd39)
  )
  (label "Ch_out_P5" (at 99.695 151.13 180) (fields_autoplaced)
    (effects (font (size 1.27 1.27)) (justify right bottom))
    (uuid 66cddf54-c141-4b9d-b300-069491227c2d)
  )
  (label "SEUA_out_4" (at 40.005 135.89 0) (fields_autoplaced)
    (effects (font (size 1.27 1.27)) (justify left bottom))
    (uuid 6e4bbe2c-1e2d-4539-b6d8-5d5edc57b4de)
  )
  (label "SEUA_out_5" (at 40.005 156.21 0) (fields_autoplaced)
    (effects (font (size 1.27 1.27)) (justify left bottom))
    (uuid 6fe48f1e-4227-4f41-a8f4-0e7ec51a11e0)
  )
  (label "CLK_in_P5" (at 99.695 143.51 180) (fields_autoplaced)
    (effects (font (size 1.27 1.27)) (justify right bottom))
    (uuid 70852beb-7102-4701-922b-9248dc6321b9)
  )
  (label "Ch_out_N2" (at 99.695 67.31 180) (fields_autoplaced)
    (effects (font (size 1.27 1.27)) (justify right bottom))
    (uuid 73cb09ad-e380-49f3-bc9d-038b1104bc93)
  )
  (label "SEUD_out_2" (at 40.005 62.23 0) (fields_autoplaced)
    (effects (font (size 1.27 1.27)) (justify left bottom))
    (uuid 748d63ca-ef14-4e90-85ec-56619f2bea16)
  )
  (label "Ch_out_N5" (at 99.695 153.67 180) (fields_autoplaced)
    (effects (font (size 1.27 1.27)) (justify right bottom))
    (uuid 759bd0f6-2646-44e7-94e8-5efbb41acb61)
  )
  (label "OVF_out_3" (at 40.005 118.11 0) (fields_autoplaced)
    (effects (font (size 1.27 1.27)) (justify left bottom))
    (uuid 775b50f1-c021-45e5-b4f4-3da4bfa305be)
  )
  (label "Ch_out_P3" (at 99.695 110.49 180) (fields_autoplaced)
    (effects (font (size 1.27 1.27)) (justify right bottom))
    (uuid 7af171ef-c1a8-4817-ac3c-eb72938c314e)
  )
  (label "CalBusy_out_2" (at 99.695 72.39 180) (fields_autoplaced)
    (effects (font (size 1.27 1.27)) (justify right bottom))
    (uuid 7dc50517-93ab-4193-ac41-8278ba10e249)
  )
  (label "CLK_in_P1" (at 99.695 36.83 180) (fields_autoplaced)
    (effects (font (size 1.27 1.27)) (justify right bottom))
    (uuid 7f093f1d-323b-4b4e-b33a-3f6815b22768)
  )
  (label "OVF_out_1" (at 40.005 52.07 0) (fields_autoplaced)
    (effects (font (size 1.27 1.27)) (justify left bottom))
    (uuid 836c1b72-6495-4f81-a125-58f0f7d787c2)
  )
  (label "SEUA_out_3" (at 40.005 115.57 0) (fields_autoplaced)
    (effects (font (size 1.27 1.27)) (justify left bottom))
    (uuid 8bb2ea49-8b54-4a72-9f61-f9dccb873903)
  )
  (label "CalBusy_out_1" (at 99.695 52.07 180) (fields_autoplaced)
    (effects (font (size 1.27 1.27)) (justify right bottom))
    (uuid 98e246fc-6637-419f-a1a8-e2b22f10addf)
  )
  (label "PllLock_out_5" (at 40.005 140.97 0) (fields_autoplaced)
    (effects (font (size 1.27 1.27)) (justify left bottom))
    (uuid 9b5bbbea-ca45-4da3-962b-10accf46ad7c)
  )
  (label "PllLock_out_1" (at 40.005 34.29 0) (fields_autoplaced)
    (effects (font (size 1.27 1.27)) (justify left bottom))
    (uuid b75ad8c5-9f55-49ef-9af8-7ab1b11ab9d4)
  )
  (label "CLK_in_P2" (at 99.695 57.15 180) (fields_autoplaced)
    (effects (font (size 1.27 1.27)) (justify right bottom))
    (uuid bad86c5b-550c-459d-ae24-5ea963bd342c)
  )
  (label "CalBusy_out_5" (at 99.695 158.75 180) (fields_autoplaced)
    (effects (font (size 1.27 1.27)) (justify right bottom))
    (uuid bf14984d-f9cd-45a2-a01c-a06d3ed0e284)
  )
  (label "CLK_in_P4" (at 99.695 123.19 180) (fields_autoplaced)
    (effects (font (size 1.27 1.27)) (justify right bottom))
    (uuid c8b3bfbd-79b7-4863-9ae7-79b3f077a5ad)
  )
  (label "CLK_in_N3" (at 99.695 80.01 180) (fields_autoplaced)
    (effects (font (size 1.27 1.27)) (justify right bottom))
    (uuid d4bb1d66-04fd-4536-a2d7-b63f444dbb57)
  )
  (label "PllLock_out_2" (at 40.005 54.61 0) (fields_autoplaced)
    (effects (font (size 1.27 1.27)) (justify left bottom))
    (uuid e701a39e-8bd3-440b-8d4a-26c336209834)
  )
  (label "CLK_in_N4" (at 99.695 125.73 180) (fields_autoplaced)
    (effects (font (size 1.27 1.27)) (justify right bottom))
    (uuid eb15020f-39fa-457e-8bb2-2cd2948845ca)
  )
  (label "CLK_in_N5" (at 99.695 146.05 180) (fields_autoplaced)
    (effects (font (size 1.27 1.27)) (justify right bottom))
    (uuid f7aa75c5-0bfb-4814-b8eb-5f8a9a128aa9)
  )
  (label "CLK_in_N1" (at 99.695 39.37 180) (fields_autoplaced)
    (effects (font (size 1.27 1.27)) (justify right bottom))
    (uuid f930fa91-6adf-4e04-b42b-e0932fc06543)
  )
  (label "SEUD_out_4" (at 40.005 128.27 0) (fields_autoplaced)
    (effects (font (size 1.27 1.27)) (justify left bottom))
    (uuid fa5d9c89-54e0-49e6-a404-29eddf2326d4)
  )
  (label "CalBusy_out_4" (at 99.695 138.43 180) (fields_autoplaced)
    (effects (font (size 1.27 1.27)) (justify right bottom))
    (uuid fb9b0b15-c800-4199-a9df-1e999ba6a70c)
  )
  (label "SEUD_out_5" (at 40.005 148.59 0) (fields_autoplaced)
    (effects (font (size 1.27 1.27)) (justify left bottom))
    (uuid fd087f5c-4502-4ee7-8af3-5178468c0f00)
  )

  (hierarchical_label "OVF_out_[1..5]" (shape input) (at 238.76 80.01 0) (fields_autoplaced)
    (effects (font (size 1.27 1.27)) (justify left))
    (uuid 05b39569-aaa4-4273-9b2f-9e1c6ca4bf60)
  )
  (hierarchical_label "PllLock_out_[1..5]" (shape input) (at 238.76 82.55 0) (fields_autoplaced)
    (effects (font (size 1.27 1.27)) (justify left))
    (uuid 07e7e87d-9255-44b7-964c-2876bb9fc44d)
  )
  (hierarchical_label "Ch_out_N[1..5]" (shape input) (at 238.76 70.485 0) (fields_autoplaced)
    (effects (font (size 1.27 1.27)) (justify left))
    (uuid 0f262423-d4d1-4f04-805d-93d3f5b41978)
  )
  (hierarchical_label "SEUD_out_[1..5]" (shape input) (at 238.76 87.63 0) (fields_autoplaced)
    (effects (font (size 1.27 1.27)) (justify left))
    (uuid 24b42847-745f-4b13-9d2d-3ca8b56bc9de)
  )
  (hierarchical_label "TP_trigger_in" (shape output) (at 50.8 163.83 180) (fields_autoplaced)
    (effects (font (size 1.27 1.27)) (justify right))
    (uuid 2fb7c72d-0d63-4df2-879e-15ff023fd1c7)
  )
  (hierarchical_label "Temp_APD_out" (shape input) (at 88.9 163.83 0) (fields_autoplaced)
    (effects (font (size 1.27 1.27)) (justify left))
    (uuid 379db743-d2de-4c85-9575-f43ed26c5e74)
  )
  (hierarchical_label "CalibMode_in" (shape output) (at 50.8 166.37 180) (fields_autoplaced)
    (effects (font (size 1.27 1.27)) (justify right))
    (uuid 65fd9534-1b91-42a6-8ecd-7a42d8ae4ade)
  )
  (hierarchical_label "I2C_data_in" (shape bidirectional) (at 33.655 26.67 180) (fields_autoplaced)
    (effects (font (size 1.27 1.27)) (justify right))
    (uuid 665ff082-de8d-4434-bdea-5354e7d0b15e)
  )
  (hierarchical_label "CalBusy_out_[1..5]" (shape input) (at 238.76 77.47 0) (fields_autoplaced)
    (effects (font (size 1.27 1.27)) (justify left))
    (uuid 67cd1818-ab6d-4ba5-a3d8-70afbf35fabc)
  )
  (hierarchical_label "ReSync_in+" (shape output) (at 91.44 29.21 0) (fields_autoplaced)
    (effects (font (size 1.27 1.27)) (justify left))
    (uuid 6d259b3b-196b-4e6b-acdf-fc3e09319776)
  )
  (hierarchical_label "ReSync_in-" (shape output) (at 91.44 31.75 0) (fields_autoplaced)
    (effects (font (size 1.27 1.27)) (justify left))
    (uuid 7048b6de-9faa-47a1-99c5-b74e17a09a6e)
  )
  (hierarchical_label "Temp_CATIA_out" (shape input) (at 88.9 166.37 0) (fields_autoplaced)
    (effects (font (size 1.27 1.27)) (justify left))
    (uuid 84f23cc9-9d15-4bf2-9356-88729f7800a5)
  )
  (hierarchical_label "Pwup_rstb_in" (shape output) (at 88.9 161.29 0) (fields_autoplaced)
    (effects (font (size 1.27 1.27)) (justify left))
    (uuid 98155800-78e7-48e2-b416-a5948d22b132)
  )
  (hierarchical_label "I2C_clk_in" (shape output) (at 33.655 24.13 180) (fields_autoplaced)
    (effects (font (size 1.27 1.27)) (justify right))
    (uuid aa4294ff-e846-499a-a8cf-1632eb69d9c0)
  )
  (hierarchical_label "Ch_out_P[1..5]" (shape input) (at 238.76 68.58 0) (fields_autoplaced)
    (effects (font (size 1.27 1.27)) (justify left))
    (uuid d44cf594-638f-424d-936a-6e9ed7c314ce)
  )
  (hierarchical_label "CLK_in_P[1..5]" (shape output) (at 238.76 73.025 0) (fields_autoplaced)
    (effects (font (size 1.27 1.27)) (justify left))
    (uuid e67cf9e7-1746-4856-8edd-555e3682799f)
  )
  (hierarchical_label "SEUA_out_[1..5]" (shape input) (at 238.76 85.09 0) (fields_autoplaced)
    (effects (font (size 1.27 1.27)) (justify left))
    (uuid e7e186e0-cb0c-4704-816f-05a9b3696b56)
  )
  (hierarchical_label "TestMode_in" (shape output) (at 50.8 161.29 180) (fields_autoplaced)
    (effects (font (size 1.27 1.27)) (justify right))
    (uuid ebb76e06-409d-47e2-b43c-bf014de25a3d)
  )
  (hierarchical_label "CLK_in_N[1..5]" (shape output) (at 238.76 74.93 0) (fields_autoplaced)
    (effects (font (size 1.27 1.27)) (justify left))
    (uuid ff3e9ca9-6dc0-4496-aebe-20f4a6d61445)
  )

  (symbol (lib_id "power:GND") (at 52.705 92.71 0) (mirror y) (unit 1)
    (in_bom yes) (on_board yes) (dnp no)
    (uuid 00000000-0000-0000-0000-00005c0fae01)
    (property "Reference" "#PWR0904" (at 52.705 99.06 0)
      (effects (font (size 1.27 1.27)) hide)
    )
    (property "Value" "GND" (at 52.705 96.52 0)
      (effects (font (size 1.27 1.27)))
    )
    (property "Footprint" "" (at 52.705 92.71 0)
      (effects (font (size 1.27 1.27)) hide)
    )
    (property "Datasheet" "" (at 52.705 92.71 0)
      (effects (font (size 1.27 1.27)) hide)
    )
    (pin "1" (uuid da589524-0ddc-4ebd-95bc-489fe6799163))
    (instances
      (project "FEAD"
        (path "/083becc8-e25d-4206-9636-55457650bbe3/00000000-0000-0000-0000-000057068f5f"
          (reference "#PWR0904") (unit 1)
        )
      )
    )
  )

  (symbol (lib_id "Device:R") (at 39.37 19.05 0) (mirror y) (unit 1)
    (in_bom yes) (on_board yes) (dnp no)
    (uuid 00000000-0000-0000-0000-00005c0fae0f)
    (property "Reference" "R902" (at 41.91 19.05 90)
      (effects (font (size 1.27 1.27)))
    )
    (property "Value" "DNP" (at 39.37 19.05 90)
      (effects (font (size 1.27 1.27)))
    )
    (property "Footprint" "Resistor_SMD:R_0402_1005Metric" (at 39.37 19.05 0)
      (effects (font (size 1.27 1.27)) hide)
    )
    (property "Datasheet" "" (at 39.37 19.05 0)
      (effects (font (size 1.27 1.27)))
    )
    (pin "1" (uuid 19954a82-e8da-4a7c-a1c4-d76c7abf286c))
    (pin "2" (uuid b535ebd0-a5f0-4816-9874-b0f294be53f5))
    (instances
      (project "FEAD"
        (path "/083becc8-e25d-4206-9636-55457650bbe3/00000000-0000-0000-0000-000057068f5f"
          (reference "R902") (unit 1)
        )
      )
    )
  )

  (symbol (lib_id "Device:R") (at 36.83 19.05 0) (unit 1)
    (in_bom yes) (on_board yes) (dnp no)
    (uuid 00000000-0000-0000-0000-00005c0fae16)
    (property "Reference" "R901" (at 34.29 19.05 90)
      (effects (font (size 1.27 1.27)))
    )
    (property "Value" "DNP" (at 36.83 19.05 90)
      (effects (font (size 1.27 1.27)))
    )
    (property "Footprint" "Resistor_SMD:R_0402_1005Metric" (at 36.83 19.05 0)
      (effects (font (size 1.27 1.27)) hide)
    )
    (property "Datasheet" "" (at 36.83 19.05 0)
      (effects (font (size 1.27 1.27)))
    )
    (pin "1" (uuid 27d10e4c-1df0-4dfd-9542-776072b1de9c))
    (pin "2" (uuid 9ff65318-fa9b-4e86-8d9b-d3dfc58ecdfb))
    (instances
      (project "FEAD"
        (path "/083becc8-e25d-4206-9636-55457650bbe3/00000000-0000-0000-0000-000057068f5f"
          (reference "R901") (unit 1)
        )
      )
    )
  )

  (symbol (lib_id "MDJ_compo:ERNI-154765") (at 69.85 54.61 0) (mirror y) (unit 1)
    (in_bom yes) (on_board yes) (dnp no)
    (uuid 00000000-0000-0000-0000-00005c13db87)
    (property "Reference" "J901" (at 69.85 91.44 0)
      (effects (font (size 1.524 1.524)))
    )
    (property "Value" "ERNI-154765" (at 69.85 54.61 90)
      (effects (font (size 1.524 1.524)))
    )
    (property "Footprint" "MDJ_mod:ERNI-154765" (at 69.85 94.615 0)
      (effects (font (size 1.524 1.524)))
    )
    (property "Datasheet" "" (at 72.39 54.61 0)
      (effects (font (size 1.524 1.524)))
    )
    (pin "1" (uuid f19924fb-4b8c-4391-bdd5-2f680c141000))
    (pin "10A" (uuid b3f80e19-6b80-4cdf-a84a-3dd0214223a3))
    (pin "10B" (uuid 27221c76-18fb-4284-a06e-629d61d7fc29))
    (pin "11A" (uuid f921b4a8-3d66-4012-86a4-64b811ee458c))
    (pin "11B" (uuid 3a650da1-78d5-497e-bb17-0ce57ad9d220))
    (pin "12A" (uuid 5f36d812-56ca-423f-a8e6-ba03ff7d2f7d))
    (pin "12B" (uuid 2d821658-3c26-4665-a22c-d692be4a1a47))
    (pin "13A" (uuid 88edfcb3-27f6-463d-bcce-68aadf14e6c5))
    (pin "13B" (uuid 67635ffe-ef27-4df9-8ebb-c47b1358b79b))
    (pin "14A" (uuid 32632833-6d18-419a-baf5-56a271b92c3a))
    (pin "14B" (uuid b8da587b-bb1d-45a9-a29f-0728de481dc5))
    (pin "15A" (uuid 82ad8321-b020-470b-b9d2-192c1fa69192))
    (pin "15B" (uuid b8d3e35c-ea4c-43e3-bab5-99a682e04663))
    (pin "16A" (uuid f3562662-a1bc-467a-9eda-471891f184de))
    (pin "16B" (uuid 1cf43177-00ba-4d2f-af09-7f093a0d589c))
    (pin "17A" (uuid b1f8e207-b81c-4076-994c-72573dc13b27))
    (pin "17B" (uuid 2ee2765f-948b-4c70-b617-4c8fddc1a28e))
    (pin "18A" (uuid 7826d184-7cd4-4fcb-9558-415a72ae3316))
    (pin "18B" (uuid e2877b25-f156-4b55-a5cb-4567aa2d3db7))
    (pin "19A" (uuid fbc76b4a-cbd0-43f8-81e5-5b831341de7d))
    (pin "19B" (uuid 052dee97-276a-4dca-914f-c3da84609672))
    (pin "1A" (uuid 645112f8-7c6a-413e-b56c-1a570c6751bb))
    (pin "1B" (uuid c06f5720-ff1b-4c2f-a301-0734e572a3ee))
    (pin "2" (uuid 7b38995c-2cf1-4790-9813-32dbe6381c9d))
    (pin "20A" (uuid af6c892c-4ac0-4b62-9981-b6a1db968df7))
    (pin "20B" (uuid 9a74a2e7-3f45-458d-8d75-46c5e8f57525))
    (pin "21A" (uuid 85d0ef65-4ceb-49b9-8cb6-cb86012f9497))
    (pin "21B" (uuid 1af6eaa7-d132-4f96-b0e0-b0c94de66fa7))
    (pin "22A" (uuid 76c4bae1-939a-410f-9c6e-2f0f3fd57955))
    (pin "22B" (uuid 043ec2c1-8433-4089-adc7-8e29cfdf5edc))
    (pin "23A" (uuid d7e14f87-889d-4cc4-a810-86aef18e0af8))
    (pin "23B" (uuid eb65be1f-bca3-4e49-bea7-5aadbca31efa))
    (pin "24A" (uuid 5a902ca7-078a-49fe-a2f0-94b54d8a46a7))
    (pin "24B" (uuid c3efec42-d126-46aa-a77d-8a34b2a75670))
    (pin "25A" (uuid 511f3acd-5566-4764-a0a4-23f8104a19b2))
    (pin "25B" (uuid d3181ef3-a63e-4460-b846-82e3b93b4c35))
    (pin "2A" (uuid 0223648c-69af-4033-a284-7651f9ce2ef4))
    (pin "2B" (uuid 07ae3594-689a-497d-a4af-68fd4721c856))
    (pin "3" (uuid 33599949-f4f8-434b-a436-abbc460a0112))
    (pin "3A" (uuid 3da15c78-9cb9-45a5-bfc7-3f6e3716092a))
    (pin "3B" (uuid 968145ad-4be5-4b41-a677-c805464e1e79))
    (pin "4" (uuid 92e5a936-50a7-42c2-a37e-59f82b17b67f))
    (pin "4A" (uuid b5ba6b70-753f-4d24-a4fa-8901df220f6d))
    (pin "4B" (uuid e806c245-46f3-41af-a705-4bc09a53925d))
    (pin "5A" (uuid ca058c59-4dd4-46da-bb67-49f0719e5ad7))
    (pin "5B" (uuid e3bb5b0e-01a6-4e80-bd79-308d1a1b9a88))
    (pin "6A" (uuid 9788a667-633a-43fd-9244-c9b1f257e3d8))
    (pin "6B" (uuid 1e34d2a0-249d-433c-974f-3a619acedbf4))
    (pin "7A" (uuid 8529ad27-a755-4c72-a97c-9956a64bac23))
    (pin "7B" (uuid 8f7a1498-3a8f-4f26-92f7-066e30c689cf))
    (pin "8A" (uuid c66dec91-3071-4477-a04a-9a7543127cc6))
    (pin "8B" (uuid 4e4516c4-6cc2-4697-b4c6-aebc0d135d0b))
    (pin "9A" (uuid f315ea89-620d-410e-9436-82fb8bb68344))
    (pin "9B" (uuid d241186e-2a0a-4308-b90c-19318561c5c1))
    (instances
      (project "FEAD"
        (path "/083becc8-e25d-4206-9636-55457650bbe3/00000000-0000-0000-0000-000057068f5f"
          (reference "J901") (unit 1)
        )
      )
    )
  )

  (symbol (lib_id "MDJ_compo:ERNI-154765") (at 69.85 135.89 0) (mirror y) (unit 1)
    (in_bom yes) (on_board yes) (dnp no)
    (uuid 00000000-0000-0000-0000-00005c1e0bd8)
    (property "Reference" "J902" (at 69.85 172.72 0)
      (effects (font (size 1.524 1.524)))
    )
    (property "Value" "ERNI-154765" (at 69.85 135.89 90)
      (effects (font (size 1.524 1.524)))
    )
    (property "Footprint" "MDJ_mod:ERNI-154765" (at 69.85 175.895 0)
      (effects (font (size 1.524 1.524)))
    )
    (property "Datasheet" "" (at 72.39 135.89 0)
      (effects (font (size 1.524 1.524)))
    )
    (pin "1" (uuid 778809f1-2e6f-4358-a999-337072bc3ba1))
    (pin "10A" (uuid dc8da1c1-2600-43d6-afac-35d031ed707b))
    (pin "10B" (uuid a543ff12-785b-4bf0-9ee5-c754a7653d8a))
    (pin "11A" (uuid 4d44adde-5676-40f2-b9b7-f97586ceb39e))
    (pin "11B" (uuid c31daf95-927b-4552-823f-5ea1d859c94b))
    (pin "12A" (uuid a47635a4-ad76-4e04-8f55-e28e50ff4e4f))
    (pin "12B" (uuid 98c3ce32-fc8e-4528-8fd0-64583dc43644))
    (pin "13A" (uuid 61d004ae-a77d-4c74-ae01-6140bfea20c3))
    (pin "13B" (uuid ca20bcbe-ec65-4438-b962-c44102a8802d))
    (pin "14A" (uuid 34e63271-e907-4e69-8256-f6956ee3489a))
    (pin "14B" (uuid c81e4fd9-5ce8-4b7f-925d-1ff6b6103a9b))
    (pin "15A" (uuid efaa2811-44aa-4e36-a9a3-e328ebb9cfd9))
    (pin "15B" (uuid 9ed920cd-1f0d-407e-a5ce-8a9662719310))
    (pin "16A" (uuid 92f199b0-0165-4734-8227-cbf1bc55ea92))
    (pin "16B" (uuid 9eddc447-fa03-49b2-8363-0a5da65b95a9))
    (pin "17A" (uuid 6b2718c9-9f99-4c42-acf7-1c1e0ddb2ecf))
    (pin "17B" (uuid bea4e60b-9f8b-476f-98dd-d382fb38659e))
    (pin "18A" (uuid 7c605630-b086-4c57-8119-1fbfb3a23a23))
    (pin "18B" (uuid a5ad196f-2139-4b82-83d3-d368e64ab69a))
    (pin "19A" (uuid d8c81834-35d4-42b6-bb2d-1028f3e275ff))
    (pin "19B" (uuid 0ed11af5-0934-43bf-b32a-17d5b78ef9bf))
    (pin "1A" (uuid fd50d26f-2051-4bb2-bcfb-c8c8f91e64e6))
    (pin "1B" (uuid e86952a5-c9e7-4e95-b667-3d1338c579e6))
    (pin "2" (uuid 9aead6e8-cca3-443a-8f84-afc69f95535f))
    (pin "20A" (uuid e712e5ad-ef6c-406e-ad24-a7827c0c69d5))
    (pin "20B" (uuid ab41595c-29e1-4d26-81da-5d0eac9f9fd7))
    (pin "21A" (uuid 5786b6e2-4692-4b97-ad73-677abb0491c6))
    (pin "21B" (uuid fb023421-c88a-46da-8b9d-a592fb56714f))
    (pin "22A" (uuid 4e975022-511a-4407-8dc1-5c9bf677ac07))
    (pin "22B" (uuid bdfde0a9-030c-4934-bbda-047d7323e1c0))
    (pin "23A" (uuid c38b475b-2942-4f73-8d8d-050641aed435))
    (pin "23B" (uuid ff06987e-21cb-419a-ab53-cb5e14b98f8c))
    (pin "24A" (uuid 2f930889-a0d7-4e04-9591-e2e7ae579096))
    (pin "24B" (uuid e317a8c8-e884-4569-8352-3ed19b3c0dc8))
    (pin "25A" (uuid 95ffd8f8-e83b-4f14-ab45-f0793b62da14))
    (pin "25B" (uuid a544b2dc-a612-428a-865e-48e5f6e29c73))
    (pin "2A" (uuid e5813018-bbee-4ec5-a627-14bacdb72678))
    (pin "2B" (uuid a988d232-8531-49ea-aae3-66b8dc43b861))
    (pin "3" (uuid 94fa96c2-a5ed-40ef-8740-f36ca3d71462))
    (pin "3A" (uuid 2d7940bb-860b-4f92-9fed-ccfd440e2c95))
    (pin "3B" (uuid 44a9ebd3-2b14-4b52-9219-5462d7610096))
    (pin "4" (uuid e0e2e8b9-8f81-4609-ace8-6c1a4406ee5e))
    (pin "4A" (uuid 373a42eb-a5ab-4f7d-993a-7d344f7bde79))
    (pin "4B" (uuid 36d4ea6b-d7b4-4ce6-a52a-9bdcf5065bca))
    (pin "5A" (uuid 26c0d7e4-1377-4eb9-9347-d23aa0de3ee4))
    (pin "5B" (uuid 54672289-73a6-453d-855e-41d21d6bc784))
    (pin "6A" (uuid 233a79b7-200b-42aa-8019-7c3abef56cf6))
    (pin "6B" (uuid 80959734-9991-4ee5-b4cf-27a718905a50))
    (pin "7A" (uuid e70ea087-f60d-4475-b6b3-a060e593fae9))
    (pin "7B" (uuid 5bfbdd92-9314-418d-a2c0-ee47db39c98e))
    (pin "8A" (uuid bc39fee1-9268-490f-8468-df595c012436))
    (pin "8B" (uuid 8f84cc37-5858-45cb-9b70-939cbb4c547e))
    (pin "9A" (uuid eeb625e1-a8b6-4847-8dff-d3e0e647e7c1))
    (pin "9B" (uuid ce28b16f-aff2-410d-8706-f96983351bd9))
    (instances
      (project "FEAD"
        (path "/083becc8-e25d-4206-9636-55457650bbe3/00000000-0000-0000-0000-000057068f5f"
          (reference "J902") (unit 1)
        )
      )
    )
  )

  (symbol (lib_id "MDJ_compo:FE_VD") (at 36.83 15.24 0) (mirror y) (unit 1)
    (in_bom yes) (on_board yes) (dnp no)
    (uuid 00000000-0000-0000-0000-00005d390b1f)
    (property "Reference" "#PWR0902" (at 36.83 19.05 0)
      (effects (font (size 1.27 1.27)) hide)
    )
    (property "Value" "FE_VD" (at 40.64 13.335 0)
      (effects (font (size 1.27 1.27)))
    )
    (property "Footprint" "" (at 36.83 15.24 0)
      (effects (font (size 1.27 1.27)))
    )
    (property "Datasheet" "" (at 36.83 15.24 0)
      (effects (font (size 1.27 1.27)))
    )
    (pin "1" (uuid dbfa5e91-6ba0-4672-b777-4c3bbb9da3b0))
    (instances
      (project "FEAD"
        (path "/083becc8-e25d-4206-9636-55457650bbe3/00000000-0000-0000-0000-000057068f5f"
          (reference "#PWR0902") (unit 1)
        )
      )
    )
  )

  (symbol (lib_id "MDJ_compo:FE_VD") (at 99.06 85.09 0) (mirror y) (unit 1)
    (in_bom yes) (on_board yes) (dnp no)
    (uuid 00000000-0000-0000-0000-00005d390ba8)
    (property "Reference" "#PWR0906" (at 99.06 88.9 0)
      (effects (font (size 1.27 1.27)) hide)
    )
    (property "Value" "FE_VD" (at 99.06 81.28 0)
      (effects (font (size 1.27 1.27)))
    )
    (property "Footprint" "" (at 99.06 85.09 0)
      (effects (font (size 1.27 1.27)))
    )
    (property "Datasheet" "" (at 99.06 85.09 0)
      (effects (font (size 1.27 1.27)))
    )
    (pin "1" (uuid c3522cf4-28c8-410c-bb07-ab7deba33885))
    (instances
      (project "FEAD"
        (path "/083becc8-e25d-4206-9636-55457650bbe3/00000000-0000-0000-0000-000057068f5f"
          (reference "#PWR0906") (unit 1)
        )
      )
    )
  )

  (symbol (lib_id "MDJ_compo:FE_VD") (at 99.06 104.14 0) (mirror y) (unit 1)
    (in_bom yes) (on_board yes) (dnp no)
    (uuid 00000000-0000-0000-0000-00005d390c15)
    (property "Reference" "#PWR0907" (at 99.06 107.95 0)
      (effects (font (size 1.27 1.27)) hide)
    )
    (property "Value" "FE_VD" (at 98.679 99.7458 0)
      (effects (font (size 1.27 1.27)))
    )
    (property "Footprint" "" (at 99.06 104.14 0)
      (effects (font (size 1.27 1.27)))
    )
    (property "Datasheet" "" (at 99.06 104.14 0)
      (effects (font (size 1.27 1.27)))
    )
    (pin "1" (uuid 6cbb25b3-3e5a-426e-ad53-d3b0badfb26c))
    (instances
      (project "FEAD"
        (path "/083becc8-e25d-4206-9636-55457650bbe3/00000000-0000-0000-0000-000057068f5f"
          (reference "#PWR0907") (unit 1)
        )
      )
    )
  )

  (symbol (lib_id "MDJ_compo:FE_VD") (at 41.91 104.14 0) (mirror y) (unit 1)
    (in_bom yes) (on_board yes) (dnp no)
    (uuid 00000000-0000-0000-0000-00005d390c28)
    (property "Reference" "#PWR0903" (at 41.91 107.95 0)
      (effects (font (size 1.27 1.27)) hide)
    )
    (property "Value" "FE_VD" (at 41.529 99.7458 0)
      (effects (font (size 1.27 1.27)))
    )
    (property "Footprint" "" (at 41.91 104.14 0)
      (effects (font (size 1.27 1.27)))
    )
    (property "Datasheet" "" (at 41.91 104.14 0)
      (effects (font (size 1.27 1.27)))
    )
    (pin "1" (uuid b7d93d13-768b-4f33-bbb0-f903fea1f15d))
    (instances
      (project "FEAD"
        (path "/083becc8-e25d-4206-9636-55457650bbe3/00000000-0000-0000-0000-000057068f5f"
          (reference "#PWR0903") (unit 1)
        )
      )
    )
  )

  (symbol (lib_id "MDJ_compo:FE_VD") (at 36.195 85.09 0) (mirror y) (unit 1)
    (in_bom yes) (on_board yes) (dnp no)
    (uuid 00000000-0000-0000-0000-00005d390c3b)
    (property "Reference" "#PWR0901" (at 36.195 88.9 0)
      (effects (font (size 1.27 1.27)) hide)
    )
    (property "Value" "FE_VD" (at 36.195 81.28 0)
      (effects (font (size 1.27 1.27)))
    )
    (property "Footprint" "" (at 36.195 85.09 0)
      (effects (font (size 1.27 1.27)))
    )
    (property "Datasheet" "" (at 36.195 85.09 0)
      (effects (font (size 1.27 1.27)))
    )
    (pin "1" (uuid 0a54a81e-ad16-491c-919f-05d766725777))
    (instances
      (project "FEAD"
        (path "/083becc8-e25d-4206-9636-55457650bbe3/00000000-0000-0000-0000-000057068f5f"
          (reference "#PWR0901") (unit 1)
        )
      )
    )
  )

  (symbol (lib_id "power:GND") (at 52.705 171.45 0) (mirror y) (unit 1)
    (in_bom yes) (on_board yes) (dnp no)
    (uuid 749e647f-c57d-4469-95e7-2c0bceb201d8)
    (property "Reference" "#PWR0905" (at 52.705 177.8 0)
      (effects (font (size 1.27 1.27)) hide)
    )
    (property "Value" "GND" (at 52.705 175.26 0)
      (effects (font (size 1.27 1.27)))
    )
    (property "Footprint" "" (at 52.705 171.45 0)
      (effects (font (size 1.27 1.27)) hide)
    )
    (property "Datasheet" "" (at 52.705 171.45 0)
      (effects (font (size 1.27 1.27)) hide)
    )
    (pin "1" (uuid 1f94a9a5-31f0-4d27-bc15-fa94686ba18b))
    (instances
      (project "FEAD"
        (path "/083becc8-e25d-4206-9636-55457650bbe3/00000000-0000-0000-0000-000057068f5f"
          (reference "#PWR0905") (unit 1)
        )
      )
    )
  )
)
