EESchema Schematic File Version 2
LIBS:xc7a50tfgg484pkg
LIBS:erni-154742
LIBS:erni-154765
LIBS:power
LIBS:sfp
LIBS:pspice
LIBS:si590
LIBS:m25p32
LIBS:pins_14x2
LIBS:lm3880
LIBS:tps72012drvt
LIBS:tps72010drvt
LIBS:tps78630kttt
LIBS:lp3962
LIBS:lp38692
LIBS:bd10ka5wf
LIBS:mcp1825t-3302e
LIBS:ld39080
LIBS:ltm4623
LIBS:device
LIBS:is25lp064a
LIBS:xc6216c202mr-g
LIBS:st715mr
LIBS:pins_1x3
LIBS:pins_1x2
LIBS:conn
LIBS:stitch
LIBS:ltm4622
LIBS:FEAD-cache
EELAYER 25 0
EELAYER END
$Descr A4 11693 8268
encoding utf-8
Sheet 12 12
Title ""
Date ""
Rev ""
Comp ""
Comment1 ""
Comment2 ""
Comment3 ""
Comment4 ""
$EndDescr
Text Notes 2000 1200 0    60   ~ 0
12V to 2.5V
$Comp
L R R34
U 1 1 5795A2BD
P 5400 2750
F 0 "R34" V 5480 2750 50  0000 C CNN
F 1 "11k" V 5400 2750 50  0000 C CNN
F 2 "Resistor_SMD:R_0402_1005Metric" H 5400 2750 50  0001 C CNN
F 3 "" H 5400 2750 50  0000 C CNN
	1    5400 2750
	1    0    0    -1  
$EndComp
Text Notes 5300 2850 1    60   ~ 0
R_FB
$Comp
L R R33
U 1 1 5795A2C5
P 3400 2750
F 0 "R33" V 3480 2750 50  0000 C CNN
F 1 "162k" V 3400 2750 50  0000 C CNN
F 2 "Resistor_SMD:R_0402_1005Metric" H 3400 2750 50  0001 C CNN
F 3 "" H 3400 2750 50  0000 C CNN
	1    3400 2750
	1    0    0    -1  
$EndComp
Text Notes 3600 2950 1    60   ~ 0
R_FSET
$Comp
L LTM4623 U18
U 1 1 5795A2CD
P 4400 2050
F 0 "U18" H 5000 2850 60  0000 C CNN
F 1 "LTM4623" H 4400 2050 60  0000 C CNN
F 2 "mod:LGA25" H 4400 2050 60  0001 C CNN
F 3 "" H 4400 2050 60  0000 C CNN
	1    4400 2050
	1    0    0    -1  
$EndComp
$Comp
L GND #PWR0144
U 1 1 5795A2D4
P 4700 3150
F 0 "#PWR0144" H 4700 2900 50  0001 C CNN
F 1 "GND" H 4700 3000 50  0000 C CNN
F 2 "" H 4700 3150 50  0000 C CNN
F 3 "" H 4700 3150 50  0000 C CNN
	1    4700 3150
	1    0    0    -1  
$EndComp
Text Label 2850 2150 0    60   ~ 0
LTM4623_3V3
$Comp
L R R31
U 1 1 5795A2DB
P 5550 2150
F 0 "R31" V 5630 2150 50  0000 C CNN
F 1 "10K" V 5550 2150 50  0000 C CNN
F 2 "Resistor_SMD:R_0402_1005Metric" H 5550 2150 50  0001 C CNN
F 3 "" H 5550 2150 50  0000 C CNN
	1    5550 2150
	0    1    1    0   
$EndComp
Text Label 5750 2150 0    60   ~ 0
LTM4623_3V3
$Comp
L C C91
U 1 1 5795A2E3
P 2600 1650
F 0 "C91" V 2700 1800 50  0000 C CNN
F 1 "10uF" V 2700 1500 50  0000 C CNN
F 2 "" H 2600 1650 50  0001 C CNN
F 3 "" H 2600 1650 50  0000 C CNN
	1    2600 1650
	1    0    0    -1  
$EndComp
$Comp
L GND #PWR0145
U 1 1 5795A2EA
P 2600 1850
F 0 "#PWR0145" H 2600 1600 50  0001 C CNN
F 1 "GND" H 2600 1700 50  0000 C CNN
F 2 "" H 2600 1850 50  0000 C CNN
F 3 "" H 2600 1850 50  0000 C CNN
	1    2600 1850
	1    0    0    -1  
$EndComp
$Comp
L C C92
U 1 1 5795A2F2
P 5700 1650
F 0 "C92" V 5800 1800 50  0000 C CNN
F 1 "47uF" V 5800 1500 50  0000 C CNN
F 2 "Capacitor_SMD:C_0805_2010Metric_HandSoldering" H 5700 1650 50  0001 C CNN
F 3 "" H 5700 1650 50  0000 C CNN
F 4 "Digi-key" V 5700 1650 60  0001 C CNN "Supplier"
F 5 "490-6542-1-ND" V 5700 1650 60  0001 C CNN "Supplier P/N"
	1    5700 1650
	1    0    0    -1  
$EndComp
$Comp
L GND #PWR0146
U 1 1 5795A2F9
P 5700 1850
F 0 "#PWR0146" H 5700 1600 50  0001 C CNN
F 1 "GND" H 5700 1700 50  0000 C CNN
F 2 "" H 5700 1850 50  0000 C CNN
F 3 "" H 5700 1850 50  0000 C CNN
	1    5700 1850
	1    0    0    -1  
$EndComp
Text Label 5750 2350 0    60   ~ 0
PWR_GOOD
NoConn ~ 5300 2450
$Comp
L CAP C90
U 1 1 5795A303
P 2350 1650
F 0 "C90" V 2450 1800 50  0000 C CNN
F 1 "330uF" V 2450 1500 50  0000 C CNN
F 2 "" H 2350 1650 50  0001 C CNN
F 3 "" H 2350 1650 50  0000 C CNN
F 4 "Digi-key" V 2350 1650 60  0001 C CNN "Supplier"
F 5 "399-4105-1-ND" V 2350 1650 60  0001 C CNN "Supplier Part"
	1    2350 1650
	1    0    0    -1  
$EndComp
$Comp
L GND #PWR0147
U 1 1 5795A30A
P 2350 1850
F 0 "#PWR0147" H 2350 1600 50  0001 C CNN
F 1 "GND" H 2350 1700 50  0000 C CNN
F 2 "" H 2350 1850 50  0000 C CNN
F 3 "" H 2350 1850 50  0000 C CNN
	1    2350 1850
	1    0    0    -1  
$EndComp
$Comp
L +12V #PWR0148
U 1 1 5795A310
P 2050 1400
F 0 "#PWR0148" H 2050 1250 50  0001 C CNN
F 1 "+12V" H 2050 1540 50  0000 C CNN
F 2 "" H 2050 1400 50  0000 C CNN
F 3 "" H 2050 1400 50  0000 C CNN
	1    2050 1400
	1    0    0    -1  
$EndComp
$Comp
L C C93
U 1 1 5795A31C
P 3050 2600
F 0 "C93" V 3150 2750 50  0000 C CNN
F 1 "0.1uF" V 3150 2450 50  0000 C CNN
F 2 "" H 3050 2600 50  0001 C CNN
F 3 "" H 3050 2600 50  0000 C CNN
	1    3050 2600
	1    0    0    -1  
$EndComp
$Comp
L GND #PWR0149
U 1 1 5795A323
P 3050 2850
F 0 "#PWR0149" H 3050 2600 50  0001 C CNN
F 1 "GND" H 3050 2700 50  0000 C CNN
F 2 "" H 3050 2850 50  0000 C CNN
F 3 "" H 3050 2850 50  0000 C CNN
	1    3050 2850
	1    0    0    -1  
$EndComp
NoConn ~ 3500 2350
NoConn ~ 4300 1150
NoConn ~ 4500 1150
Wire Wire Line
	4200 2950 4200 3050
Wire Wire Line
	3400 3050 5400 3050
Wire Wire Line
	5400 3050 5400 2950
Wire Wire Line
	4800 2950 4800 3050
Connection ~ 4800 3050
Wire Wire Line
	4600 2950 4600 3050
Connection ~ 4600 3050
Wire Wire Line
	4500 2950 4500 3050
Connection ~ 4500 3050
Wire Wire Line
	4400 2950 4400 3050
Connection ~ 4400 3050
Wire Wire Line
	4300 2950 4300 3050
Connection ~ 4300 3050
Wire Wire Line
	4700 3050 4700 3150
Connection ~ 4700 3050
Wire Wire Line
	5300 2550 5400 2550
Wire Wire Line
	3500 2550 3400 2550
Wire Wire Line
	3400 2950 3400 3050
Connection ~ 4200 3050
Wire Wire Line
	2850 2150 3500 2150
Wire Wire Line
	5750 2150 6350 2150
Wire Wire Line
	5300 2350 6350 2350
Wire Wire Line
	2050 1450 3500 1450
Connection ~ 3400 1450
Wire Wire Line
	3500 1550 3400 1550
Connection ~ 3400 1550
Wire Wire Line
	3400 1650 3500 1650
Wire Wire Line
	3400 1450 3400 1650
Wire Wire Line
	2600 1850 2600 1800
Wire Wire Line
	2600 1450 2600 1500
Wire Wire Line
	5400 1850 5300 1850
Wire Wire Line
	5400 1450 5400 1850
Wire Wire Line
	5300 1450 5700 1450
Wire Wire Line
	5300 1750 5400 1750
Connection ~ 5400 1750
Wire Wire Line
	5300 1650 5400 1650
Connection ~ 5400 1650
Wire Wire Line
	5300 1550 5400 1550
Connection ~ 5400 1550
Wire Wire Line
	5700 1400 5700 1500
Connection ~ 5400 1450
Wire Wire Line
	5700 1800 5700 1850
Wire Wire Line
	5350 2150 5350 2350
Connection ~ 5350 2350
Wire Wire Line
	2050 1400 2050 1450
Wire Wire Line
	2350 1450 2350 1500
Wire Wire Line
	2350 1850 2350 1800
Connection ~ 5700 1450
Wire Wire Line
	3500 2250 3400 2250
Wire Wire Line
	3400 2250 3400 2150
Connection ~ 3400 2150
Wire Wire Line
	3500 2450 3050 2450
Wire Wire Line
	3050 2750 3050 2850
Wire Wire Line
	1550 2450 2800 2450
Wire Wire Line
	2350 1450 3400 1450
Connection ~ 2600 1450
Connection ~ 2350 1450
Wire Wire Line
	2800 2450 2800 1750
Wire Wire Line
	2800 1750 3500 1750
$Comp
L R R32
U 1 1 5795A381
P 2050 2700
F 0 "R32" V 2130 2700 50  0000 C CNN
F 1 "10k" V 2050 2700 50  0000 C CNN
F 2 "Resistor_SMD:R_0402_1005Metric" H 2050 2700 50  0001 C CNN
F 3 "" H 2050 2700 50  0000 C CNN
	1    2050 2700
	1    0    0    -1  
$EndComp
Wire Wire Line
	2050 2450 2050 2500
$Comp
L GND #PWR0150
U 1 1 5795A389
P 2050 2950
F 0 "#PWR0150" H 2050 2700 50  0001 C CNN
F 1 "GND" H 2050 2800 50  0000 C CNN
F 2 "" H 2050 2950 50  0000 C CNN
F 3 "" H 2050 2950 50  0000 C CNN
	1    2050 2950
	1    0    0    -1  
$EndComp
Wire Wire Line
	2050 2950 2050 2900
Text Notes 1650 3650 0    120  ~ 0
Won't work because of my estimate of 2.7A for each VFE
$Comp
L +2V5 #PWR0151
U 1 1 579B232D
P 5700 1400
F 0 "#PWR0151" H 5700 1250 50  0001 C CNN
F 1 "+2V5" H 5700 1540 50  0000 C CNN
F 2 "" H 5700 1400 50  0000 C CNN
F 3 "" H 5700 1400 50  0000 C CNN
	1    5700 1400
	1    0    0    -1  
$EndComp
$Comp
L PINS_1x2 U19
U 1 1 579B5B45
P 1450 2800
F 0 "U19" H 1650 2700 60  0000 C CNN
F 1 "PINS_1x2" H 1450 2800 60  0001 C CNN
F 2 "" H 1450 2800 60  0001 C CNN
F 3 "" H 1450 2800 60  0000 C CNN
	1    1450 2800
	1    0    0    -1  
$EndComp
Connection ~ 2050 2450
Wire Wire Line
	1350 2450 1050 2450
Wire Wire Line
	1050 2450 1050 2550
$Comp
L GND #PWR0152
U 1 1 579B5C92
P 1050 2550
F 0 "#PWR0152" H 1050 2300 50  0001 C CNN
F 1 "GND" H 1050 2400 50  0000 C CNN
F 2 "" H 1050 2550 50  0000 C CNN
F 3 "" H 1050 2550 50  0000 C CNN
	1    1050 2550
	1    0    0    -1  
$EndComp
$EndSCHEMATC
