EESchema Schematic File Version 4
EELAYER 30 0
EELAYER END
$Descr A4 11693 8268
encoding utf-8
Sheet 8 11
Title ""
Date ""
Rev ""
Comp ""
Comment1 ""
Comment2 ""
Comment3 ""
Comment4 ""
$EndDescr
Text Notes 6800 3800 0    60   ~ 0
Control: 2V5 good  (60ms/60ms/60ms)\n1) VccINT,VccBram,VccMGTAVcc\n2) VccAUX,VCCMGTAVTT\n3) VccO,VCCSFP
Text Label 9400 4150 0    60   ~ 0
PWRUP_1
Text Label 9400 4250 0    60   ~ 0
PWRUP_2
Text Label 9400 4350 0    60   ~ 0
PWRUP_3
Text Notes 1100 950  0    60   ~ 0
1V0\nVccINT,VccBRAM (1" thermal)\nreq:  330mA + 10mA (quiescent)\nmax: +420mA (trans) = 760mA -> 1A
Text Notes 3350 950  0    60   ~ 0
1V0\nVccMGTAVcc\nreq: 61mA\nmax: 1A
Text Notes 3375 2875 0    60   ~ 0
1V2\nVccMGTAVTT\nreq:  50mA\nmax: 1A
Text Notes 1100 2850 0    60   ~ 0
1V8\nVccAUX, VccADC (~~0.75" thermal)\nreq:  250mA + 20mA\nmax: 1A
Text Notes 3725 6400 0    60   ~ 0
3V3\nSFP (0.5" thermal pad)\nreq:  275mA  + 0 to 30mA (FLASH)\nmax: 500mA\n
Text Notes 1100 6475 0    60   ~ 0
2V5\nVccO_0 (1" thermal pad)\nFor FPGA programming\nreq:   650mA\nmax:      1.5A
Text Notes 600  625  0    100  ~ 0
Seq 1
Text Notes 600  2350 0    100  ~ 0
Seq 2
Text Notes 600  4275 0    100  ~ 0
Seq 3
Text Notes 6800 650  0    100  ~ 0
Seq 0 (Main Power)\n
Text Notes 1300 1600 0    100  ~ 0
\n
Text Notes 1000 3475 0    100  ~ 0
\n
$Comp
L MDJ_compo:MCP1825T-3302E U807
U 1 1 57890478
P 4900 6950
AR Path="/5787D549/57890478" Ref="U807"  Part="1" 
AR Path="/572C0D81/57890478" Ref="U?"  Part="1" 
AR Path="/57890478" Ref="U?"  Part="1" 
F 0 "U807" H 5250 6450 60  0000 C CNN
F 1 "MCP1825T-3302E" H 4900 7000 60  0000 C CNN
F 2 "Package_TO_SOT_SMD:SOT-223-6_TabPin3" H 4900 7375 39  0000 C CNN
F 3 "" H 4900 6950 60  0000 C CNN
F 4 "Digi-key" H 4900 6950 60  0001 C CNN "Supplier"
F 5 "MCP1825T-3302E/DCCT-ND" H 4900 6950 60  0001 C CNN "Supplier P/N"
	1    4900 6950
	1    0    0    -1  
$EndComp
Text Label 10100 2500 0    60   ~ 0
LV_PWR_EN
Text Label 8600 4250 2    60   ~ 0
LV_PWR_EN
$Comp
L Device:C C803
U 1 1 578935D2
P 800 1675
AR Path="/5787D549/578935D2" Ref="C803"  Part="1" 
AR Path="/572C0D81/578935D2" Ref="C?"  Part="1" 
F 0 "C803" V 900 1825 50  0000 C CNN
F 1 "10uF" V 900 1525 50  0000 C CNN
F 2 "Capacitor_SMD:C_0402_1005Metric" H 800 1675 50  0001 C CNN
F 3 "" H 800 1675 50  0000 C CNN
	1    800  1675
	1    0    0    -1  
$EndComp
$Comp
L FEAD-rescue:GND-power1 #PWR0806
U 1 1 578935D9
P 800 1875
AR Path="/5787D549/578935D9" Ref="#PWR0806"  Part="1" 
AR Path="/572C0D81/578935D9" Ref="#PWR?"  Part="1" 
F 0 "#PWR0806" H 800 1625 50  0001 C CNN
F 1 "GND" H 650 1800 50  0000 C CNN
F 2 "" H 800 1875 50  0000 C CNN
F 3 "" H 800 1875 50  0000 C CNN
	1    800  1875
	1    0    0    -1  
$EndComp
Text Label 1050 2100 2    60   ~ 0
PWRUP_1
$Comp
L Device:C C812
U 1 1 57893ED1
P 3500 1675
AR Path="/5787D549/57893ED1" Ref="C812"  Part="1" 
AR Path="/572C0D81/57893ED1" Ref="C?"  Part="1" 
F 0 "C812" V 3600 1825 50  0000 C CNN
F 1 "10uF" V 3600 1525 50  0000 C CNN
F 2 "Capacitor_SMD:C_0402_1005Metric" H 3500 1675 50  0001 C CNN
F 3 "" H 3500 1675 50  0000 C CNN
F 4 "Digikey" V 3500 1675 60  0001 C CNN "Supplier"
F 5 "445-5138-1-ND" V 3500 1675 60  0001 C CNN "Supplier P/N"
	1    3500 1675
	1    0    0    -1  
$EndComp
$Comp
L FEAD-rescue:GND-power1 #PWR0829
U 1 1 57893ED8
P 3500 1875
AR Path="/5787D549/57893ED8" Ref="#PWR0829"  Part="1" 
AR Path="/572C0D81/57893ED8" Ref="#PWR?"  Part="1" 
F 0 "#PWR0829" H 3500 1625 50  0001 C CNN
F 1 "GND" H 3350 1800 50  0000 C CNN
F 2 "" H 3500 1875 50  0000 C CNN
F 3 "" H 3500 1875 50  0000 C CNN
	1    3500 1875
	1    0    0    -1  
$EndComp
Text Label 3975 2100 2    60   ~ 0
PWRUP_1
$Comp
L Device:C C815
U 1 1 578947F5
P 4725 1200
AR Path="/5787D549/578947F5" Ref="C815"  Part="1" 
AR Path="/572C0D81/578947F5" Ref="C?"  Part="1" 
F 0 "C815" V 4675 1075 50  0000 C CNN
F 1 "100nF" V 4775 1050 50  0000 C CNN
F 2 "Capacitor_SMD:C_0201_0603Metric" H 4725 1200 50  0001 C CNN
F 3 "" H 4725 1200 50  0000 C CNN
	1    4725 1200
	0    -1   -1   0   
$EndComp
$Comp
L FEAD-rescue:GND-power1 #PWR0841
U 1 1 578947FC
P 4925 1200
AR Path="/5787D549/578947FC" Ref="#PWR0841"  Part="1" 
AR Path="/572C0D81/578947FC" Ref="#PWR?"  Part="1" 
F 0 "#PWR0841" H 4925 950 50  0001 C CNN
F 1 "GND" H 4925 1050 50  0000 C CNN
F 2 "" H 4925 1200 50  0000 C CNN
F 3 "" H 4925 1200 50  0000 C CNN
	1    4925 1200
	0    -1   -1   0   
$EndComp
$Comp
L Device:C C808
U 1 1 57894B52
P 2350 1675
AR Path="/5787D549/57894B52" Ref="C808"  Part="1" 
AR Path="/572C0D81/57894B52" Ref="C?"  Part="1" 
F 0 "C808" V 2450 1825 50  0000 C CNN
F 1 "10uF" V 2450 1525 50  0000 C CNN
F 2 "Capacitor_SMD:C_0402_1005Metric" H 2350 1675 50  0001 C CNN
F 3 "" H 2350 1675 50  0000 C CNN
F 4 "Digikey" V 2350 1675 60  0001 C CNN "Supplier"
F 5 "445-4835-1-ND" V 2350 1675 60  0001 C CNN "Supplier S/N"
	1    2350 1675
	1    0    0    -1  
$EndComp
$Comp
L FEAD-rescue:GND-power1 #PWR0823
U 1 1 57894B59
P 2350 1875
AR Path="/5787D549/57894B59" Ref="#PWR0823"  Part="1" 
AR Path="/572C0D81/57894B59" Ref="#PWR?"  Part="1" 
F 0 "#PWR0823" H 2350 1625 50  0001 C CNN
F 1 "GND" H 2350 1725 50  0000 C CNN
F 2 "" H 2350 1875 50  0000 C CNN
F 3 "" H 2350 1875 50  0000 C CNN
	1    2350 1875
	1    0    0    -1  
$EndComp
$Comp
L Device:C C817
U 1 1 57894E1A
P 5500 1675
AR Path="/5787D549/57894E1A" Ref="C817"  Part="1" 
AR Path="/572C0D81/57894E1A" Ref="C?"  Part="1" 
F 0 "C817" V 5600 1825 50  0000 C CNN
F 1 "10uF" V 5600 1525 50  0000 C CNN
F 2 "Capacitor_SMD:C_0402_1005Metric" H 5500 1675 50  0001 C CNN
F 3 "" H 5500 1675 50  0000 C CNN
	1    5500 1675
	1    0    0    -1  
$EndComp
$Comp
L FEAD-rescue:GND-power1 #PWR0846
U 1 1 57894E21
P 5500 1875
AR Path="/5787D549/57894E21" Ref="#PWR0846"  Part="1" 
AR Path="/572C0D81/57894E21" Ref="#PWR?"  Part="1" 
F 0 "#PWR0846" H 5500 1625 50  0001 C CNN
F 1 "GND" H 5500 1725 50  0000 C CNN
F 2 "" H 5500 1875 50  0000 C CNN
F 3 "" H 5500 1875 50  0000 C CNN
	1    5500 1875
	1    0    0    -1  
$EndComp
$Comp
L FEAD-rescue:GND-power1 #PWR0810
U 1 1 5789500C
P 1550 1975
AR Path="/5787D549/5789500C" Ref="#PWR0810"  Part="1" 
AR Path="/572C0D81/5789500C" Ref="#PWR?"  Part="1" 
F 0 "#PWR0810" H 1550 1725 50  0001 C CNN
F 1 "GND" H 1550 1825 50  0000 C CNN
F 2 "" H 1550 1975 50  0000 C CNN
F 3 "" H 1550 1975 50  0000 C CNN
	1    1550 1975
	1    0    0    -1  
$EndComp
$Comp
L FEAD-rescue:VccInt-power1 #PWR0822
U 1 1 5789593C
P 2350 1425
AR Path="/5787D549/5789593C" Ref="#PWR0822"  Part="1" 
AR Path="/572C0D81/5789593C" Ref="#PWR?"  Part="1" 
F 0 "#PWR0822" H 2350 1275 50  0001 C CNN
F 1 "VccInt" H 2350 1575 50  0000 C CNN
F 2 "" H 2350 1425 50  0000 C CNN
F 3 "" H 2350 1425 50  0000 C CNN
	1    2350 1425
	1    0    0    -1  
$EndComp
$Comp
L FEAD-rescue:VccMGTAVcc-power1 #PWR0845
U 1 1 57895EF8
P 5500 1425
AR Path="/5787D549/57895EF8" Ref="#PWR0845"  Part="1" 
AR Path="/572C0D81/57895EF8" Ref="#PWR?"  Part="1" 
F 0 "#PWR0845" H 5500 1275 50  0001 C CNN
F 1 "VccMGTAVcc" H 5500 1575 50  0000 C CNN
F 2 "" H 5500 1425 50  0000 C CNN
F 3 "" H 5500 1425 50  0000 C CNN
	1    5500 1425
	1    0    0    -1  
$EndComp
$Comp
L Device:C C801
U 1 1 578961F9
P 700 3575
AR Path="/5787D549/578961F9" Ref="C801"  Part="1" 
AR Path="/572C0D81/578961F9" Ref="C?"  Part="1" 
F 0 "C801" V 800 3725 50  0000 C CNN
F 1 "10uF" V 800 3425 50  0000 C CNN
F 2 "Capacitor_SMD:C_0402_1005Metric" H 700 3575 50  0001 C CNN
F 3 "" H 700 3575 50  0000 C CNN
	1    700  3575
	1    0    0    -1  
$EndComp
$Comp
L FEAD-rescue:GND-power1 #PWR0802
U 1 1 57896200
P 700 3775
AR Path="/5787D549/57896200" Ref="#PWR0802"  Part="1" 
AR Path="/572C0D81/57896200" Ref="#PWR?"  Part="1" 
F 0 "#PWR0802" H 700 3525 50  0001 C CNN
F 1 "GND" H 550 3700 50  0000 C CNN
F 2 "" H 700 3775 50  0000 C CNN
F 3 "" H 700 3775 50  0000 C CNN
	1    700  3775
	1    0    0    -1  
$EndComp
Text Label 1050 3975 2    60   ~ 0
PWRUP_2
$Comp
L Device:C C813
U 1 1 57896589
P 3750 3575
AR Path="/5787D549/57896589" Ref="C813"  Part="1" 
AR Path="/572C0D81/57896589" Ref="C?"  Part="1" 
F 0 "C813" V 3850 3725 50  0000 C CNN
F 1 "10uF" V 3850 3425 50  0000 C CNN
F 2 "Capacitor_SMD:C_0402_1005Metric" H 3750 3575 50  0001 C CNN
F 3 "" H 3750 3575 50  0000 C CNN
	1    3750 3575
	1    0    0    -1  
$EndComp
$Comp
L FEAD-rescue:GND-power1 #PWR0831
U 1 1 57896590
P 3750 3775
AR Path="/5787D549/57896590" Ref="#PWR0831"  Part="1" 
AR Path="/572C0D81/57896590" Ref="#PWR?"  Part="1" 
F 0 "#PWR0831" H 3750 3525 50  0001 C CNN
F 1 "GND" H 3750 3625 50  0000 C CNN
F 2 "" H 3750 3775 50  0000 C CNN
F 3 "" H 3750 3775 50  0000 C CNN
	1    3750 3775
	1    0    0    -1  
$EndComp
Text Label 4100 4075 2    60   ~ 0
PWRUP_2
$Comp
L Device:C C816
U 1 1 578976B9
P 4900 3100
AR Path="/5787D549/578976B9" Ref="C816"  Part="1" 
AR Path="/572C0D81/578976B9" Ref="C?"  Part="1" 
F 0 "C816" V 5000 3250 50  0000 C CNN
F 1 "100nF" V 5000 2950 50  0000 C CNN
F 2 "Capacitor_SMD:C_0201_0603Metric" H 4900 3100 50  0001 C CNN
F 3 "" H 4900 3100 50  0000 C CNN
	1    4900 3100
	0    -1   -1   0   
$EndComp
$Comp
L FEAD-rescue:GND-power1 #PWR0842
U 1 1 578976C1
P 5100 3100
AR Path="/5787D549/578976C1" Ref="#PWR0842"  Part="1" 
AR Path="/572C0D81/578976C1" Ref="#PWR?"  Part="1" 
F 0 "#PWR0842" H 5100 2850 50  0001 C CNN
F 1 "GND" H 5100 2950 50  0000 C CNN
F 2 "" H 5100 3100 50  0000 C CNN
F 3 "" H 5100 3100 50  0000 C CNN
	1    5100 3100
	0    -1   -1   0   
$EndComp
$Comp
L Device:C C818
U 1 1 57897A4E
P 5550 3600
AR Path="/5787D549/57897A4E" Ref="C818"  Part="1" 
AR Path="/572C0D81/57897A4E" Ref="C?"  Part="1" 
F 0 "C818" V 5650 3750 50  0000 C CNN
F 1 "10uF" V 5650 3450 50  0000 C CNN
F 2 "Capacitor_SMD:C_0402_1005Metric" H 5550 3600 50  0001 C CNN
F 3 "" H 5550 3600 50  0000 C CNN
	1    5550 3600
	1    0    0    -1  
$EndComp
$Comp
L FEAD-rescue:GND-power1 #PWR0848
U 1 1 57897A55
P 5550 3800
AR Path="/5787D549/57897A55" Ref="#PWR0848"  Part="1" 
AR Path="/572C0D81/57897A55" Ref="#PWR?"  Part="1" 
F 0 "#PWR0848" H 5550 3550 50  0001 C CNN
F 1 "GND" H 5550 3650 50  0000 C CNN
F 2 "" H 5550 3800 50  0000 C CNN
F 3 "" H 5550 3800 50  0000 C CNN
	1    5550 3800
	1    0    0    -1  
$EndComp
$Comp
L FEAD-rescue:VccMGTAVtt-power1 #PWR0847
U 1 1 57897DEA
P 5550 3325
AR Path="/5787D549/57897DEA" Ref="#PWR0847"  Part="1" 
AR Path="/572C0D81/57897DEA" Ref="#PWR?"  Part="1" 
F 0 "#PWR0847" H 5550 3175 50  0001 C CNN
F 1 "VccMGTAVtt" H 5550 3475 50  0000 C CNN
F 2 "" H 5550 3325 50  0000 C CNN
F 3 "" H 5550 3325 50  0000 C CNN
	1    5550 3325
	1    0    0    -1  
$EndComp
Text Notes 1000 6900 0    100  ~ 0
\n
$Comp
L Device:C C804
U 1 1 57898412
P 1050 7000
AR Path="/5787D549/57898412" Ref="C804"  Part="1" 
AR Path="/572C0D81/57898412" Ref="C?"  Part="1" 
F 0 "C804" V 1150 7150 50  0000 C CNN
F 1 "100uF" V 1150 6850 50  0000 C CNN
F 2 "Capacitor_SMD:C_0805_2012Metric" H 1050 7000 50  0001 C CNN
F 3 "" H 1050 7000 50  0000 C CNN
F 4 "Digikey" V 1050 7000 60  0001 C CNN "Supplier"
F 5 "445-14746-1-ND" V 1050 7000 60  0001 C CNN "Supplier P/N"
	1    1050 7000
	1    0    0    -1  
$EndComp
$Comp
L FEAD-rescue:GND-power1 #PWR0808
U 1 1 57898419
P 1050 7200
AR Path="/5787D549/57898419" Ref="#PWR0808"  Part="1" 
AR Path="/572C0D81/57898419" Ref="#PWR?"  Part="1" 
F 0 "#PWR0808" H 1050 6950 50  0001 C CNN
F 1 "GND" H 1050 7050 50  0000 C CNN
F 2 "" H 1050 7200 50  0000 C CNN
F 3 "" H 1050 7200 50  0000 C CNN
	1    1050 7200
	1    0    0    -1  
$EndComp
Text Label 1000 7550 2    60   ~ 0
PWRUP_3
$Comp
L Device:C C814
U 1 1 57898723
P 4000 6900
AR Path="/5787D549/57898723" Ref="C814"  Part="1" 
AR Path="/572C0D81/57898723" Ref="C?"  Part="1" 
F 0 "C814" V 4100 7050 50  0000 C CNN
F 1 "10uF" V 4100 6750 50  0000 C CNN
F 2 "Capacitor_SMD:C_0603_1608Metric" H 4000 6900 50  0001 C CNN
F 3 "" H 4000 6900 50  0000 C CNN
	1    4000 6900
	1    0    0    -1  
$EndComp
$Comp
L FEAD-rescue:GND-power1 #PWR0833
U 1 1 5789872A
P 4000 7100
AR Path="/5787D549/5789872A" Ref="#PWR0833"  Part="1" 
AR Path="/572C0D81/5789872A" Ref="#PWR?"  Part="1" 
F 0 "#PWR0833" H 4000 6850 50  0001 C CNN
F 1 "GND" H 4000 6950 50  0000 C CNN
F 2 "" H 4000 7100 50  0000 C CNN
F 3 "" H 4000 7100 50  0000 C CNN
	1    4000 7100
	1    0    0    -1  
$EndComp
Text Label 4100 7450 2    60   ~ 0
PWRUP_3
$Comp
L FEAD-rescue:GND-power1 #PWR0815
U 1 1 57898B5E
P 1800 7400
AR Path="/5787D549/57898B5E" Ref="#PWR0815"  Part="1" 
AR Path="/572C0D81/57898B5E" Ref="#PWR?"  Part="1" 
F 0 "#PWR0815" H 1800 7150 50  0001 C CNN
F 1 "GND" H 1800 7250 50  0000 C CNN
F 2 "" H 1800 7400 50  0000 C CNN
F 3 "" H 1800 7400 50  0000 C CNN
	1    1800 7400
	1    0    0    -1  
$EndComp
$Comp
L FEAD-rescue:GND-power1 #PWR0839
U 1 1 57898CB5
P 4900 7500
AR Path="/5787D549/57898CB5" Ref="#PWR0839"  Part="1" 
AR Path="/572C0D81/57898CB5" Ref="#PWR?"  Part="1" 
F 0 "#PWR0839" H 4900 7250 50  0001 C CNN
F 1 "GND" H 4900 7350 50  0000 C CNN
F 2 "" H 4900 7500 50  0000 C CNN
F 3 "" H 4900 7500 50  0000 C CNN
	1    4900 7500
	1    0    0    -1  
$EndComp
$Comp
L Device:C C809
U 1 1 578991A5
P 2500 3575
AR Path="/5787D549/578991A5" Ref="C809"  Part="1" 
AR Path="/572C0D81/578991A5" Ref="C?"  Part="1" 
F 0 "C809" V 2600 3725 50  0000 C CNN
F 1 "10uF" V 2600 3425 50  0000 C CNN
F 2 "Capacitor_SMD:C_0402_1005Metric" H 2500 3575 50  0001 C CNN
F 3 "" H 2500 3575 50  0000 C CNN
F 4 "Digikey" V 2500 3575 60  0001 C CNN "Supplier"
F 5 "478-8648-1-ND" V 2500 3575 60  0001 C CNN "Supplier P/N"
	1    2500 3575
	1    0    0    -1  
$EndComp
$Comp
L FEAD-rescue:GND-power1 #PWR0825
U 1 1 578991AC
P 2500 3775
AR Path="/5787D549/578991AC" Ref="#PWR0825"  Part="1" 
AR Path="/572C0D81/578991AC" Ref="#PWR?"  Part="1" 
F 0 "#PWR0825" H 2500 3525 50  0001 C CNN
F 1 "GND" H 2500 3625 50  0000 C CNN
F 2 "" H 2500 3775 50  0000 C CNN
F 3 "" H 2500 3775 50  0000 C CNN
	1    2500 3775
	1    0    0    -1  
$EndComp
$Comp
L Device:R R816
U 1 1 5789A978
P 9950 3950
AR Path="/5787D549/5789A978" Ref="R816"  Part="1" 
AR Path="/572C0D81/5789A978" Ref="R?"  Part="1" 
F 0 "R816" V 10030 3950 50  0000 C CNN
F 1 "10k" V 9950 3950 50  0000 C CNN
F 2 "Resistor_SMD:R_0201_0603Metric" H 9950 3950 50  0001 C CNN
F 3 "" H 9950 3950 50  0000 C CNN
	1    9950 3950
	1    0    0    -1  
$EndComp
$Comp
L Power_Supervisor:LM3880 U809
U 1 1 5789B829
P 9000 4250
AR Path="/5787D549/5789B829" Ref="U809"  Part="1" 
AR Path="/572C0D81/5789B829" Ref="U?"  Part="1" 
F 0 "U809" H 9125 4675 60  0000 C CNN
F 1 "LM3880" V 8850 4200 60  0000 C CNN
F 2 "Package_TO_SOT_SMD:SOT-23-6" H 9000 4250 60  0001 C CNN
F 3 "" H 9000 4250 60  0000 C CNN
F 4 "Digi-key" H 9000 4250 60  0001 C CNN "Supplier"
F 5 "296-43886-1-ND" H 9000 4250 60  0001 C CNN "Supplier P/N"
	1    9000 4250
	1    0    0    -1  
$EndComp
$Comp
L FEAD-rescue:GND-power1 #PWR0867
U 1 1 5789C483
P 9000 4600
AR Path="/5787D549/5789C483" Ref="#PWR0867"  Part="1" 
AR Path="/572C0D81/5789C483" Ref="#PWR?"  Part="1" 
F 0 "#PWR0867" H 9000 4350 50  0001 C CNN
F 1 "GND" H 9000 4450 50  0000 C CNN
F 2 "" H 9000 4600 50  0000 C CNN
F 3 "" H 9000 4600 50  0000 C CNN
	1    9000 4600
	1    0    0    -1  
$EndComp
$Comp
L Device:R R817
U 1 1 5789D199
P 10150 3950
AR Path="/5787D549/5789D199" Ref="R817"  Part="1" 
AR Path="/572C0D81/5789D199" Ref="R?"  Part="1" 
F 0 "R817" V 10230 3950 50  0000 C CNN
F 1 "10k" V 10150 3950 50  0000 C CNN
F 2 "Resistor_SMD:R_0201_0603Metric" H 10150 3950 50  0001 C CNN
F 3 "" H 10150 3950 50  0000 C CNN
	1    10150 3950
	1    0    0    -1  
$EndComp
$Comp
L Device:R R818
U 1 1 5789D21C
P 10350 3950
AR Path="/5787D549/5789D21C" Ref="R818"  Part="1" 
AR Path="/572C0D81/5789D21C" Ref="R?"  Part="1" 
F 0 "R818" V 10430 3950 50  0000 C CNN
F 1 "10k" V 10350 3950 50  0000 C CNN
F 2 "Resistor_SMD:R_0201_0603Metric" H 10350 3950 50  0001 C CNN
F 3 "" H 10350 3950 50  0000 C CNN
	1    10350 3950
	1    0    0    -1  
$EndComp
$Comp
L Device:C C811
U 1 1 5789E905
P 2625 6950
AR Path="/5787D549/5789E905" Ref="C811"  Part="1" 
AR Path="/572C0D81/5789E905" Ref="C?"  Part="1" 
F 0 "C811" V 2850 6950 50  0000 C CNN
F 1 "100uF" V 2725 6800 50  0000 C CNN
F 2 "Capacitor_SMD:C_0805_2012Metric" H 2625 6950 50  0001 C CNN
F 3 "" H 2625 6950 50  0000 C CNN
F 4 "Digikey" V 2625 6950 60  0001 C CNN "Supplier"
F 5 "478-1692-1-ND" V 2625 6950 60  0001 C CNN "Supplier P/N"
	1    2625 6950
	1    0    0    -1  
$EndComp
$Comp
L FEAD-rescue:GND-power1 #PWR0827
U 1 1 5789E90B
P 2625 7150
AR Path="/5787D549/5789E90B" Ref="#PWR0827"  Part="1" 
AR Path="/572C0D81/5789E90B" Ref="#PWR?"  Part="1" 
F 0 "#PWR0827" H 2625 6900 50  0001 C CNN
F 1 "GND" H 2625 7000 50  0000 C CNN
F 2 "" H 2625 7150 50  0000 C CNN
F 3 "" H 2625 7150 50  0000 C CNN
	1    2625 7150
	1    0    0    -1  
$EndComp
$Comp
L MDJ_compo:LP3962 U804
U 1 1 57880BA7
P 1800 6950
AR Path="/5787D549/57880BA7" Ref="U804"  Part="1" 
AR Path="/572C0D81/57880BA7" Ref="U?"  Part="1" 
F 0 "U804" H 1475 6650 60  0000 C CNN
F 1 "LP3962" H 1800 6950 60  0000 C CNN
F 2 "Package_TO_SOT_SMD:TO-263-5_TabPin3" H 1800 7275 39  0000 C CNN
F 3 "" H 1800 6950 60  0000 C CNN
F 4 "Digikey" H 1800 6950 60  0001 C CNN "Supplier"
F 5 "LP3962ES-2.5/NOPB-ND" H 1800 6950 60  0001 C CNN "Supplier P/N"
	1    1800 6950
	1    0    0    -1  
$EndComp
$Comp
L FEAD-rescue:VccO-power1 #PWR0855
U 1 1 5789ECA5
P 2625 6750
AR Path="/5787D549/5789ECA5" Ref="#PWR0855"  Part="1" 
AR Path="/572C0D81/5789ECA5" Ref="#PWR?"  Part="1" 
F 0 "#PWR0855" H 2625 6600 50  0001 C CNN
F 1 "VccO" H 2625 6900 50  0000 C CNN
F 2 "" H 2625 6750 50  0000 C CNN
F 3 "" H 2625 6750 50  0000 C CNN
	1    2625 6750
	1    0    0    -1  
$EndComp
$Comp
L Device:C C819
U 1 1 5789F2B0
P 5900 6850
AR Path="/5787D549/5789F2B0" Ref="C819"  Part="1" 
AR Path="/572C0D81/5789F2B0" Ref="C?"  Part="1" 
F 0 "C819" V 6000 7000 50  0000 C CNN
F 1 "10uF" V 6000 6700 50  0000 C CNN
F 2 "Capacitor_SMD:C_0603_1608Metric" H 5900 6850 50  0001 C CNN
F 3 "" H 5900 6850 50  0000 C CNN
	1    5900 6850
	1    0    0    -1  
$EndComp
$Comp
L FEAD-rescue:GND-power1 #PWR0850
U 1 1 5789F2B6
P 5900 7050
AR Path="/5787D549/5789F2B6" Ref="#PWR0850"  Part="1" 
AR Path="/572C0D81/5789F2B6" Ref="#PWR?"  Part="1" 
F 0 "#PWR0850" H 5900 6800 50  0001 C CNN
F 1 "GND" H 5900 6900 50  0000 C CNN
F 2 "" H 5900 7050 50  0000 C CNN
F 3 "" H 5900 7050 50  0000 C CNN
	1    5900 7050
	1    0    0    -1  
$EndComp
$Comp
L Device:R R811
U 1 1 5789F3CD
P 5700 6950
AR Path="/5787D549/5789F3CD" Ref="R811"  Part="1" 
AR Path="/572C0D81/5789F3CD" Ref="R?"  Part="1" 
F 0 "R811" V 5780 6950 50  0000 C CNN
F 1 "10k" V 5700 6950 50  0000 C CNN
F 2 "Resistor_SMD:R_0201_0603Metric" H 5700 6950 50  0001 C CNN
F 3 "" H 5700 6950 50  0000 C CNN
	1    5700 6950
	1    0    0    -1  
$EndComp
$Comp
L FEAD-rescue:VccAux-power1 #PWR0824
U 1 1 578A0596
P 2500 3325
AR Path="/5787D549/578A0596" Ref="#PWR0824"  Part="1" 
AR Path="/572C0D81/578A0596" Ref="#PWR?"  Part="1" 
F 0 "#PWR0824" H 2500 3175 50  0001 C CNN
F 1 "VccAux" H 2500 3475 50  0000 C CNN
F 2 "" H 2500 3325 50  0000 C CNN
F 3 "" H 2500 3325 50  0000 C CNN
	1    2500 3325
	1    0    0    -1  
$EndComp
$Comp
L FEAD-rescue:VccSFP-power1 #PWR0849
U 1 1 578A06E9
P 5900 6650
AR Path="/5787D549/578A06E9" Ref="#PWR0849"  Part="1" 
AR Path="/572C0D81/578A06E9" Ref="#PWR?"  Part="1" 
F 0 "#PWR0849" H 5900 6500 50  0001 C CNN
F 1 "VccSFP" H 5900 6800 50  0000 C CNN
F 2 "" H 5900 6650 50  0000 C CNN
F 3 "" H 5900 6650 50  0000 C CNN
	1    5900 6650
	1    0    0    -1  
$EndComp
$Comp
L Device:R R812
U 1 1 578A1821
P 7600 2800
AR Path="/5787D549/578A1821" Ref="R812"  Part="1" 
AR Path="/572C0D81/578A1821" Ref="R?"  Part="1" 
F 0 "R812" V 7680 2800 50  0000 C CNN
F 1 "250k" V 7600 2800 50  0000 C CNN
F 2 "Resistor_SMD:R_0201_0603Metric" H 7600 2800 50  0001 C CNN
F 3 "" H 7600 2800 50  0000 C CNN
	1    7600 2800
	1    0    0    -1  
$EndComp
Text Notes 7800 3000 1    60   ~ 0
R_FSET
$Comp
L FEAD-rescue:GND-power1 #PWR0863
U 1 1 578AE4BF
P 8600 3200
AR Path="/5787D549/578AE4BF" Ref="#PWR0863"  Part="1" 
AR Path="/572C0D81/578AE4BF" Ref="#PWR?"  Part="1" 
F 0 "#PWR0863" H 8600 2950 50  0001 C CNN
F 1 "GND" H 8600 3050 50  0000 C CNN
F 2 "" H 8600 3200 50  0000 C CNN
F 3 "" H 8600 3200 50  0000 C CNN
	1    8600 3200
	1    0    0    -1  
$EndComp
$Comp
L Device:R R815
U 1 1 578B3D03
P 9900 2250
AR Path="/5787D549/578B3D03" Ref="R815"  Part="1" 
AR Path="/572C0D81/578B3D03" Ref="R?"  Part="1" 
F 0 "R815" V 9800 2250 50  0000 C CNN
F 1 "10k" V 9900 2250 50  0000 C CNN
F 2 "Resistor_SMD:R_0201_0603Metric" H 9900 2250 50  0001 C CNN
F 3 "" H 9900 2250 50  0000 C CNN
	1    9900 2250
	0    1    1    0   
$EndComp
$Comp
L Device:C C823
U 1 1 578B4160
P 7400 1150
AR Path="/5787D549/578B4160" Ref="C823"  Part="1" 
AR Path="/572C0D81/578B4160" Ref="C?"  Part="1" 
F 0 "C823" V 7500 1300 50  0000 C CNN
F 1 "10uF" V 7500 1000 50  0000 C CNN
F 2 "Capacitor_SMD:C_0603_1608Metric" H 7400 1150 50  0001 C CNN
F 3 "" H 7400 1150 50  0000 C CNN
	1    7400 1150
	1    0    0    -1  
$EndComp
$Comp
L FEAD-rescue:GND-power1 #PWR0858
U 1 1 578B41F1
P 7400 1350
AR Path="/5787D549/578B41F1" Ref="#PWR0858"  Part="1" 
AR Path="/572C0D81/578B41F1" Ref="#PWR?"  Part="1" 
F 0 "#PWR0858" H 7400 1100 50  0001 C CNN
F 1 "GND" H 7400 1200 50  0000 C CNN
F 2 "" H 7400 1350 50  0000 C CNN
F 3 "" H 7400 1350 50  0000 C CNN
	1    7400 1350
	1    0    0    -1  
$EndComp
$Comp
L Device:C C826
U 1 1 578B59DF
P 10550 1700
AR Path="/5787D549/578B59DF" Ref="C826"  Part="1" 
AR Path="/572C0D81/578B59DF" Ref="C?"  Part="1" 
F 0 "C826" V 10650 1850 50  0000 C CNN
F 1 "47uF" V 10650 1550 50  0000 C CNN
F 2 "Capacitor_SMD:C_0805_2012Metric" H 10550 1700 50  0001 C CNN
F 3 "" H 10550 1700 50  0000 C CNN
F 4 "Digi-key" V 10550 1700 60  0001 C CNN "Supplier"
F 5 "587-1779-1-ND" V 10550 1700 60  0001 C CNN "Supplier P/N"
	1    10550 1700
	1    0    0    -1  
$EndComp
$Comp
L FEAD-rescue:GND-power1 #PWR?
U 1 1 578B5AA8
P 10550 1900
AR Path="/572C0D81/578B5AA8" Ref="#PWR?"  Part="1" 
AR Path="/5787D549/578B5AA8" Ref="#PWR0875"  Part="1" 
F 0 "#PWR0875" H 10550 1650 50  0001 C CNN
F 1 "GND" H 10550 1750 50  0000 C CNN
F 2 "" H 10550 1900 50  0000 C CNN
F 3 "" H 10550 1900 50  0000 C CNN
	1    10550 1900
	1    0    0    -1  
$EndComp
$Comp
L Device:C C821
U 1 1 578C3FCB
P 7150 1150
F 0 "C821" V 7250 1300 50  0000 C CNN
F 1 "100uF" V 7250 1000 50  0000 C CNN
F 2 "Capacitor_SMD:C_1210_3225Metric" H 7150 1150 50  0001 C CNN
F 3 "" H 7150 1150 50  0000 C CNN
F 4 "Digi-key" V 7150 1150 60  0001 C CNN "Supplier"
F 5 "399-4105-1-ND" V 7150 1150 60  0001 C CNN "Supplier Part"
	1    7150 1150
	1    0    0    -1  
$EndComp
$Comp
L FEAD-rescue:GND-power1 #PWR0853
U 1 1 578C4655
P 7150 1350
F 0 "#PWR0853" H 7150 1100 50  0001 C CNN
F 1 "GND" H 7150 1200 50  0000 C CNN
F 2 "" H 7150 1350 50  0000 C CNN
F 3 "" H 7150 1350 50  0000 C CNN
	1    7150 1350
	1    0    0    -1  
$EndComp
Text Notes 9600 1200 0    60   ~ 0
2.2V:\n1.5A -> 0.6W\n3.6A(max) -> 1.5W\n3.6V:\n1.5A -> 0.6W\n3.6A(max) -> 1.5W\nUse DS LAYOUT
$Comp
L Device:R R813
U 1 1 57B18AD1
P 9600 2850
F 0 "R813" V 9680 2850 50  0000 C CNN
F 1 "22k" V 9600 2850 50  0000 C CNN
F 2 "Resistor_SMD:R_0201_0603Metric" H 9600 2850 50  0001 C CNN
F 3 "" H 9600 2850 50  0000 C CNN
	1    9600 2850
	1    0    0    -1  
$EndComp
$Comp
L Device:R R814
U 1 1 57B18BE3
P 9800 2850
F 0 "R814" V 9880 2850 50  0000 C CNN
F 1 "12k" V 9800 2850 50  0000 C CNN
F 2 "Resistor_SMD:R_0201_0603Metric" H 9800 2850 50  0001 C CNN
F 3 "" H 9800 2850 50  0000 C CNN
	1    9800 2850
	1    0    0    -1  
$EndComp
$Comp
L FEAD-rescue:+3.6V-power1 #PWR0874
U 1 1 57B1B41E
P 10550 1450
F 0 "#PWR0874" H 10550 1300 50  0001 C CNN
F 1 "+3.6V" H 10550 1590 50  0000 C CNN
F 2 "" H 10550 1450 50  0000 C CNN
F 3 "" H 10550 1450 50  0000 C CNN
	1    10550 1450
	1    0    0    -1  
$EndComp
$Comp
L Device:C C825
U 1 1 57B1B6C6
P 10300 2000
F 0 "C825" V 10400 2150 50  0000 C CNN
F 1 "47uF" V 10400 1850 50  0000 C CNN
F 2 "Capacitor_SMD:C_0805_2012Metric" H 10300 2000 50  0001 C CNN
F 3 "" H 10300 2000 50  0000 C CNN
F 4 "Digi-key" V 10300 2000 60  0001 C CNN "Supplier"
F 5 "587-1779-1-ND" V 10300 2000 60  0001 C CNN "Supplier P/N"
	1    10300 2000
	1    0    0    -1  
$EndComp
$Comp
L FEAD-rescue:GND-power1 #PWR0872
U 1 1 57B1B6CC
P 10300 2200
F 0 "#PWR0872" H 10300 1950 50  0001 C CNN
F 1 "GND" H 10300 2050 50  0000 C CNN
F 2 "" H 10300 2200 50  0000 C CNN
F 3 "" H 10300 2200 50  0000 C CNN
	1    10300 2200
	1    0    0    -1  
$EndComp
$Comp
L FEAD-rescue:+2.2V-power1 #PWR0871
U 1 1 57B1B6FE
P 10300 1750
F 0 "#PWR0871" H 10300 1600 50  0001 C CNN
F 1 "+2.2V" H 10300 1890 50  0000 C CNN
F 2 "" H 10300 1750 50  0000 C CNN
F 3 "" H 10300 1750 50  0000 C CNN
	1    10300 1750
	1    0    0    -1  
$EndComp
$Comp
L FEAD-rescue:+3.6V-power1 #PWR0873
U 1 1 57B200C6
P 10350 3700
F 0 "#PWR0873" H 10350 3550 50  0001 C CNN
F 1 "+3.6V" H 10350 3840 50  0000 C CNN
F 2 "" H 10350 3700 50  0000 C CNN
F 3 "" H 10350 3700 50  0000 C CNN
	1    10350 3700
	1    0    0    -1  
$EndComp
Text Notes 7500 2950 1    60   ~ 0
2.5Mhz
NoConn ~ 7700 2200
NoConn ~ 7700 2300
$Comp
L FEAD-rescue:+5V-power1 #PWR0851
U 1 1 57B2D2CE
P 7000 900
F 0 "#PWR0851" H 7000 750 50  0001 C CNN
F 1 "+5V" H 7000 1040 50  0000 C CNN
F 2 "" H 7000 900 50  0000 C CNN
F 3 "" H 7000 900 50  0000 C CNN
	1    7000 900 
	1    0    0    -1  
$EndComp
$Comp
L FEAD-rescue:+3.6V-power1 #PWR0807
U 1 1 57B36458
P 1050 6700
F 0 "#PWR0807" H 1050 6550 50  0001 C CNN
F 1 "+3.6V" H 1050 6840 50  0000 C CNN
F 2 "" H 1050 6700 50  0000 C CNN
F 3 "" H 1050 6700 50  0000 C CNN
	1    1050 6700
	1    0    0    -1  
$EndComp
$Comp
L FEAD-rescue:+3.6V-power1 #PWR0832
U 1 1 57B36BC2
P 4000 6600
F 0 "#PWR0832" H 4000 6450 50  0001 C CNN
F 1 "+3.6V" H 4000 6740 50  0000 C CNN
F 2 "" H 4000 6600 50  0000 C CNN
F 3 "" H 4000 6600 50  0000 C CNN
	1    4000 6600
	1    0    0    -1  
$EndComp
Wire Wire Line
	800  1425 800  1475
Wire Wire Line
	800  1875 800  1825
Wire Wire Line
	800  1475 1100 1475
Connection ~ 800  1475
Wire Wire Line
	825  2100 1050 2100
Wire Wire Line
	3500 1425 3500 1475
Wire Wire Line
	3500 1875 3500 1825
Connection ~ 3500 1475
Wire Wire Line
	3575 2100 4025 2100
Wire Wire Line
	4025 2100 4025 1725
Wire Wire Line
	4925 1200 4875 1200
Wire Wire Line
	2350 1425 2350 1475
Wire Wire Line
	2350 1875 2350 1825
Connection ~ 2350 1475
Wire Wire Line
	5500 1425 5500 1475
Wire Wire Line
	5500 1875 5500 1825
Connection ~ 5500 1475
Wire Wire Line
	1450 1875 1450 1925
Wire Wire Line
	1450 1925 1550 1925
Wire Wire Line
	1550 1925 1550 1975
Wire Wire Line
	700  3775 700  3725
Wire Wire Line
	650  3975 1100 3975
Wire Wire Line
	1100 3975 1100 3625
Wire Wire Line
	3750 3775 3750 3725
Wire Wire Line
	3700 4075 4150 4075
Wire Wire Line
	4150 4075 4150 3625
Wire Wire Line
	5100 3100 5050 3100
Wire Wire Line
	600  7550 1250 7550
Wire Wire Line
	1250 7550 1250 7100
Wire Wire Line
	3700 7450 4350 7450
Wire Wire Line
	4350 7450 4350 7200
Wire Wire Line
	1800 7350 1800 7400
Wire Wire Line
	2500 3775 2500 3725
Wire Wire Line
	9000 4600 9000 4550
Wire Wire Line
	9400 4150 9950 4150
Wire Wire Line
	9400 4250 10150 4250
Wire Wire Line
	9400 4350 10350 4350
Wire Wire Line
	9950 3650 9950 3700
Connection ~ 9950 3700
Wire Wire Line
	2625 7150 2625 7100
Wire Wire Line
	2350 7350 2350 7100
Wire Wire Line
	5900 7050 5900 7000
Wire Wire Line
	5450 6700 5700 6700
Wire Wire Line
	5450 7200 5700 7200
Connection ~ 5700 6700
Wire Wire Line
	9950 3700 10150 3700
Wire Wire Line
	5900 6700 5900 6650
Wire Wire Line
	8600 3100 8600 3200
Wire Wire Line
	7700 2600 7600 2600
Wire Wire Line
	7400 1350 7400 1300
Wire Wire Line
	7400 950  7400 1000
Wire Wire Line
	9500 1500 9600 1500
Wire Wire Line
	10550 1450 10550 1500
Wire Wire Line
	10550 1850 10550 1900
Wire Wire Line
	7150 950  7150 1000
Wire Wire Line
	7150 1350 7150 1300
Connection ~ 10550 1500
Connection ~ 7400 950 
Connection ~ 7150 950 
Wire Wire Line
	8050 4250 8600 4250
Wire Wire Line
	8750 950  8750 1200
Wire Wire Line
	8650 950  8650 1200
Connection ~ 8650 950 
Wire Wire Line
	8550 950  8550 1200
Connection ~ 8550 950 
Wire Wire Line
	8450 950  8450 1200
Connection ~ 8450 950 
Wire Wire Line
	8450 3000 8450 3100
Wire Wire Line
	7600 3100 8450 3100
Wire Wire Line
	8750 3100 8750 3000
Connection ~ 8600 3100
Wire Wire Line
	8650 3000 8650 3100
Connection ~ 8650 3100
Wire Wire Line
	8550 3000 8550 3100
Connection ~ 8550 3100
Wire Wire Line
	9500 2500 9800 2500
Wire Wire Line
	9500 2600 9600 2600
Connection ~ 8750 3100
Connection ~ 9600 3100
Wire Wire Line
	9500 1600 9600 1600
Wire Wire Line
	9600 1600 9600 1500
Connection ~ 9600 1500
Wire Wire Line
	10300 2150 10300 2200
Wire Wire Line
	9500 1800 9600 1800
Wire Wire Line
	10300 1750 10300 1800
Connection ~ 10300 1800
Wire Wire Line
	9500 1700 9600 1700
Wire Wire Line
	9600 1700 9600 1800
Connection ~ 9600 1800
Wire Wire Line
	9500 2250 9600 2250
Wire Wire Line
	9500 2350 9600 2350
Wire Wire Line
	9600 2350 9600 2250
Connection ~ 9600 2250
Wire Wire Line
	10100 2250 10100 1500
Connection ~ 10100 1500
Wire Wire Line
	9000 3550 9000 3600
Wire Wire Line
	9900 2350 9900 2500
Wire Wire Line
	9900 2500 10100 2500
Connection ~ 9600 2350
Connection ~ 8450 3100
Wire Wire Line
	1050 7150 1050 7200
Wire Wire Line
	1050 6700 1050 6800
Wire Wire Line
	1250 6800 1050 6800
Connection ~ 1050 6800
Wire Wire Line
	4000 6600 4000 6700
Wire Wire Line
	4350 6700 4000 6700
Connection ~ 4000 6700
Wire Wire Line
	5550 3750 5550 3800
$Comp
L FEAD-rescue:+2.2V-power1 #PWR0801
U 1 1 57B211C7
P 700 3325
F 0 "#PWR0801" H 700 3175 50  0001 C CNN
F 1 "+2.2V" H 700 3465 50  0000 C CNN
F 2 "" H 700 3325 50  0000 C CNN
F 3 "" H 700 3325 50  0000 C CNN
	1    700  3325
	1    0    0    -1  
$EndComp
$Comp
L FEAD-rescue:+2.2V-power1 #PWR0830
U 1 1 57B219BB
P 3750 3325
F 0 "#PWR0830" H 3750 3175 50  0001 C CNN
F 1 "+2.2V" H 3750 3465 50  0000 C CNN
F 2 "" H 3750 3325 50  0000 C CNN
F 3 "" H 3750 3325 50  0000 C CNN
	1    3750 3325
	1    0    0    -1  
$EndComp
$Comp
L FEAD-rescue:+2.2V-power1 #PWR0805
U 1 1 57B21A7F
P 800 1425
F 0 "#PWR0805" H 800 1275 50  0001 C CNN
F 1 "+2.2V" H 800 1565 50  0000 C CNN
F 2 "" H 800 1425 50  0000 C CNN
F 3 "" H 800 1425 50  0000 C CNN
	1    800  1425
	1    0    0    -1  
$EndComp
$Comp
L FEAD-rescue:+2.2V-power1 #PWR0828
U 1 1 57B21B68
P 3500 1425
F 0 "#PWR0828" H 3500 1275 50  0001 C CNN
F 1 "+2.2V" H 3500 1565 50  0000 C CNN
F 2 "" H 3500 1425 50  0000 C CNN
F 3 "" H 3500 1425 50  0000 C CNN
	1    3500 1425
	1    0    0    -1  
$EndComp
$Comp
L FEAD-rescue:+2.2V-power1 #PWR0870
U 1 1 57B2208E
P 9950 3650
F 0 "#PWR0870" H 9950 3500 50  0001 C CNN
F 1 "+2.2V" H 9950 3790 50  0000 C CNN
F 2 "" H 9950 3650 50  0000 C CNN
F 3 "" H 9950 3650 50  0000 C CNN
	1    9950 3650
	1    0    0    -1  
$EndComp
Wire Wire Line
	4000 7100 4000 7050
NoConn ~ 9500 1950
NoConn ~ 9500 2050
$Comp
L Device:C C822
U 1 1 57B3B9B3
P 7250 2700
F 0 "C822" V 7350 2850 50  0000 C CNN
F 1 "100nF" V 7350 2550 50  0000 C CNN
F 2 "Capacitor_SMD:C_0201_0603Metric" H 7250 2700 50  0001 C CNN
F 3 "" H 7250 2700 50  0000 C CNN
	1    7250 2700
	1    0    0    -1  
$EndComp
$Comp
L Device:C C820
U 1 1 57B3BAED
P 7050 2700
F 0 "C820" V 7150 2850 50  0000 C CNN
F 1 "100nF" V 7150 2550 50  0000 C CNN
F 2 "Capacitor_SMD:C_0201_0603Metric" H 7050 2700 50  0001 C CNN
F 3 "" H 7050 2700 50  0000 C CNN
	1    7050 2700
	1    0    0    -1  
$EndComp
Wire Wire Line
	7050 2550 7050 2400
Wire Wire Line
	7050 2400 7700 2400
Wire Wire Line
	7250 2550 7250 2500
Wire Wire Line
	7250 2500 7700 2500
$Comp
L FEAD-rescue:GND-power1 #PWR0852
U 1 1 57B3BE2F
P 7050 2950
F 0 "#PWR0852" H 7050 2700 50  0001 C CNN
F 1 "GND" H 7050 2800 50  0000 C CNN
F 2 "" H 7050 2950 50  0000 C CNN
F 3 "" H 7050 2950 50  0000 C CNN
	1    7050 2950
	1    0    0    -1  
$EndComp
$Comp
L FEAD-rescue:GND-power1 #PWR0854
U 1 1 57B3BEAF
P 7250 2950
F 0 "#PWR0854" H 7250 2700 50  0001 C CNN
F 1 "GND" H 7250 2800 50  0000 C CNN
F 2 "" H 7250 2950 50  0000 C CNN
F 3 "" H 7250 2950 50  0000 C CNN
	1    7250 2950
	1    0    0    -1  
$EndComp
Wire Wire Line
	7050 2950 7050 2850
Wire Wire Line
	7250 2950 7250 2850
Connection ~ 7600 950 
Wire Wire Line
	7700 1600 7600 1600
Wire Wire Line
	7600 1600 7600 1500
Wire Wire Line
	7700 1500 7600 1500
Connection ~ 7600 1500
Wire Wire Line
	7000 950  7000 900 
Wire Wire Line
	7000 950  7150 950 
$Comp
L Device:C C824
U 1 1 57B9149B
P 9400 3750
F 0 "C824" V 9500 3900 50  0000 C CNN
F 1 "100nF" V 9500 3600 50  0000 C CNN
F 2 "Capacitor_SMD:C_0201_0603Metric" H 9400 3750 50  0001 C CNN
F 3 "" H 9400 3750 50  0000 C CNN
	1    9400 3750
	1    0    0    -1  
$EndComp
$Comp
L FEAD-rescue:GND-power1 #PWR0869
U 1 1 57B91898
P 9400 3900
F 0 "#PWR0869" H 9400 3650 50  0001 C CNN
F 1 "GND" H 9400 3750 50  0000 C CNN
F 2 "" H 9400 3900 50  0000 C CNN
F 3 "" H 9400 3900 50  0000 C CNN
	1    9400 3900
	1    0    0    -1  
$EndComp
Wire Wire Line
	9400 3600 9000 3600
Connection ~ 9000 3600
$Comp
L FEAD-rescue:+3.6V-power1 #PWR0837
U 1 1 57BB4582
P 4650 3025
F 0 "#PWR0837" H 4650 2875 50  0001 C CNN
F 1 "+3.6V" H 4650 3165 50  0000 C CNN
F 2 "" H 4650 3025 50  0000 C CNN
F 3 "" H 4650 3025 50  0000 C CNN
	1    4650 3025
	1    0    0    -1  
$EndComp
$Comp
L FEAD-rescue:+3.6V-power1 #PWR0835
U 1 1 57BB4A14
P 4525 1125
F 0 "#PWR0835" H 4525 975 50  0001 C CNN
F 1 "+3.6V" H 4525 1275 50  0000 C CNN
F 2 "" H 4525 1125 50  0000 C CNN
F 3 "" H 4525 1125 50  0000 C CNN
	1    4525 1125
	1    0    0    -1  
$EndComp
Wire Wire Line
	800  1475 800  1525
Wire Wire Line
	3500 1475 3500 1525
Wire Wire Line
	2350 1475 2350 1525
Wire Wire Line
	5500 1475 5500 1525
Wire Wire Line
	5700 6700 5900 6700
Wire Wire Line
	10550 1500 10550 1550
Wire Wire Line
	7400 950  7600 950 
Wire Wire Line
	7150 950  7400 950 
Wire Wire Line
	8650 950  8750 950 
Wire Wire Line
	8550 950  8650 950 
Wire Wire Line
	8450 950  8550 950 
Wire Wire Line
	8600 3100 8650 3100
Wire Wire Line
	8650 3100 8750 3100
Wire Wire Line
	8550 3100 8600 3100
Wire Wire Line
	8750 3100 9600 3100
Wire Wire Line
	9600 3100 9800 3100
Wire Wire Line
	9600 1500 10100 1500
Wire Wire Line
	10300 1800 10300 1850
Wire Wire Line
	9600 1800 10300 1800
Wire Wire Line
	10100 1500 10550 1500
Wire Wire Line
	9600 2350 9900 2350
Wire Wire Line
	8450 3100 8550 3100
Wire Wire Line
	1050 6800 1050 6850
Wire Wire Line
	4000 6700 4000 6750
Wire Wire Line
	7600 950  8450 950 
Wire Wire Line
	7600 1500 7600 950 
Wire Wire Line
	9600 3000 9600 3100
Wire Wire Line
	9800 3000 9800 3100
Wire Wire Line
	9800 2500 9800 2700
Wire Wire Line
	9600 2600 9600 2700
Wire Wire Line
	9600 2250 9750 2250
Wire Wire Line
	10050 2250 10100 2250
Wire Wire Line
	7600 2950 7600 3100
Wire Wire Line
	7600 2650 7600 2600
Wire Wire Line
	9950 3700 9950 3800
Wire Wire Line
	10150 3700 10150 3800
Wire Wire Line
	10350 3700 10350 3800
Wire Wire Line
	10350 4100 10350 4350
Wire Wire Line
	10150 4100 10150 4250
Wire Wire Line
	9950 4100 9950 4150
Wire Wire Line
	5700 6700 5700 6800
$Comp
L MDJ_compo:MIC47100 U801
U 1 1 5BDC1144
P 1550 1575
F 0 "U801" H 1300 1825 50  0000 C CNN
F 1 "MIC47100" H 1800 1825 50  0000 C CNN
F 2 "Package_SO:MSOP-8-1EP_3x3mm_P0.65mm_EP1.68x1.88mm" H 1550 1425 50  0001 C CNN
F 3 "http://ww1.microchip.com/downloads/en/DeviceDoc/mic47100.pdf" H 1550 1425 50  0001 C CNN
	1    1550 1575
	1    0    0    -1  
$EndComp
Wire Wire Line
	1550 1925 1550 1875
Connection ~ 1550 1925
Wire Wire Line
	1050 1725 1150 1725
Wire Wire Line
	1050 1725 1050 2100
Wire Wire Line
	1950 1475 2000 1475
Wire Wire Line
	1950 1575 2000 1575
Wire Wire Line
	2000 1575 2000 1475
Connection ~ 2000 1475
Wire Wire Line
	2000 1475 2150 1475
Wire Wire Line
	1100 1475 1100 1575
Wire Wire Line
	1100 1575 1150 1575
Connection ~ 1100 1475
Wire Wire Line
	1100 1475 1150 1475
$Comp
L FEAD-rescue:+3.6V-power1 #PWR0809
U 1 1 5BE203A9
P 1550 1175
F 0 "#PWR0809" H 1550 1025 50  0001 C CNN
F 1 "+3.6V" H 1550 1315 50  0000 C CNN
F 2 "" H 1550 1175 50  0000 C CNN
F 3 "" H 1550 1175 50  0000 C CNN
	1    1550 1175
	1    0    0    -1  
$EndComp
$Comp
L Device:R R801
U 1 1 5BE21617
P 2150 1625
F 0 "R801" V 2230 1625 50  0000 C CNN
F 1 "470" V 2150 1625 50  0000 C CNN
F 2 "Resistor_SMD:R_0201_0603Metric" H 2150 1625 50  0001 C CNN
F 3 "" H 2150 1625 50  0000 C CNN
	1    2150 1625
	1    0    0    -1  
$EndComp
Connection ~ 2150 1475
Wire Wire Line
	2150 1475 2350 1475
$Comp
L Device:R R802
U 1 1 5BE218BD
P 2150 1925
F 0 "R802" V 2230 1925 50  0000 C CNN
F 1 "1.07k" V 2150 1925 50  0000 C CNN
F 2 "Resistor_SMD:R_0402_1005Metric" H 2150 1925 50  0001 C CNN
F 3 "" H 2150 1925 50  0000 C CNN
	1    2150 1925
	1    0    0    -1  
$EndComp
$Comp
L FEAD-rescue:GND-power1 #PWR0819
U 1 1 5BE219CD
P 2150 2075
AR Path="/5787D549/5BE219CD" Ref="#PWR0819"  Part="1" 
AR Path="/572C0D81/5BE219CD" Ref="#PWR?"  Part="1" 
F 0 "#PWR0819" H 2150 1825 50  0001 C CNN
F 1 "GND" H 2150 1925 50  0000 C CNN
F 2 "" H 2150 2075 50  0000 C CNN
F 3 "" H 2150 2075 50  0000 C CNN
	1    2150 2075
	1    0    0    -1  
$EndComp
Wire Wire Line
	1950 1675 1950 1775
Wire Wire Line
	1950 1775 2150 1775
Connection ~ 2150 1775
Text Notes 4275 1600 0    100  ~ 0
\n
$Comp
L FEAD-rescue:GND-power1 #PWR0836
U 1 1 5BE2E4E1
P 4525 1975
AR Path="/5787D549/5BE2E4E1" Ref="#PWR0836"  Part="1" 
AR Path="/572C0D81/5BE2E4E1" Ref="#PWR?"  Part="1" 
F 0 "#PWR0836" H 4525 1725 50  0001 C CNN
F 1 "GND" H 4525 1825 50  0000 C CNN
F 2 "" H 4525 1975 50  0000 C CNN
F 3 "" H 4525 1975 50  0000 C CNN
	1    4525 1975
	1    0    0    -1  
$EndComp
Wire Wire Line
	4425 1875 4425 1925
Wire Wire Line
	4425 1925 4525 1925
Wire Wire Line
	4525 1925 4525 1975
$Comp
L MDJ_compo:MIC47100 U805
U 1 1 5BE2E4EB
P 4525 1575
F 0 "U805" H 4275 1825 50  0000 C CNN
F 1 "MIC47100" H 4775 1825 50  0000 C CNN
F 2 "Package_SO:MSOP-8-1EP_3x3mm_P0.65mm_EP1.68x1.88mm" H 4525 1425 50  0001 C CNN
F 3 "http://ww1.microchip.com/downloads/en/DeviceDoc/mic47100.pdf" H 4525 1425 50  0001 C CNN
	1    4525 1575
	1    0    0    -1  
$EndComp
Wire Wire Line
	4525 1925 4525 1875
Connection ~ 4525 1925
Wire Wire Line
	4025 1725 4125 1725
Wire Wire Line
	4925 1475 4975 1475
Wire Wire Line
	4925 1575 4975 1575
Wire Wire Line
	4975 1575 4975 1475
Connection ~ 4975 1475
Wire Wire Line
	4975 1475 5125 1475
Wire Wire Line
	4075 1475 4075 1575
Wire Wire Line
	4075 1575 4125 1575
Connection ~ 4075 1475
Wire Wire Line
	4075 1475 4125 1475
$Comp
L Device:R R807
U 1 1 5BE2E4FD
P 5125 1625
F 0 "R807" V 5205 1625 50  0000 C CNN
F 1 "470" V 5125 1625 50  0000 C CNN
F 2 "Resistor_SMD:R_0201_0603Metric" H 5125 1625 50  0001 C CNN
F 3 "" H 5125 1625 50  0000 C CNN
	1    5125 1625
	1    0    0    -1  
$EndComp
Connection ~ 5125 1475
$Comp
L Device:R R808
U 1 1 5BE2E505
P 5125 1925
F 0 "R808" V 5205 1925 50  0000 C CNN
F 1 "1.07k" V 5125 1925 50  0000 C CNN
F 2 "Resistor_SMD:R_0402_1005Metric" H 5125 1925 50  0001 C CNN
F 3 "" H 5125 1925 50  0000 C CNN
	1    5125 1925
	1    0    0    -1  
$EndComp
$Comp
L FEAD-rescue:GND-power1 #PWR0843
U 1 1 5BE2E50B
P 5125 2075
AR Path="/5787D549/5BE2E50B" Ref="#PWR0843"  Part="1" 
AR Path="/572C0D81/5BE2E50B" Ref="#PWR?"  Part="1" 
F 0 "#PWR0843" H 5125 1825 50  0001 C CNN
F 1 "GND" H 5125 1925 50  0000 C CNN
F 2 "" H 5125 2075 50  0000 C CNN
F 3 "" H 5125 2075 50  0000 C CNN
	1    5125 2075
	1    0    0    -1  
$EndComp
Wire Wire Line
	4925 1675 4925 1775
Wire Wire Line
	4925 1775 5125 1775
Connection ~ 5125 1775
Wire Wire Line
	3500 1475 4075 1475
Wire Wire Line
	4525 1200 4525 1275
Wire Wire Line
	4525 1200 4575 1200
Wire Wire Line
	4525 1200 4525 1125
Connection ~ 4525 1200
$Comp
L Device:C C805
U 1 1 5BE95EFF
P 1750 1200
AR Path="/5787D549/5BE95EFF" Ref="C805"  Part="1" 
AR Path="/572C0D81/5BE95EFF" Ref="C?"  Part="1" 
F 0 "C805" V 1700 1075 50  0000 C CNN
F 1 "100nF" V 1800 1050 50  0000 C CNN
F 2 "Capacitor_SMD:C_0201_0603Metric" H 1750 1200 50  0001 C CNN
F 3 "" H 1750 1200 50  0000 C CNN
	1    1750 1200
	0    -1   -1   0   
$EndComp
$Comp
L FEAD-rescue:GND-power1 #PWR0816
U 1 1 5BE95F05
P 1950 1200
AR Path="/5787D549/5BE95F05" Ref="#PWR0816"  Part="1" 
AR Path="/572C0D81/5BE95F05" Ref="#PWR?"  Part="1" 
F 0 "#PWR0816" H 1950 950 50  0001 C CNN
F 1 "GND" H 1950 1050 50  0000 C CNN
F 2 "" H 1950 1200 50  0000 C CNN
F 3 "" H 1950 1200 50  0000 C CNN
	1    1950 1200
	0    -1   -1   0   
$EndComp
Wire Wire Line
	1950 1200 1900 1200
Wire Wire Line
	1550 1175 1550 1200
Wire Wire Line
	1600 1200 1550 1200
Connection ~ 1550 1200
Wire Wire Line
	1550 1200 1550 1275
Wire Wire Line
	700  3325 700  3375
Wire Wire Line
	2500 3325 2500 3375
Text Notes 1350 3500 0    100  ~ 0
\n
$Comp
L FEAD-rescue:GND-power1 #PWR0812
U 1 1 5BF0E27B
P 1600 3875
AR Path="/5787D549/5BF0E27B" Ref="#PWR0812"  Part="1" 
AR Path="/572C0D81/5BF0E27B" Ref="#PWR?"  Part="1" 
F 0 "#PWR0812" H 1600 3625 50  0001 C CNN
F 1 "GND" H 1600 3725 50  0000 C CNN
F 2 "" H 1600 3875 50  0000 C CNN
F 3 "" H 1600 3875 50  0000 C CNN
	1    1600 3875
	1    0    0    -1  
$EndComp
Wire Wire Line
	1500 3775 1500 3825
Wire Wire Line
	1500 3825 1600 3825
Wire Wire Line
	1600 3825 1600 3875
$Comp
L MDJ_compo:MIC47100 U802
U 1 1 5BF0E285
P 1600 3475
F 0 "U802" H 1350 3725 50  0000 C CNN
F 1 "MIC47100" H 1850 3725 50  0000 C CNN
F 2 "Package_SO:MSOP-8-1EP_3x3mm_P0.65mm_EP1.68x1.88mm" H 1600 3325 50  0001 C CNN
F 3 "http://ww1.microchip.com/downloads/en/DeviceDoc/mic47100.pdf" H 1600 3325 50  0001 C CNN
	1    1600 3475
	1    0    0    -1  
$EndComp
Wire Wire Line
	1600 3825 1600 3775
Connection ~ 1600 3825
Wire Wire Line
	1100 3625 1200 3625
Wire Wire Line
	2000 3375 2050 3375
Wire Wire Line
	2000 3475 2050 3475
Wire Wire Line
	2050 3475 2050 3375
Connection ~ 2050 3375
Wire Wire Line
	2050 3375 2200 3375
Wire Wire Line
	1150 3375 1150 3475
Wire Wire Line
	1150 3475 1200 3475
Connection ~ 1150 3375
Wire Wire Line
	1150 3375 1200 3375
$Comp
L Device:R R803
U 1 1 5BF0E29D
P 2200 3825
F 0 "R803" V 2280 3825 50  0000 C CNN
F 1 "1.4k" V 2200 3825 50  0000 C CNN
F 2 "Resistor_SMD:R_0402_1005Metric" H 2200 3825 50  0001 C CNN
F 3 "" H 2200 3825 50  0000 C CNN
	1    2200 3825
	1    0    0    -1  
$EndComp
Connection ~ 2200 3375
$Comp
L Device:R R804
U 1 1 5BF0E2A5
P 2200 3525
F 0 "R804" V 2280 3525 50  0000 C CNN
F 1 "2.2k" V 2200 3525 50  0000 C CNN
F 2 "Resistor_SMD:R_0201_0603Metric" H 2200 3525 50  0001 C CNN
F 3 "" H 2200 3525 50  0000 C CNN
	1    2200 3525
	1    0    0    -1  
$EndComp
$Comp
L FEAD-rescue:GND-power1 #PWR0820
U 1 1 5BF0E2AB
P 2200 3975
AR Path="/5787D549/5BF0E2AB" Ref="#PWR0820"  Part="1" 
AR Path="/572C0D81/5BF0E2AB" Ref="#PWR?"  Part="1" 
F 0 "#PWR0820" H 2200 3725 50  0001 C CNN
F 1 "GND" H 2200 3825 50  0000 C CNN
F 2 "" H 2200 3975 50  0000 C CNN
F 3 "" H 2200 3975 50  0000 C CNN
	1    2200 3975
	1    0    0    -1  
$EndComp
Wire Wire Line
	2000 3575 2000 3675
Wire Wire Line
	2000 3675 2200 3675
Connection ~ 2200 3675
$Comp
L Device:C C806
U 1 1 5BF0E2B4
P 1800 3100
AR Path="/5787D549/5BF0E2B4" Ref="C806"  Part="1" 
AR Path="/572C0D81/5BF0E2B4" Ref="C?"  Part="1" 
F 0 "C806" V 1750 2975 50  0000 C CNN
F 1 "100nF" V 1850 2950 50  0000 C CNN
F 2 "Capacitor_SMD:C_0201_0603Metric" H 1800 3100 50  0001 C CNN
F 3 "" H 1800 3100 50  0000 C CNN
	1    1800 3100
	0    -1   -1   0   
$EndComp
$Comp
L FEAD-rescue:GND-power1 #PWR0817
U 1 1 5BF0E2BA
P 2000 3100
AR Path="/5787D549/5BF0E2BA" Ref="#PWR0817"  Part="1" 
AR Path="/572C0D81/5BF0E2BA" Ref="#PWR?"  Part="1" 
F 0 "#PWR0817" H 2000 2850 50  0001 C CNN
F 1 "GND" H 2000 2950 50  0000 C CNN
F 2 "" H 2000 3100 50  0000 C CNN
F 3 "" H 2000 3100 50  0000 C CNN
	1    2000 3100
	0    -1   -1   0   
$EndComp
Wire Wire Line
	2000 3100 1950 3100
Wire Wire Line
	1600 3075 1600 3100
Wire Wire Line
	1650 3100 1600 3100
Connection ~ 1600 3100
Wire Wire Line
	1600 3100 1600 3175
Wire Wire Line
	700  3375 1150 3375
Connection ~ 700  3375
Wire Wire Line
	700  3375 700  3425
Wire Wire Line
	2200 3375 2500 3375
Connection ~ 2500 3375
Wire Wire Line
	2500 3375 2500 3425
Wire Wire Line
	3750 3325 3750 3375
Wire Wire Line
	5550 3325 5550 3375
Text Notes 4400 3500 0    100  ~ 0
\n
$Comp
L FEAD-rescue:GND-power1 #PWR0838
U 1 1 5BF5E93F
P 4650 3875
AR Path="/5787D549/5BF5E93F" Ref="#PWR0838"  Part="1" 
AR Path="/572C0D81/5BF5E93F" Ref="#PWR?"  Part="1" 
F 0 "#PWR0838" H 4650 3625 50  0001 C CNN
F 1 "GND" H 4650 3725 50  0000 C CNN
F 2 "" H 4650 3875 50  0000 C CNN
F 3 "" H 4650 3875 50  0000 C CNN
	1    4650 3875
	1    0    0    -1  
$EndComp
Wire Wire Line
	4550 3775 4550 3825
Wire Wire Line
	4550 3825 4650 3825
Wire Wire Line
	4650 3825 4650 3875
$Comp
L MDJ_compo:MIC47100 U806
U 1 1 5BF5E948
P 4650 3475
F 0 "U806" H 4400 3725 50  0000 C CNN
F 1 "MIC47100" H 4900 3725 50  0000 C CNN
F 2 "Package_SO:MSOP-8-1EP_3x3mm_P0.65mm_EP1.68x1.88mm" H 4650 3325 50  0001 C CNN
F 3 "http://ww1.microchip.com/downloads/en/DeviceDoc/mic47100.pdf" H 4650 3325 50  0001 C CNN
	1    4650 3475
	1    0    0    -1  
$EndComp
Wire Wire Line
	4650 3825 4650 3775
Connection ~ 4650 3825
Wire Wire Line
	4150 3625 4250 3625
Wire Wire Line
	5050 3375 5100 3375
Wire Wire Line
	5050 3475 5100 3475
Wire Wire Line
	5100 3475 5100 3375
Connection ~ 5100 3375
Wire Wire Line
	5100 3375 5250 3375
Wire Wire Line
	4200 3375 4200 3475
Wire Wire Line
	4200 3475 4250 3475
Connection ~ 4200 3375
Wire Wire Line
	4200 3375 4250 3375
$Comp
L Device:R R809
U 1 1 5BF5E95A
P 5250 3525
F 0 "R809" V 5330 3525 50  0000 C CNN
F 1 "1k" V 5250 3525 50  0000 C CNN
F 2 "Resistor_SMD:R_0201_0603Metric" H 5250 3525 50  0001 C CNN
F 3 "" H 5250 3525 50  0000 C CNN
	1    5250 3525
	1    0    0    -1  
$EndComp
Connection ~ 5250 3375
$Comp
L Device:R R810
U 1 1 5BF5E961
P 5250 3825
F 0 "R810" V 5330 3825 50  0000 C CNN
F 1 "1.4k" V 5250 3825 50  0000 C CNN
F 2 "Resistor_SMD:R_0402_1005Metric" H 5250 3825 50  0001 C CNN
F 3 "" H 5250 3825 50  0000 C CNN
	1    5250 3825
	1    0    0    -1  
$EndComp
$Comp
L FEAD-rescue:GND-power1 #PWR0844
U 1 1 5BF5E967
P 5250 3975
AR Path="/5787D549/5BF5E967" Ref="#PWR0844"  Part="1" 
AR Path="/572C0D81/5BF5E967" Ref="#PWR?"  Part="1" 
F 0 "#PWR0844" H 5250 3725 50  0001 C CNN
F 1 "GND" H 5250 3825 50  0000 C CNN
F 2 "" H 5250 3975 50  0000 C CNN
F 3 "" H 5250 3975 50  0000 C CNN
	1    5250 3975
	1    0    0    -1  
$EndComp
Wire Wire Line
	5050 3575 5050 3675
Wire Wire Line
	5050 3675 5250 3675
Connection ~ 5250 3675
Wire Wire Line
	3750 3375 4200 3375
Wire Wire Line
	5250 3375 5550 3375
Connection ~ 3750 3375
Wire Wire Line
	3750 3375 3750 3425
Connection ~ 5550 3375
Wire Wire Line
	5550 3375 5550 3450
Wire Wire Line
	4650 3100 4750 3100
Wire Wire Line
	4650 3025 4650 3100
Wire Wire Line
	4650 3100 4650 3175
Connection ~ 4650 3100
Wire Wire Line
	5700 7100 5700 7200
Connection ~ 5900 6700
Text Notes 1075 4625 0    60   ~ 0
1V2\nVCC0 for VFE and FE IO
$Comp
L Device:C C802
U 1 1 5BBE71EB
P 700 5400
AR Path="/5787D549/5BBE71EB" Ref="C802"  Part="1" 
AR Path="/572C0D81/5BBE71EB" Ref="C?"  Part="1" 
F 0 "C802" V 800 5550 50  0000 C CNN
F 1 "10uF" V 800 5250 50  0000 C CNN
F 2 "Capacitor_SMD:C_0402_1005Metric" H 700 5400 50  0001 C CNN
F 3 "" H 700 5400 50  0000 C CNN
	1    700  5400
	1    0    0    -1  
$EndComp
$Comp
L FEAD-rescue:GND-power1 #PWR0804
U 1 1 5BBE71F1
P 700 5600
AR Path="/5787D549/5BBE71F1" Ref="#PWR0804"  Part="1" 
AR Path="/572C0D81/5BBE71F1" Ref="#PWR?"  Part="1" 
F 0 "#PWR0804" H 700 5350 50  0001 C CNN
F 1 "GND" H 700 5450 50  0000 C CNN
F 2 "" H 700 5600 50  0000 C CNN
F 3 "" H 700 5600 50  0000 C CNN
	1    700  5600
	1    0    0    -1  
$EndComp
Text Label 1050 5900 2    60   ~ 0
PWRUP_3
$Comp
L Device:C C807
U 1 1 5BBE71F8
P 1850 4925
AR Path="/5787D549/5BBE71F8" Ref="C807"  Part="1" 
AR Path="/572C0D81/5BBE71F8" Ref="C?"  Part="1" 
F 0 "C807" V 1950 5075 50  0000 C CNN
F 1 "100nF" V 1950 4775 50  0000 C CNN
F 2 "Capacitor_SMD:C_0201_0603Metric" H 1850 4925 50  0001 C CNN
F 3 "" H 1850 4925 50  0000 C CNN
	1    1850 4925
	0    -1   -1   0   
$EndComp
$Comp
L FEAD-rescue:GND-power1 #PWR0818
U 1 1 5BBE71FE
P 2050 4925
AR Path="/5787D549/5BBE71FE" Ref="#PWR0818"  Part="1" 
AR Path="/572C0D81/5BBE71FE" Ref="#PWR?"  Part="1" 
F 0 "#PWR0818" H 2050 4675 50  0001 C CNN
F 1 "GND" H 2050 4775 50  0000 C CNN
F 2 "" H 2050 4925 50  0000 C CNN
F 3 "" H 2050 4925 50  0000 C CNN
	1    2050 4925
	0    -1   -1   0   
$EndComp
$Comp
L Device:C C810
U 1 1 5BBE7204
P 2500 5425
AR Path="/5787D549/5BBE7204" Ref="C810"  Part="1" 
AR Path="/572C0D81/5BBE7204" Ref="C?"  Part="1" 
F 0 "C810" V 2700 5425 50  0000 C CNN
F 1 "10uF" V 2600 5275 50  0000 C CNN
F 2 "Capacitor_SMD:C_0402_1005Metric" H 2500 5425 50  0001 C CNN
F 3 "" H 2500 5425 50  0000 C CNN
	1    2500 5425
	1    0    0    -1  
$EndComp
$Comp
L FEAD-rescue:GND-power1 #PWR0826
U 1 1 5BBE720A
P 2500 5625
AR Path="/5787D549/5BBE720A" Ref="#PWR0826"  Part="1" 
AR Path="/572C0D81/5BBE720A" Ref="#PWR?"  Part="1" 
F 0 "#PWR0826" H 2500 5375 50  0001 C CNN
F 1 "GND" H 2500 5475 50  0000 C CNN
F 2 "" H 2500 5625 50  0000 C CNN
F 3 "" H 2500 5625 50  0000 C CNN
	1    2500 5625
	1    0    0    -1  
$EndComp
Wire Wire Line
	700  5600 700  5550
Wire Wire Line
	650  5900 1100 5900
Wire Wire Line
	1100 5900 1100 5450
Wire Wire Line
	2050 4925 2000 4925
Wire Wire Line
	2500 5575 2500 5625
$Comp
L FEAD-rescue:+2.2V-power1 #PWR0803
U 1 1 5BBE7239
P 700 5150
F 0 "#PWR0803" H 700 5000 50  0001 C CNN
F 1 "+2.2V" H 700 5290 50  0000 C CNN
F 2 "" H 700 5150 50  0000 C CNN
F 3 "" H 700 5150 50  0000 C CNN
	1    700  5150
	1    0    0    -1  
$EndComp
$Comp
L FEAD-rescue:+3.6V-power1 #PWR0813
U 1 1 5BBE723F
P 1600 4850
F 0 "#PWR0813" H 1600 4700 50  0001 C CNN
F 1 "+3.6V" H 1600 4990 50  0000 C CNN
F 2 "" H 1600 4850 50  0000 C CNN
F 3 "" H 1600 4850 50  0000 C CNN
	1    1600 4850
	1    0    0    -1  
$EndComp
Wire Wire Line
	700  5150 700  5200
Text Notes 1350 5325 0    100  ~ 0
\n
$Comp
L FEAD-rescue:GND-power1 #PWR0814
U 1 1 5BBE7299
P 1600 5700
AR Path="/5787D549/5BBE7299" Ref="#PWR0814"  Part="1" 
AR Path="/572C0D81/5BBE7299" Ref="#PWR?"  Part="1" 
F 0 "#PWR0814" H 1600 5450 50  0001 C CNN
F 1 "GND" H 1600 5550 50  0000 C CNN
F 2 "" H 1600 5700 50  0000 C CNN
F 3 "" H 1600 5700 50  0000 C CNN
	1    1600 5700
	1    0    0    -1  
$EndComp
Wire Wire Line
	1500 5600 1500 5650
Wire Wire Line
	1500 5650 1600 5650
Wire Wire Line
	1600 5650 1600 5700
$Comp
L MDJ_compo:MIC47100 U803
U 1 1 5BBE72A2
P 1600 5300
F 0 "U803" H 1350 5550 50  0000 C CNN
F 1 "MIC47100" H 1850 5550 50  0000 C CNN
F 2 "Package_SO:MSOP-8-1EP_3x3mm_P0.65mm_EP1.68x1.88mm" H 1600 5150 50  0001 C CNN
F 3 "http://ww1.microchip.com/downloads/en/DeviceDoc/mic47100.pdf" H 1600 5150 50  0001 C CNN
	1    1600 5300
	1    0    0    -1  
$EndComp
Wire Wire Line
	1600 5650 1600 5600
Connection ~ 1600 5650
Wire Wire Line
	1100 5450 1200 5450
Wire Wire Line
	2000 5200 2050 5200
Wire Wire Line
	2000 5300 2050 5300
Wire Wire Line
	2050 5300 2050 5200
Connection ~ 2050 5200
Wire Wire Line
	2050 5200 2200 5200
Wire Wire Line
	1150 5200 1150 5300
Wire Wire Line
	1150 5300 1200 5300
Connection ~ 1150 5200
Wire Wire Line
	1150 5200 1200 5200
$Comp
L Device:R R805
U 1 1 5BBE72B4
P 2200 5350
F 0 "R805" V 2280 5350 50  0000 C CNN
F 1 "1k" V 2200 5350 50  0000 C CNN
F 2 "Resistor_SMD:R_0201_0603Metric" H 2200 5350 50  0001 C CNN
F 3 "" H 2200 5350 50  0000 C CNN
	1    2200 5350
	1    0    0    -1  
$EndComp
Connection ~ 2200 5200
$Comp
L Device:R R806
U 1 1 5BBE72BB
P 2200 5650
F 0 "R806" V 2280 5650 50  0000 C CNN
F 1 "1.4k" V 2200 5650 50  0000 C CNN
F 2 "Resistor_SMD:R_0402_1005Metric" H 2200 5650 50  0001 C CNN
F 3 "" H 2200 5650 50  0000 C CNN
	1    2200 5650
	1    0    0    -1  
$EndComp
$Comp
L FEAD-rescue:GND-power1 #PWR0821
U 1 1 5BBE72C1
P 2200 5800
AR Path="/5787D549/5BBE72C1" Ref="#PWR0821"  Part="1" 
AR Path="/572C0D81/5BBE72C1" Ref="#PWR?"  Part="1" 
F 0 "#PWR0821" H 2200 5550 50  0001 C CNN
F 1 "GND" H 2200 5650 50  0000 C CNN
F 2 "" H 2200 5800 50  0000 C CNN
F 3 "" H 2200 5800 50  0000 C CNN
	1    2200 5800
	1    0    0    -1  
$EndComp
Wire Wire Line
	2000 5400 2000 5500
Wire Wire Line
	2000 5500 2200 5500
Connection ~ 2200 5500
Wire Wire Line
	700  5200 1150 5200
Wire Wire Line
	2200 5200 2500 5200
Connection ~ 700  5200
Wire Wire Line
	700  5200 700  5250
Connection ~ 2500 5200
Wire Wire Line
	2500 5200 2500 5275
Wire Wire Line
	1600 4925 1700 4925
Wire Wire Line
	1600 4850 1600 4925
Wire Wire Line
	1600 4925 1600 5000
Connection ~ 1600 4925
$Comp
L MDJ_compo:VccO_VFE #PWR0856
U 1 1 5D38A725
P 2500 5150
F 0 "#PWR0856" H 2500 5000 50  0001 C CNN
F 1 "VccO_VFE" H 2500 5300 50  0000 C CNN
F 2 "" H 2500 5150 50  0000 C CNN
F 3 "" H 2500 5150 50  0000 C CNN
	1    2500 5150
	1    0    0    -1  
$EndComp
$Comp
L FEAD-rescue:+3.6V-power1 #PWR0866
U 1 1 5D3D8000
P 9000 3550
F 0 "#PWR0866" H 9000 3400 50  0001 C CNN
F 1 "+3.6V" H 9000 3690 50  0000 C CNN
F 2 "" H 9000 3550 50  0000 C CNN
F 3 "" H 9000 3550 50  0000 C CNN
	1    9000 3550
	1    0    0    -1  
$EndComp
Wire Wire Line
	5125 1475 5500 1475
$Comp
L FEAD-rescue:LTM4622-MDJ_compo U808
U 1 1 5E80794C
P 8600 2100
F 0 "U808" H 8600 2150 60  0000 C CNN
F 1 "LTM4622" H 8600 2250 60  0000 C CNN
F 2 "Package_BGA:BGA-25_6.35x6.35mm_Layout5x5_P1.27mm" H 8600 2100 60  0001 C CNN
F 3 "" H 8600 2100 60  0000 C CNN
	1    8600 2100
	1    0    0    -1  
$EndComp
Wire Wire Line
	9000 3600 9000 3950
Wire Wire Line
	2500 5200 2500 5150
Wire Wire Line
	2350 6800 2625 6800
Connection ~ 2625 6800
Wire Wire Line
	2625 6800 2625 6750
$Comp
L MDJ_compo:VccO_FE #PWR0113
U 1 1 5CA6E5EA
P 2875 5175
F 0 "#PWR0113" H 2875 5025 50  0001 C CNN
F 1 "VccO_FE" H 2890 5348 50  0000 C CNN
F 2 "" H 2875 5175 50  0000 C CNN
F 3 "" H 2875 5175 50  0000 C CNN
	1    2875 5175
	1    0    0    -1  
$EndComp
Wire Wire Line
	2500 5200 2875 5200
Wire Wire Line
	2875 5200 2875 5175
Wire Wire Line
	1800 7350 2350 7350
Wire Wire Line
	1800 7300 1800 7350
Connection ~ 1800 7350
Wire Wire Line
	4900 7500 4900 7400
$Comp
L FEAD-rescue:+3.6V-power1 #PWR0120
U 1 1 5CC6BA39
P 1600 3075
F 0 "#PWR0120" H 1600 2925 50  0001 C CNN
F 1 "+3.6V" H 1600 3215 50  0000 C CNN
F 2 "" H 1600 3075 50  0000 C CNN
F 3 "" H 1600 3075 50  0000 C CNN
	1    1600 3075
	1    0    0    -1  
$EndComp
Text Notes 3000 5400 0    60   ~ 0
You can put 1.8V to cope with\nLVDS signals provided by LiTE-DTU test board\nRelace R805 by 2.2k
$EndSCHEMATC
