
*** Running vivado
    with args -log clk_generator_delay_ctrl.vds -m64 -product Vivado -mode batch -messageDb vivado.pb -notrace -source clk_generator_delay_ctrl.tcl


****** Vivado v2023.2 (64-bit)
  **** SW Build 4029153 on Fri Oct 13 20:13:54 MDT 2023
  **** IP Build 4028589 on Sat Oct 14 00:45:43 MDT 2023
  **** SharedData Build 4025554 on Tue Oct 10 17:18:54 MDT 2023
    ** Copyright 1986-2022 Xilinx, Inc. All Rights Reserved.
    ** Copyright 2022-2023 Advanced Micro Devices, Inc. All Rights Reserved.

source clk_generator_delay_ctrl.tcl -notrace
WARNING: [Common 17-1361] You have specified a new message control rule that is equivalent to an existing rule with attributes ' -id {Labtools 27-2269}  -string {{ERROR: [Labtools 27-2269] No devices detected on target localhost:3121/xilinx_tcf/Xilinx/000018cd399501.
Check cable connectivity and that the target board is powered up then
use the disconnect_hw_server and connect_hw_server to re-register this hardware target.}}  -suppress '. The existing rule will be replaced.
WARNING: [Common 17-1361] You have specified a new message control rule that is equivalent to an existing rule with attributes ' -id {Vivado 12-1790}  -string {{CRITICAL WARNING: [Vivado 12-1790] Evaluation License Warning: This design contains one or more IP cores that use separately licensed features. If the design has been configured to make use of evaluation features, please note that these features will cease to function after a certain period of time. Please consult the core datasheet to determine whether the core which you have configured will be affected. Evaluation features should NOT be used in production systems.

Evaluation cores found in this design:
    IP core 'tri_mode_ethernet_mac_0' (tri_mode_ethernet_mac_0_block) was generated with multiple features:
        IP feature 'eth_avb_endpoint@2015.04' was enabled using a unknown license.
        IP feature 'tri_mode_eth_mac@2015.04' was enabled using a hardware_evaluation license.

Resolution: If a new IP Core license was added, in order for the new license to be picked up, the current netlist needs to be updated by resetting and re-generating the IP output products before bitstream generation.}}  -suppress '. The existing rule will be replaced.
create_project: Time (s): cpu = 00:00:11 ; elapsed = 00:00:11 . Memory (MB): peak = 1491.426 ; gain = 14.898 ; free physical = 1169 ; free virtual = 44101
INFO: [IP_Flow 19-6924] IPCACHE: Running cache check for IP inst: clk_generator_delay_ctrl
Command: synth_design -top clk_generator_delay_ctrl -part xc7k70tfbg484-2 -incremental_mode off -mode out_of_context
Starting synth_design
Attempting to get a license for feature 'Synthesis' and/or device 'xc7k70t'
INFO: [Device 21-403] Loading part xc7k70tfbg484-2
INFO: [Synth 8-7079] Multithreading enabled for synth_design using a maximum of 4 processes.
INFO: [Synth 8-7078] Launching helper process for spawning children vivado processes
INFO: [Synth 8-7075] Helper process launched with PID 163007
---------------------------------------------------------------------------------
Starting RTL Elaboration : Time (s): cpu = 00:00:07 ; elapsed = 00:00:09 . Memory (MB): peak = 2237.898 ; gain = 402.660 ; free physical = 224 ; free virtual = 42105
---------------------------------------------------------------------------------
INFO: [Synth 8-6157] synthesizing module 'clk_generator_delay_ctrl' [/data/cms/ecal/fe/fead_v2/firmware.2023.2/FEAD.gen/sources_1/ip/clk_generator_delay_ctrl/clk_generator_delay_ctrl.v:65]
INFO: [Synth 8-6157] synthesizing module 'clk_generator_delay_ctrl_clk_wiz' [/data/cms/ecal/fe/fead_v2/firmware.2023.2/FEAD.gen/sources_1/ip/clk_generator_delay_ctrl/clk_generator_delay_ctrl_clk_wiz.v:65]
INFO: [Synth 8-6157] synthesizing module 'BUFG' [/data/Xilinx/Vivado/2023.2/scripts/rt/data/unisim_comp.v:1951]
INFO: [Synth 8-6155] done synthesizing module 'BUFG' (0#1) [/data/Xilinx/Vivado/2023.2/scripts/rt/data/unisim_comp.v:1951]
INFO: [Synth 8-6157] synthesizing module 'MMCME2_ADV' [/data/Xilinx/Vivado/2023.2/scripts/rt/data/unisim_comp.v:82174]
	Parameter BANDWIDTH bound to: HIGH - type: string 
	Parameter CLKFBOUT_MULT_F bound to: 8.750000 - type: double 
	Parameter CLKFBOUT_PHASE bound to: 0.000000 - type: double 
	Parameter CLKFBOUT_USE_FINE_PS bound to: FALSE - type: string 
	Parameter CLKIN1_PERIOD bound to: 6.250000 - type: double 
	Parameter CLKOUT0_DIVIDE_F bound to: 7.000000 - type: double 
	Parameter CLKOUT0_DUTY_CYCLE bound to: 0.500000 - type: double 
	Parameter CLKOUT0_PHASE bound to: 0.000000 - type: double 
	Parameter CLKOUT0_USE_FINE_PS bound to: FALSE - type: string 
	Parameter CLKOUT4_CASCADE bound to: FALSE - type: string 
	Parameter COMPENSATION bound to: ZHOLD - type: string 
	Parameter DIVCLK_DIVIDE bound to: 1 - type: integer 
	Parameter STARTUP_WAIT bound to: FALSE - type: string 
INFO: [Synth 8-6155] done synthesizing module 'MMCME2_ADV' (0#1) [/data/Xilinx/Vivado/2023.2/scripts/rt/data/unisim_comp.v:82174]
INFO: [Synth 8-6155] done synthesizing module 'clk_generator_delay_ctrl_clk_wiz' (0#1) [/data/cms/ecal/fe/fead_v2/firmware.2023.2/FEAD.gen/sources_1/ip/clk_generator_delay_ctrl/clk_generator_delay_ctrl_clk_wiz.v:65]
INFO: [Synth 8-6155] done synthesizing module 'clk_generator_delay_ctrl' (0#1) [/data/cms/ecal/fe/fead_v2/firmware.2023.2/FEAD.gen/sources_1/ip/clk_generator_delay_ctrl/clk_generator_delay_ctrl.v:65]
---------------------------------------------------------------------------------
Finished RTL Elaboration : Time (s): cpu = 00:00:10 ; elapsed = 00:00:13 . Memory (MB): peak = 2317.867 ; gain = 482.629 ; free physical = 341 ; free virtual = 41921
---------------------------------------------------------------------------------
---------------------------------------------------------------------------------
Start Handling Custom Attributes
---------------------------------------------------------------------------------
---------------------------------------------------------------------------------
Finished Handling Custom Attributes : Time (s): cpu = 00:00:11 ; elapsed = 00:00:13 . Memory (MB): peak = 2332.711 ; gain = 497.473 ; free physical = 328 ; free virtual = 41909
---------------------------------------------------------------------------------
---------------------------------------------------------------------------------
Finished RTL Optimization Phase 1 : Time (s): cpu = 00:00:11 ; elapsed = 00:00:13 . Memory (MB): peak = 2332.711 ; gain = 497.473 ; free physical = 334 ; free virtual = 41914
---------------------------------------------------------------------------------
Netlist sorting complete. Time (s): cpu = 00:00:00 ; elapsed = 00:00:00 . Memory (MB): peak = 2338.648 ; gain = 0.000 ; free physical = 329 ; free virtual = 41909

Processing XDC Constraints
Initializing timing engine
Parsing XDC File [/data/cms/ecal/fe/fead_v2/firmware.2023.2/FEAD.gen/sources_1/ip/clk_generator_delay_ctrl/clk_generator_delay_ctrl_ooc.xdc] for cell 'inst'
Finished Parsing XDC File [/data/cms/ecal/fe/fead_v2/firmware.2023.2/FEAD.gen/sources_1/ip/clk_generator_delay_ctrl/clk_generator_delay_ctrl_ooc.xdc] for cell 'inst'
Parsing XDC File [/data/cms/ecal/fe/fead_v2/firmware.2023.2/FEAD.gen/sources_1/ip/clk_generator_delay_ctrl/clk_generator_delay_ctrl_board.xdc] for cell 'inst'
Finished Parsing XDC File [/data/cms/ecal/fe/fead_v2/firmware.2023.2/FEAD.gen/sources_1/ip/clk_generator_delay_ctrl/clk_generator_delay_ctrl_board.xdc] for cell 'inst'
Parsing XDC File [/data/cms/ecal/fe/fead_v2/firmware.2023.2/FEAD.gen/sources_1/ip/clk_generator_delay_ctrl/clk_generator_delay_ctrl.xdc] for cell 'inst'
Finished Parsing XDC File [/data/cms/ecal/fe/fead_v2/firmware.2023.2/FEAD.gen/sources_1/ip/clk_generator_delay_ctrl/clk_generator_delay_ctrl.xdc] for cell 'inst'
Parsing XDC File [/data/cms/ecal/fe/fead_v2/firmware.2023.2/FEAD.runs/clk_generator_delay_ctrl_synth_1/dont_touch.xdc]
Finished Parsing XDC File [/data/cms/ecal/fe/fead_v2/firmware.2023.2/FEAD.runs/clk_generator_delay_ctrl_synth_1/dont_touch.xdc]
Completed Processing XDC Constraints

Netlist sorting complete. Time (s): cpu = 00:00:00 ; elapsed = 00:00:00 . Memory (MB): peak = 2373.633 ; gain = 0.000 ; free physical = 246 ; free virtual = 41852
Constraint Validation Runtime : Time (s): cpu = 00:00:00.04 ; elapsed = 00:00:00.05 . Memory (MB): peak = 2373.668 ; gain = 0.000 ; free physical = 240 ; free virtual = 41847
INFO: [Designutils 20-5008] Incremental synthesis strategy off
---------------------------------------------------------------------------------
Finished Constraint Validation : Time (s): cpu = 00:00:22 ; elapsed = 00:00:28 . Memory (MB): peak = 2373.668 ; gain = 538.430 ; free physical = 378 ; free virtual = 40817
---------------------------------------------------------------------------------
---------------------------------------------------------------------------------
Start Loading Part and Timing Information
---------------------------------------------------------------------------------
Loading part: xc7k70tfbg484-2
---------------------------------------------------------------------------------
Finished Loading Part and Timing Information : Time (s): cpu = 00:00:22 ; elapsed = 00:00:28 . Memory (MB): peak = 2373.668 ; gain = 538.430 ; free physical = 374 ; free virtual = 40813
---------------------------------------------------------------------------------
---------------------------------------------------------------------------------
Start Applying 'set_property' XDC Constraints
---------------------------------------------------------------------------------
Applied set_property KEEP_HIERARCHY = SOFT for inst. (constraint file  /data/cms/ecal/fe/fead_v2/firmware.2023.2/FEAD.runs/clk_generator_delay_ctrl_synth_1/dont_touch.xdc, line 9).
---------------------------------------------------------------------------------
Finished applying 'set_property' XDC Constraints : Time (s): cpu = 00:00:22 ; elapsed = 00:00:28 . Memory (MB): peak = 2373.668 ; gain = 538.430 ; free physical = 376 ; free virtual = 40815
---------------------------------------------------------------------------------
---------------------------------------------------------------------------------
Finished RTL Optimization Phase 2 : Time (s): cpu = 00:00:23 ; elapsed = 00:00:29 . Memory (MB): peak = 2373.668 ; gain = 538.430 ; free physical = 266 ; free virtual = 40727
---------------------------------------------------------------------------------
---------------------------------------------------------------------------------
Start RTL Component Statistics 
---------------------------------------------------------------------------------
Detailed RTL Component Info : 
---------------------------------------------------------------------------------
Finished RTL Component Statistics 
---------------------------------------------------------------------------------
---------------------------------------------------------------------------------
Start Part Resource Summary
---------------------------------------------------------------------------------
Part Resources:
DSPs: 240 (col length:80)
BRAMs: 270 (col length: RAMB18 80 RAMB36 40)
---------------------------------------------------------------------------------
Finished Part Resource Summary
---------------------------------------------------------------------------------
---------------------------------------------------------------------------------
Start Cross Boundary and Area Optimization
---------------------------------------------------------------------------------
---------------------------------------------------------------------------------
Finished Cross Boundary and Area Optimization : Time (s): cpu = 00:00:25 ; elapsed = 00:00:32 . Memory (MB): peak = 2373.668 ; gain = 538.430 ; free physical = 231 ; free virtual = 40683
---------------------------------------------------------------------------------
---------------------------------------------------------------------------------
Start Applying XDC Timing Constraints
---------------------------------------------------------------------------------
---------------------------------------------------------------------------------
Finished Applying XDC Timing Constraints : Time (s): cpu = 00:00:33 ; elapsed = 00:00:41 . Memory (MB): peak = 2373.668 ; gain = 538.430 ; free physical = 325 ; free virtual = 40685
---------------------------------------------------------------------------------
---------------------------------------------------------------------------------
Start Timing Optimization
---------------------------------------------------------------------------------
---------------------------------------------------------------------------------
Finished Timing Optimization : Time (s): cpu = 00:00:33 ; elapsed = 00:00:41 . Memory (MB): peak = 2373.668 ; gain = 538.430 ; free physical = 325 ; free virtual = 40685
---------------------------------------------------------------------------------
---------------------------------------------------------------------------------
Start Technology Mapping
---------------------------------------------------------------------------------
---------------------------------------------------------------------------------
Finished Technology Mapping : Time (s): cpu = 00:00:33 ; elapsed = 00:00:41 . Memory (MB): peak = 2373.668 ; gain = 538.430 ; free physical = 325 ; free virtual = 40686
---------------------------------------------------------------------------------
---------------------------------------------------------------------------------
Start IO Insertion
---------------------------------------------------------------------------------
---------------------------------------------------------------------------------
Start Flattening Before IO Insertion
---------------------------------------------------------------------------------
---------------------------------------------------------------------------------
Finished Flattening Before IO Insertion
---------------------------------------------------------------------------------
---------------------------------------------------------------------------------
Start Final Netlist Cleanup
---------------------------------------------------------------------------------
---------------------------------------------------------------------------------
Finished Final Netlist Cleanup
---------------------------------------------------------------------------------
---------------------------------------------------------------------------------
Finished IO Insertion : Time (s): cpu = 00:00:40 ; elapsed = 00:00:48 . Memory (MB): peak = 2373.668 ; gain = 538.430 ; free physical = 335 ; free virtual = 40678
---------------------------------------------------------------------------------
---------------------------------------------------------------------------------
Start Renaming Generated Instances
---------------------------------------------------------------------------------
---------------------------------------------------------------------------------
Finished Renaming Generated Instances : Time (s): cpu = 00:00:40 ; elapsed = 00:00:48 . Memory (MB): peak = 2373.668 ; gain = 538.430 ; free physical = 335 ; free virtual = 40678
---------------------------------------------------------------------------------
---------------------------------------------------------------------------------
Start Rebuilding User Hierarchy
---------------------------------------------------------------------------------
---------------------------------------------------------------------------------
Finished Rebuilding User Hierarchy : Time (s): cpu = 00:00:40 ; elapsed = 00:00:48 . Memory (MB): peak = 2373.668 ; gain = 538.430 ; free physical = 335 ; free virtual = 40678
---------------------------------------------------------------------------------
---------------------------------------------------------------------------------
Start Renaming Generated Ports
---------------------------------------------------------------------------------
---------------------------------------------------------------------------------
Finished Renaming Generated Ports : Time (s): cpu = 00:00:40 ; elapsed = 00:00:48 . Memory (MB): peak = 2373.668 ; gain = 538.430 ; free physical = 335 ; free virtual = 40678
---------------------------------------------------------------------------------
---------------------------------------------------------------------------------
Start Handling Custom Attributes
---------------------------------------------------------------------------------
---------------------------------------------------------------------------------
Finished Handling Custom Attributes : Time (s): cpu = 00:00:40 ; elapsed = 00:00:48 . Memory (MB): peak = 2373.668 ; gain = 538.430 ; free physical = 335 ; free virtual = 40678
---------------------------------------------------------------------------------
---------------------------------------------------------------------------------
Start Renaming Generated Nets
---------------------------------------------------------------------------------
---------------------------------------------------------------------------------
Finished Renaming Generated Nets : Time (s): cpu = 00:00:40 ; elapsed = 00:00:48 . Memory (MB): peak = 2373.668 ; gain = 538.430 ; free physical = 335 ; free virtual = 40678
---------------------------------------------------------------------------------
---------------------------------------------------------------------------------
Start Writing Synthesis Report
---------------------------------------------------------------------------------

Report BlackBoxes: 
+-+--------------+----------+
| |BlackBox name |Instances |
+-+--------------+----------+
+-+--------------+----------+

Report Cell Usage: 
+------+-----------+------+
|      |Cell       |Count |
+------+-----------+------+
|1     |BUFG       |     3|
|2     |MMCME2_ADV |     1|
+------+-----------+------+
---------------------------------------------------------------------------------
Finished Writing Synthesis Report : Time (s): cpu = 00:00:40 ; elapsed = 00:00:48 . Memory (MB): peak = 2373.668 ; gain = 538.430 ; free physical = 335 ; free virtual = 40678
---------------------------------------------------------------------------------
Synthesis finished with 0 errors, 0 critical warnings and 1 warnings.
Synthesis Optimization Runtime : Time (s): cpu = 00:00:37 ; elapsed = 00:00:45 . Memory (MB): peak = 2373.668 ; gain = 497.473 ; free physical = 335 ; free virtual = 40678
Synthesis Optimization Complete : Time (s): cpu = 00:00:40 ; elapsed = 00:00:48 . Memory (MB): peak = 2373.668 ; gain = 538.430 ; free physical = 335 ; free virtual = 40678
Netlist sorting complete. Time (s): cpu = 00:00:00 ; elapsed = 00:00:00.01 . Memory (MB): peak = 2373.668 ; gain = 0.000 ; free physical = 335 ; free virtual = 40679
Netlist sorting complete. Time (s): cpu = 00:00:00 ; elapsed = 00:00:00 . Memory (MB): peak = 2373.668 ; gain = 0.000 ; free physical = 625 ; free virtual = 40970
Synth Design complete | Checksum: e31455d
14 Infos, 2 Warnings, 0 Critical Warnings and 0 Errors encountered.
synth_design completed successfully
synth_design: Time (s): cpu = 00:00:51 ; elapsed = 00:00:55 . Memory (MB): peak = 2373.668 ; gain = 864.430 ; free physical = 629 ; free virtual = 40974
INFO: [Common 17-2834] synth_design peak Physical Memory [PSS] (MB): overall = 1700.064; main = 1375.581; forked = 340.229
INFO: [Common 17-2834] synth_design peak Virtual Memory [VSS] (MB): overall = 3988.852; main = 2373.637; forked = 1615.215
INFO: [Common 17-1381] The checkpoint '/data/cms/ecal/fe/fead_v2/firmware.2023.2/FEAD.runs/clk_generator_delay_ctrl_synth_1/clk_generator_delay_ctrl.dcp' has been generated.
INFO: [Coretcl 2-1648] Added synthesis output to IP cache for IP clk_generator_delay_ctrl, cache-ID = a3beed81701add5a
INFO: [Common 17-1381] The checkpoint '/data/cms/ecal/fe/fead_v2/firmware.2023.2/FEAD.runs/clk_generator_delay_ctrl_synth_1/clk_generator_delay_ctrl.dcp' has been generated.
INFO: [Common 17-206] Exiting Vivado at Wed Jan 17 16:46:30 2024...
