AA5   IO_L1P_T0_33                  0                  33    VCCAUX        NA                  HP        NA
AB5   IO_L1N_T0_33                  0                  33    VCCAUX        NA                  HP        NA
AB8   IO_L2P_T0_33                  0                  33    VCCAUX        NA                  HP        NA
AB7   IO_L2N_T0_33                  0                  33    VCCAUX        NA                  HP        NA
AA6   IO_L3P_T0_DQS_33              0                  33    VCCAUX        NA                  HP        NA
AB6   IO_L3N_T0_DQS_33              0                  33    VCCAUX        NA                  HP        NA
AA10  IO_L4P_T0_33                  0                  33    VCCAUX        NA                  HP        NA
AB10  IO_L4N_T0_33                  0                  33    VCCAUX        NA                  HP        NA
AA9   IO_L5P_T0_33                  0                  33    VCCAUX        NA                  HP        NA
AA8   IO_L5N_T0_33                  0                  33    VCCAUX        NA                  HP        NA
W11   IO_L6P_T0_33                  0                  33    VCCAUX        NA                  HP        NA
Y11   IO_L6N_T0_VREF_33             0                  33    VCCAUX        NA                  HP        NA
W6    IO_L7P_T1_33                  1                  33    VCCAUX        NA                  HP        NA
Y6    IO_L7N_T1_33                  1                  33    VCCAUX        NA                  HP        NA
R7    IO_L8P_T1_33                  1                  33    VCCAUX        NA                  HP        NA
R6    IO_L8N_T1_33                  1                  33    VCCAUX        NA                  HP        NA
U8    IO_L9P_T1_DQS_33              1                  33    VCCAUX        NA                  HP        NA
V8    IO_L9N_T1_DQS_33              1                  33    VCCAUX        NA                  HP        NA
U7    IO_L10P_T1_33                 1                  33    VCCAUX        NA                  HP        NA
U6    IO_L10N_T1_33                 1                  33    VCCAUX        NA                  HP        NA
V7    IO_L11P_T1_SRCC_33            1                  33    VCCAUX        NA                  HP        NA
W7    IO_L11N_T1_SRCC_33            1                  33    VCCAUX        NA                  HP        NA
Y8    IO_L12P_T1_MRCC_33            1                  33    VCCAUX        NA                  HP        NA
Y7    IO_L12N_T1_MRCC_33            1                  33    VCCAUX        NA                  HP        NA
W9    IO_L13P_T2_MRCC_33            2                  33    VCCAUX        NA                  HP        NA
Y9    IO_L13N_T2_MRCC_33            2                  33    VCCAUX        NA                  HP        NA
U10   IO_L14P_T2_SRCC_33            2                  33    VCCAUX        NA                  HP        NA
V9    IO_L14N_T2_SRCC_33            2                  33    VCCAUX        NA                  HP        NA
V10   IO_L15P_T2_DQS_33             2                  33    VCCAUX        NA                  HP        NA
W10   IO_L15N_T2_DQS_33             2                  33    VCCAUX        NA                  HP        NA
T11   IO_L16P_T2_33                 2                  33    VCCAUX        NA                  HP        NA
T10   IO_L16N_T2_33                 2                  33    VCCAUX        NA                  HP        NA
U12   IO_L17P_T2_33                 2                  33    VCCAUX        NA                  HP        NA
U11   IO_L17N_T2_33                 2                  33    VCCAUX        NA                  HP        NA
T9    IO_L18P_T2_33                 2                  33    VCCAUX        NA                  HP        NA
T8    IO_L18N_T2_33                 2                  33    VCCAUX        NA                  HP        NA
W12   IO_L19P_T3_33                 3                  33    VCCAUX        NA                  HP        NA
Y12   IO_L19N_T3_VREF_33            3                  33    VCCAUX        NA                  HP        NA
AA11  IO_L20P_T3_33                 3                  33    VCCAUX        NA                  HP        NA
AB11  IO_L20N_T3_33                 3                  33    VCCAUX        NA                  HP        NA
Y13   IO_L21P_T3_DQS_33             3                  33    VCCAUX        NA                  HP        NA
AA13  IO_L21N_T3_DQS_33             3                  33    VCCAUX        NA                  HP        NA
AB13  IO_L22P_T3_33                 3                  33    VCCAUX        NA                  HP        NA
AB12  IO_L22N_T3_33                 3                  33    VCCAUX        NA                  HP        NA
V13   IO_L23P_T3_33                 3                  33    VCCAUX        NA                  HP        NA
V12   IO_L23N_T3_33                 3                  33    VCCAUX        NA                  HP        NA
T13   IO_L24P_T3_33                 3                  33    VCCAUX        NA                  HP        NA
U13   IO_L24N_T3_33                 3                  33    VCCAUX        NA                  HP        NA
L3    IO_L1P_T0_34                  0                  34    VCCAUX        NA                  HP        NA
M3    IO_L1N_T0_34                  0                  34    VCCAUX        NA                  HP        NA
K1    IO_L2P_T0_34                  0                  34    VCCAUX        NA                  HP        NA
L1    IO_L2N_T0_34                  0                  34    VCCAUX        NA                  HP        NA
M2    IO_L3P_T0_DQS_34              0                  34    VCCAUX        NA                  HP        NA
M1    IO_L3N_T0_DQS_34              0                  34    VCCAUX        NA                  HP        NA
K3    IO_L4P_T0_34                  0                  34    VCCAUX        NA                  HP        NA
K2    IO_L4N_T0_34                  0                  34    VCCAUX        NA                  HP        NA
N3    IO_L5P_T0_34                  0                  34    VCCAUX        NA                  HP        NA
N2    IO_L5N_T0_34                  0                  34    VCCAUX        NA                  HP        NA
L5    IO_L6P_T0_34                  0                  34    VCCAUX        NA                  HP        NA
L4    IO_L6N_T0_VREF_34             0                  34    VCCAUX        NA                  HP        NA
P2    IO_L7P_T1_34                  1                  34    VCCAUX        NA                  HP        NA
R2    IO_L7N_T1_34                  1                  34    VCCAUX        NA                  HP        NA
P1    IO_L8P_T1_34                  1                  34    VCCAUX        NA                  HP        NA
R1    IO_L8N_T1_34                  1                  34    VCCAUX        NA                  HP        NA
M5    IO_L9P_T1_DQS_34              1                  34    VCCAUX        NA                  HP        NA
N4    IO_L9N_T1_DQS_34              1                  34    VCCAUX        NA                  HP        NA
T1    IO_L10P_T1_34                 1                  34    VCCAUX        NA                  HP        NA
U1    IO_L10N_T1_34                 1                  34    VCCAUX        NA                  HP        NA
P4    IO_L11P_T1_SRCC_34            1                  34    VCCAUX        NA                  HP        NA
R4    IO_L11N_T1_SRCC_34            1                  34    VCCAUX        NA                  HP        NA
R3    IO_L12P_T1_MRCC_34            1                  34    VCCAUX        NA                  HP        NA
T3    IO_L12N_T1_MRCC_34            1                  34    VCCAUX        NA                  HP        NA
T4    IO_L13P_T2_MRCC_34            2                  34    VCCAUX        NA                  HP        NA
U3    IO_L13N_T2_MRCC_34            2                  34    VCCAUX        NA                  HP        NA
V4    IO_L14P_T2_SRCC_34            2                  34    VCCAUX        NA                  HP        NA
W4    IO_L14N_T2_SRCC_34            2                  34    VCCAUX        NA                  HP        NA
U2    IO_L15P_T2_DQS_34             2                  34    VCCAUX        NA                  HP        NA
V2    IO_L15N_T2_DQS_34             2                  34    VCCAUX        NA                  HP        NA
T5    IO_L16P_T2_34                 2                  34    VCCAUX        NA                  HP        NA
U5    IO_L16N_T2_34                 2                  34    VCCAUX        NA                  HP        NA
V3    IO_L17P_T2_34                 2                  34    VCCAUX        NA                  HP        NA
W2    IO_L17N_T2_34                 2                  34    VCCAUX        NA                  HP        NA
N5    IO_L18P_T2_34                 2                  34    VCCAUX        NA                  HP        NA
P5    IO_L18N_T2_34                 2                  34    VCCAUX        NA                  HP        NA
W5    IO_L19P_T3_34                 3                  34    VCCAUX        NA                  HP        NA
Y4    IO_L19N_T3_VREF_34            3                  34    VCCAUX        NA                  HP        NA
W1    IO_L20P_T3_34                 3                  34    VCCAUX        NA                  HP        NA
Y1    IO_L20N_T3_34                 3                  34    VCCAUX        NA                  HP        NA
Y3    IO_L21P_T3_DQS_34             3                  34    VCCAUX        NA                  HP        NA
Y2    IO_L21N_T3_DQS_34             3                  34    VCCAUX        NA                  HP        NA
AA1   IO_L22P_T3_34                 3                  34    VCCAUX        NA                  HP        NA
AB1   IO_L22N_T3_34                 3                  34    VCCAUX        NA                  HP        NA
AA3   IO_L23P_T3_34                 3                  34    VCCAUX        NA                  HP        NA
AB2   IO_L23N_T3_34                 3                  34    VCCAUX        NA                  HP        NA
AA4   IO_L24P_T3_34                 3                  34    VCCAUX        NA                  HP        NA
AB3   IO_L24N_T3_34                 3                  34    VCCAUX        NA                  HP        NA
