-------------------------------------
| Tool Version : Vivado v.2023.2
| Date         : Thu Jun 20 11:52:20 2024
| Host         : spppcj166.extra.cea.fr
| Design       : design_1
| Device       : xc7k70t-fbg484-2--
-------------------------------------

For more information on clockInfo.txt clock routing debug file see https://support.xilinx.com/s/article/000035660?language=en_US

