M48
;DRILL file {KiCad 5.0.2-5.fc29} date ven. 29 mars 2019 08:53:14 CET
;FORMAT={-:-/ absolute / metric / decimal}
FMAT,2
METRIC,TZ
T1C0.152
T2C0.250
T3C0.400
T4C1.000
T5C1.050
%
G90
G05
T1
X118.1Y-111.375
X119.76Y-81.5
X119.76Y-82.77
X119.76Y-118.23
X119.76Y-119.5
X120.4Y-84.775
X120.95Y-111.375
X121.025Y-84.3
X121.03Y-81.5
X121.03Y-82.77
X121.03Y-118.23
X121.03Y-119.5
X121.65Y-85.25
X122.3Y-81.5
X122.3Y-82.77
X122.3Y-85.725
X122.3Y-118.23
X122.3Y-119.5
X122.9Y-86.2
X123.57Y-81.5
X123.57Y-82.77
X123.57Y-118.23
X123.57Y-119.5
X123.575Y-86.75
X124.2Y-87.179
X124.84Y-81.5
X124.84Y-118.23
X124.84Y-119.5
X125.6Y-101.325
X125.6Y-101.975
X126.11Y-119.5
X127.38Y-119.5
X128.Y-87.579
X128.65Y-81.5
X128.65Y-118.23
X128.65Y-119.5
X128.8Y-123.175
X129.45Y-124.475
X129.625Y-121.25
X129.625Y-122.15
X129.92Y-82.77
X129.92Y-118.23
X129.92Y-119.5
X130.325Y-124.375
X130.325Y-125.5
X130.525Y-121.25
X130.525Y-122.15
X131.19Y-82.77
X131.19Y-118.23
X131.19Y-119.5
X131.32Y-102.149
X131.32Y-102.949
X131.32Y-103.749
X131.32Y-104.549
X131.32Y-105.349
X131.32Y-106.149
X131.32Y-107.749
X131.32Y-108.549
X131.32Y-109.349
X131.825Y-87.625
X131.975Y-122.9
X132.46Y-81.5
X132.46Y-118.23
X132.46Y-119.5
X133.1Y-88.075
X133.725Y-88.7
X133.73Y-81.5
X133.73Y-82.77
X133.73Y-118.23
X133.73Y-119.5
X134.35Y-122.8
X134.375Y-89.175
X134.432Y-103.209
X134.7Y-115.35
X135.Y-81.5
X135.Y-118.23
X135.Y-119.5
X136.388Y-119.382
X137.Y-88.55
X137.54Y-119.5
X138.7Y-123.
X138.81Y-81.5
X138.81Y-118.23
X138.81Y-119.5
X139.52Y-101.749
X139.52Y-104.149
X139.52Y-108.949
X139.775Y-121.25
X139.775Y-122.15
X139.8Y-124.375
X139.85Y-89.975
X139.875Y-93.3
X140.025Y-116.
X140.08Y-82.77
X140.08Y-118.23
X140.08Y-119.5
X140.475Y-124.375
X140.475Y-125.475
X140.675Y-121.25
X140.675Y-122.15
X140.95Y-103.875
X141.35Y-82.77
X141.35Y-118.23
X141.35Y-119.5
X141.675Y-103.875
X141.95Y-90.05
X142.225Y-122.725
X142.62Y-81.5
X142.62Y-118.23
X142.62Y-119.5
X142.625Y-90.321
X143.275Y-92.975
X143.75Y-93.525
X143.89Y-81.5
X143.89Y-82.77
X143.89Y-118.23
X143.89Y-119.5
X144.075Y-89.329
X144.375Y-122.25
X144.533Y-90.255
X144.976Y-90.633
X145.025Y-89.35
X145.05Y-96.
X145.16Y-81.5
X145.16Y-118.23
X145.16Y-119.5
X146.43Y-119.5
X147.7Y-119.5
X148.475Y-100.05
X148.9Y-92.
X148.9Y-103.15
X148.9Y-103.825
X148.9Y-105.15
X148.9Y-105.825
X148.9Y-108.15
X148.9Y-108.85
X148.9Y-110.15
X148.9Y-110.85
X148.97Y-118.23
X148.97Y-119.5
X149.162Y-97.5
X149.6Y-89.
X150.Y-94.5
X150.Y-95.5
X150.Y-96.5
X150.Y-97.5
X150.Y-98.5
X150.Y-99.5
X150.Y-100.5
X150.Y-101.5
X150.Y-102.5
X150.Y-107.5
X150.15Y-91.65
X150.5Y-89.425
X151.Y-90.5
X151.Y-94.475
X151.Y-95.5
X151.Y-96.5
X151.Y-97.5
X151.Y-99.5
X151.Y-103.5
X151.Y-105.5
X151.Y-109.5
X151.Y-112.337
X151.675Y-89.3
X152.Y-92.5
X152.Y-94.5
X152.Y-96.5
X152.Y-97.5
X152.Y-102.5
X152.Y-108.5
X152.Y-110.5
X152.025Y-90.5
X153.Y-89.5
X153.Y-93.5
X153.Y-94.5
X153.Y-96.5
X153.Y-97.5
X153.Y-99.5
X153.Y-100.5
X153.Y-104.5
X153.Y-106.5
X153.Y-107.5
X153.Y-109.5
X153.Y-110.5
X153.025Y-92.5
X153.975Y-83.275
X154.Y-90.5
X154.Y-92.5
X154.Y-93.5
X154.Y-94.5
X154.Y-95.5
X154.Y-96.5
X154.Y-97.5
X154.Y-98.5
X154.Y-99.5
X154.Y-100.5
X154.Y-102.5
X154.Y-104.5
X154.Y-110.5
X154.175Y-111.65
X154.559Y-88.5
X154.9Y-111.65
X155.Y-94.5
X155.Y-95.5
X155.Y-96.5
X155.Y-97.5
X155.Y-98.5
X155.Y-100.5
X155.Y-101.5
X155.Y-102.5
X155.Y-105.5
X155.Y-107.5
X155.191Y-88.5
X155.675Y-111.65
X155.9Y-88.5
X156.Y-91.5
X156.Y-93.5
X156.Y-94.5
X156.Y-95.5
X156.Y-97.5
X156.Y-98.5
X156.Y-99.5
X156.Y-100.5
X156.Y-101.5
X156.Y-104.5
X156.Y-109.5
X156.Y-96.5
X156.025Y-89.5
X156.025Y-90.5
X156.5Y-81.138
X156.5Y-86.825
X156.5Y-111.625
X156.575Y-83.425
X157.Y-90.5
X157.Y-91.5
X157.Y-93.5
X157.Y-95.5
X157.Y-96.5
X157.Y-97.5
X157.Y-98.5
X157.Y-99.5
X157.Y-100.5
X157.Y-101.5
X157.Y-103.5
X157.Y-106.5
X157.Y-108.5
X157.Y-110.5
X157.45Y-86.8
X158.Y-88.5
X158.Y-90.5
X158.Y-92.5
X158.Y-93.475
X158.Y-94.475
X158.Y-95.5
X158.Y-96.5
X158.Y-97.5
X158.Y-98.5
X158.Y-99.5
X158.Y-100.5
X158.Y-101.5
X158.Y-102.5
X158.Y-103.5
X158.Y-104.5
X158.Y-109.5
X158.Y-110.5
X158.45Y-83.425
X158.675Y-87.3
X159.Y-91.5
X159.Y-92.5
X159.Y-93.5
X159.Y-94.475
X159.Y-95.5
X159.Y-96.5
X159.Y-97.5
X159.Y-98.5
X159.Y-99.5
X159.Y-100.5
X159.Y-101.5
X159.Y-103.5
X159.Y-107.5
X159.Y-110.5
X159.175Y-111.625
X159.525Y-89.075
X159.625Y-87.3
X159.85Y-86.75
X159.925Y-111.625
X160.Y-90.5
X160.Y-91.5
X160.Y-92.5
X160.Y-93.5
X160.Y-94.475
X160.Y-95.5
X160.Y-96.5
X160.Y-97.5
X160.Y-98.5
X160.Y-99.5
X160.Y-100.5
X160.Y-101.5
X160.Y-102.5
X160.Y-103.5
X160.Y-104.5
X160.Y-105.5
X160.Y-109.5
X160.3Y-82.225
X160.475Y-87.75
X160.625Y-111.625
X160.75Y-80.4
X160.75Y-86.75
X160.975Y-98.45
X161.Y-90.5
X161.Y-93.5
X161.Y-94.475
X161.Y-96.45
X161.Y-97.5
X161.Y-99.5
X161.Y-100.5
X161.Y-101.5
X161.Y-102.5
X161.Y-103.5
X161.Y-108.5
X161.Y-95.5
X161.2Y-79.7
X161.2Y-87.2
X161.375Y-111.625
X161.5Y-87.75
X161.5Y-89.075
X161.7Y-82.2
X162.Y-91.475
X162.Y-92.5
X162.Y-93.5
X162.Y-94.475
X162.Y-95.5
X162.Y-96.475
X162.Y-97.5
X162.Y-98.5
X162.Y-99.5
X162.Y-100.5
X162.Y-101.5
X162.Y-102.5
X162.Y-103.5
X162.Y-104.5
X162.Y-105.5
X162.Y-106.5
X162.Y-107.5
X162.2Y-86.775
X162.2Y-79.2
X162.475Y-89.075
X162.85Y-82.15
X162.85Y-87.025
X163.Y-91.5
X163.Y-94.475
X163.Y-95.5
X163.Y-96.475
X163.Y-97.5
X163.Y-98.5
X163.Y-99.5
X163.Y-100.5
X163.Y-102.5
X163.Y-103.504
X163.Y-104.5
X163.Y-106.5
X163.Y-109.5
X163.Y-110.5
X163.15Y-117.729
X163.628Y-87.197
X163.65Y-83.1
X164.Y-93.5
X164.Y-94.475
X164.Y-95.5
X164.Y-97.5
X164.Y-98.5
X164.Y-99.5
X164.Y-100.5
X164.Y-103.504
X164.Y-107.5
X164.Y-96.475
X164.025Y-117.725
X164.225Y-86.75
X164.3Y-78.7
X164.375Y-115.7
X164.65Y-114.3
X164.925Y-80.925
X164.975Y-99.5
X164.975Y-100.5
X165.Y-90.5
X165.Y-92.5
X165.Y-95.5
X165.Y-96.5
X165.Y-98.5
X165.Y-101.5
X165.Y-104.475
X165.Y-110.5
X165.1Y-122.675
X165.5Y-87.171
X165.95Y-89.154
X165.95Y-120.1
X165.95Y-121.225
X166.Y-90.5
X166.Y-93.5
X166.Y-94.475
X166.Y-95.5
X166.Y-97.5
X166.Y-106.525
X166.Y-107.5
X166.Y-108.5
X166.Y-109.5
X166.175Y-118.875
X166.2Y-81.325
X166.3Y-78.975
X166.325Y-120.675
X166.475Y-86.825
X166.5Y-113.109
X167.Y-90.475
X167.Y-92.5
X167.Y-95.5
X167.Y-96.5
X167.Y-97.5
X167.Y-102.5
X167.Y-104.5
X167.Y-106.5
X167.Y-108.5
X167.Y-109.5
X167.Y-110.5
X167.Y-107.5
X167.125Y-113.109
X167.45Y-87.175
X167.5Y-111.7
X168.Y-89.5
X168.Y-90.5
X168.Y-91.5
X168.Y-92.525
X168.Y-93.475
X168.Y-95.5
X168.Y-96.5
X168.Y-100.5
X168.Y-104.5
X168.Y-105.5
X168.Y-106.5
X168.Y-107.5
X168.Y-108.5
X168.Y-109.5
X168.Y-110.5
X168.4Y-86.8
X168.5Y-111.6
X168.825Y-121.5
X169.Y-89.5
X169.Y-90.5
X169.Y-91.5
X169.Y-92.5
X169.Y-93.5
X169.Y-96.5
X169.Y-98.5
X169.Y-101.5
X169.Y-103.504
X169.Y-106.5
X169.Y-110.5
X169.025Y-104.5
X169.025Y-105.5
X169.275Y-116.3
X169.325Y-87.25
X169.5Y-79.2
X170.Y-89.5
X170.Y-90.5
X170.Y-91.5
X170.Y-92.5
X170.Y-93.475
X170.Y-95.5
X170.Y-100.5
X170.Y-104.5
X170.Y-106.5
X170.Y-107.5
X170.Y-108.5
X170.Y-110.5
X170.Y-116.475
X170.Y-109.5
X170.025Y-86.8
X170.525Y-117.2
X170.95Y-89.5
X171.Y-106.5
X171.Y-107.5
X171.Y-108.5
X171.03Y-81.5
X171.03Y-118.23
X171.03Y-119.5
X171.125Y-91.825
X171.125Y-111.
X171.15Y-104.5
X171.15Y-110.
X171.175Y-123.175
X171.325Y-101.8
X171.875Y-107.5
X171.875Y-109.475
X171.925Y-124.45
X171.975Y-96.375
X172.Y-94.2
X172.Y-96.975
X172.Y-121.25
X172.Y-122.15
X172.05Y-91.825
X172.2Y-101.8
X172.2Y-103.075
X172.225Y-101.
X172.25Y-77.775
X172.25Y-95.625
X172.3Y-82.77
X172.3Y-88.725
X172.3Y-118.23
X172.3Y-119.5
X172.7Y-124.35
X172.7Y-125.475
X172.9Y-121.25
X172.9Y-122.15
X173.525Y-93.625
X173.57Y-82.77
X173.57Y-118.23
X173.57Y-119.5
X174.125Y-107.5
X174.375Y-122.9
X174.675Y-108.025
X174.725Y-109.475
X174.793Y-89.833
X174.84Y-81.5
X174.84Y-118.23
X174.84Y-119.5
X175.425Y-109.45
X175.975Y-106.5
X176.11Y-81.5
X176.11Y-82.77
X176.11Y-118.23
X176.11Y-119.5
X176.525Y-106.125
X176.7Y-122.825
X176.8Y-111.
X176.975Y-107.7
X177.38Y-81.5
X177.38Y-118.23
X177.38Y-119.5
X177.625Y-108.3
X178.247Y-106.303
X178.6Y-100.85
X178.65Y-119.5
X178.7Y-109.4
X179.2Y-109.95
X179.92Y-119.5
X181.19Y-81.5
X181.19Y-118.23
X181.19Y-119.5
X181.325Y-123.175
X182.125Y-124.375
X182.15Y-121.25
X182.15Y-122.15
X182.46Y-82.77
X182.46Y-118.23
X182.46Y-119.5
X182.85Y-124.35
X182.85Y-125.475
X183.05Y-121.25
X183.05Y-122.15
X183.225Y-100.15
X183.225Y-101.1
X183.225Y-102.05
X183.73Y-82.77
X183.73Y-118.23
X183.73Y-119.5
X184.251Y-110.699
X184.475Y-122.925
X184.699Y-110.251
X185.Y-81.5
X185.Y-118.23
X185.Y-119.5
X185.764Y-100.164
X186.27Y-81.5
X186.27Y-82.77
X186.27Y-118.23
X186.27Y-119.5
X186.85Y-122.825
X187.532Y-118.238
X187.54Y-81.5
X187.54Y-119.5
X187.964Y-100.164
X188.81Y-119.5
X190.08Y-119.5
X190.579Y-107.2
X191.35Y-81.5
X191.35Y-118.23
X191.35Y-119.5
X191.45Y-123.175
X192.275Y-124.425
X192.3Y-121.25
X192.3Y-122.15
X192.62Y-82.77
X192.62Y-118.23
X192.62Y-119.5
X193.025Y-124.375
X193.025Y-125.475
X193.2Y-121.25
X193.2Y-122.15
X193.89Y-82.77
X193.89Y-118.23
X193.89Y-119.5
X194.65Y-122.925
X195.16Y-81.5
X195.16Y-118.23
X195.16Y-119.5
X196.43Y-119.5
X197.025Y-122.85
X197.7Y-119.5
X198.075Y-79.5
X198.1Y-90.55
X198.1Y-91.175
X198.1Y-94.325
X198.1Y-94.95
X198.1Y-98.1
X198.1Y-98.75
X198.1Y-101.875
X198.1Y-102.5
X198.125Y-105.7
X198.125Y-106.35
X198.97Y-81.5
X198.97Y-118.23
X198.97Y-119.5
X200.24Y-81.5
X200.24Y-118.23
X200.24Y-119.5
X200.925Y-123.525
X200.925Y-121.225
X201.75Y-113.865
X203.75Y-113.865
X205.75Y-113.865
X205.75Y-118.035
X207.75Y-113.865
X207.75Y-118.035
X209.75Y-113.865
X209.75Y-118.035
X211.75Y-113.865
X211.75Y-118.035
X213.75Y-113.865
X213.75Y-118.035
X214.775Y-104.55
T2
X116.413Y-103.137
X184.65Y-90.2
X189.69Y-94.18
X189.71Y-90.36
X195.214Y-91.539
X195.214Y-95.314
X195.214Y-99.089
X195.214Y-102.864
X195.214Y-106.689
T3
X104.675Y-116.65
X104.675Y-121.05
X106.592Y-121.342
X111.132Y-116.262
X112.925Y-117.575
X117.25Y-77.05
X117.25Y-81.95
X117.25Y-119.05
X117.25Y-123.95
X120.953Y-108.217
X124.84Y-82.77
X126.11Y-81.5
X127.38Y-81.5
X128.145Y-104.774
X128.145Y-106.799
X128.65Y-82.77
X129.92Y-81.5
X131.19Y-81.5
X132.46Y-82.77
X133.82Y-104.474
X133.82Y-105.749
X135.Y-82.77
X135.02Y-104.474
X135.02Y-105.749
X136.27Y-81.5
X137.475Y-109.
X137.54Y-81.5
X138.02Y-108.38
X138.058Y-104.56
X138.058Y-106.03
X138.06Y-102.07
X138.81Y-82.77
X140.08Y-81.5
X141.35Y-81.5
X142.62Y-82.77
X144.Y-75.75
X144.Y-76.75
X144.Y-77.75
X144.Y-78.75
X145.Y-75.75
X145.Y-76.75
X145.Y-77.75
X145.Y-78.75
X145.16Y-82.77
X146.43Y-81.5
X147.7Y-81.5
X148.97Y-81.5
X148.97Y-82.77
X150.24Y-81.5
X150.24Y-82.77
X150.24Y-118.23
X150.24Y-119.5
X152.75Y-77.05
X152.75Y-81.95
X152.75Y-119.05
X152.75Y-124.
X167.25Y-77.05
X167.25Y-81.95
X167.25Y-119.05
X167.25Y-123.95
X169.76Y-81.5
X169.76Y-82.77
X169.76Y-118.23
X169.76Y-119.5
X171.03Y-82.77
X172.24Y-97.82
X172.24Y-99.89
X172.3Y-81.5
X173.57Y-81.5
X174.84Y-82.77
X175.35Y-98.212
X175.35Y-100.1
X176.8Y-97.9
X176.8Y-98.7
X176.8Y-99.5
X176.8Y-100.3
X177.38Y-82.77
X178.65Y-81.5
X179.475Y-90.35
X179.92Y-81.5
X179.95Y-92.125
X181.175Y-90.325
X181.19Y-82.77
X182.46Y-81.5
X182.5Y-92.625
X183.73Y-81.5
X185.Y-82.77
X186.225Y-108.85
X187.54Y-82.77
X187.964Y-101.114
X187.975Y-102.825
X188.775Y-103.225
X188.81Y-81.5
X189.35Y-106.7
X189.35Y-108.025
X189.575Y-96.625
X189.6Y-100.3
X189.6Y-104.1
X189.625Y-92.75
X190.05Y-97.925
X190.05Y-101.256
X190.08Y-81.5
X190.16Y-105.382
X191.35Y-82.77
X192.114Y-96.314
X192.114Y-99.414
X192.114Y-100.089
X192.114Y-103.214
X192.114Y-103.889
X192.114Y-106.989
X192.114Y-107.664
X192.125Y-91.875
X192.139Y-95.614
X192.15Y-92.725
X192.62Y-81.5
X193.89Y-81.5
X195.16Y-82.77
X195.35Y-108.925
X196.43Y-81.5
X197.4Y-87.475
X197.7Y-81.5
X197.975Y-109.475
X198.125Y-91.864
X198.125Y-107.664
X198.139Y-95.639
X198.139Y-103.189
X198.139Y-107.014
X198.139Y-99.414
X198.15Y-103.839
X198.15Y-104.675
X198.425Y-92.514
X198.425Y-100.025
X198.425Y-96.275
X198.45Y-108.425
X198.97Y-82.77
X199.375Y-110.5
X200.24Y-82.77
X200.725Y-95.975
X200.725Y-99.75
X200.75Y-92.2
X201.375Y-103.05
X201.375Y-104.75
X202.537Y-101.375
X202.65Y-103.05
X202.65Y-104.75
X202.725Y-99.725
X202.75Y-77.05
X202.75Y-81.95
X202.75Y-119.15
X202.75Y-123.95
X203.9Y-103.05
X203.9Y-104.725
X205.575Y-106.45
X205.625Y-103.9
X205.65Y-101.35
X205.675Y-102.625
X205.675Y-105.175
X205.675Y-107.637
X206.483Y-103.9
X206.488Y-102.63
X206.5Y-101.36
X206.525Y-105.17
X206.525Y-106.44
X210.95Y-109.475
X211.275Y-110.7
X212.25Y-100.2
X213.925Y-102.625
X213.925Y-105.2
X214.775Y-100.6
T4
X210.02Y-76.9
X210.02Y-79.44
X212.56Y-76.9
X212.56Y-79.44
X215.1Y-76.9
X215.1Y-79.44
X156.5Y-77.025
X159.04Y-77.025
X161.58Y-77.025
X164.12Y-77.025
T5
X104.52Y-98.624
X104.52Y-107.199
X109.52Y-112.874
X114.52Y-98.624
X119.52Y-112.874
X124.52Y-98.624
X124.52Y-104.299
X124.52Y-109.699
X127.32Y-98.624
X127.32Y-112.874
X129.52Y-112.874
X132.02Y-98.624
X132.02Y-112.874
X134.52Y-98.614
X137.02Y-98.624
X137.02Y-112.874
X139.52Y-112.874
X141.62Y-100.949
X141.62Y-105.749
X141.62Y-110.549
X203.8Y-85.05
X203.8Y-88.55
X203.8Y-92.05
X203.8Y-95.55
T0
M30
