%FSLAX45Y45*%
G04 Gerber Fmt 4.5, Leading zero omitted, Abs format (unit mm)*
G04 Created by KiCad (PCBNEW 5.0.2-5.fc29) date ven. 29 mars 2019 08:53:10 CET*
%MOMM*%
%LPD*%
G01*
G04 APERTURE LIST*
%ADD10C,0.150000*%
%ADD11C,0.200000*%
%ADD12C,0.300000*%
G04 APERTURE END LIST*
D10*
X15700000Y-12600000D02*
X10800000Y-12600000D01*
X16300000Y-12350000D02*
X16300000Y-12600000D01*
X15700000Y-12350000D02*
X16300000Y-12350000D01*
X15700000Y-12600000D02*
X15700000Y-12350000D01*
X10800000Y-12350000D02*
X10300000Y-12350000D01*
X10800000Y-12600000D02*
X10800000Y-12350000D01*
X21200000Y-12350000D02*
X21700000Y-12350000D01*
X21200000Y-12600000D02*
X21200000Y-12350000D01*
X10300000Y-7500000D02*
X10300000Y-12350000D01*
X21700000Y-7500000D02*
X10300000Y-7500000D01*
X21700000Y-12350000D02*
X21700000Y-7500000D01*
X16300000Y-12600000D02*
X21200000Y-12600000D01*
D11*
X13464489Y-10017360D02*
X13619489Y-10172360D01*
X13619489Y-10017360D02*
X13464489Y-10172360D01*
X13464489Y-10977360D02*
X13619489Y-11132360D01*
X13619489Y-10977360D02*
X13464489Y-11132360D01*
X16835000Y-7950000D02*
G75*
G03X16835000Y-7950000I-80000J0D01*
G01*
X11835000Y-12150000D02*
G75*
G03X11835000Y-12150000I-80000J0D01*
G01*
X15325000Y-12150000D02*
G75*
G03X15325000Y-12150000I-80000J0D01*
G01*
X16835000Y-12150000D02*
G75*
G03X16835000Y-12150000I-80000J0D01*
G01*
X20325000Y-12150000D02*
G75*
G03X20325000Y-12150000I-80000J0D01*
G01*
X20325000Y-7950000D02*
G75*
G03X20325000Y-7950000I-80000J0D01*
G01*
X11835000Y-7950000D02*
G75*
G03X11835000Y-7950000I-80000J0D01*
G01*
X15325000Y-7950000D02*
G75*
G03X15325000Y-7950000I-80000J0D01*
G01*
X21171000Y-8527500D02*
X21171000Y-8832500D01*
X21018500Y-8680000D02*
X21323500Y-8680000D01*
X21171000Y-9227500D02*
X21171000Y-9532500D01*
X21018500Y-9380000D02*
X21323500Y-9380000D01*
D12*
X10578928Y-13073214D02*
X10578928Y-12773214D01*
X10650357Y-12773214D01*
X10693214Y-12787500D01*
X10721786Y-12816071D01*
X10736071Y-12844643D01*
X10750357Y-12901786D01*
X10750357Y-12944643D01*
X10736071Y-13001786D01*
X10721786Y-13030357D01*
X10693214Y-13058929D01*
X10650357Y-13073214D01*
X10578928Y-13073214D01*
X10878928Y-13073214D02*
X10878928Y-12873214D01*
X10878928Y-12930357D02*
X10893214Y-12901786D01*
X10907500Y-12887500D01*
X10936071Y-12873214D01*
X10964643Y-12873214D01*
X11064643Y-13073214D02*
X11064643Y-12873214D01*
X11064643Y-12773214D02*
X11050357Y-12787500D01*
X11064643Y-12801786D01*
X11078928Y-12787500D01*
X11064643Y-12773214D01*
X11064643Y-12801786D01*
X11250357Y-13073214D02*
X11221786Y-13058929D01*
X11207500Y-13030357D01*
X11207500Y-12773214D01*
X11407500Y-13073214D02*
X11378928Y-13058929D01*
X11364643Y-13030357D01*
X11364643Y-12773214D01*
X11750357Y-13073214D02*
X11750357Y-12773214D01*
X11850357Y-12987500D01*
X11950357Y-12773214D01*
X11950357Y-13073214D01*
X12221786Y-13073214D02*
X12221786Y-12916071D01*
X12207500Y-12887500D01*
X12178928Y-12873214D01*
X12121786Y-12873214D01*
X12093214Y-12887500D01*
X12221786Y-13058929D02*
X12193214Y-13073214D01*
X12121786Y-13073214D01*
X12093214Y-13058929D01*
X12078928Y-13030357D01*
X12078928Y-13001786D01*
X12093214Y-12973214D01*
X12121786Y-12958929D01*
X12193214Y-12958929D01*
X12221786Y-12944643D01*
X12364643Y-12873214D02*
X12364643Y-13173214D01*
X12364643Y-12887500D02*
X12393214Y-12873214D01*
X12450357Y-12873214D01*
X12478928Y-12887500D01*
X12493214Y-12901786D01*
X12507500Y-12930357D01*
X12507500Y-13016071D01*
X12493214Y-13044643D01*
X12478928Y-13058929D01*
X12450357Y-13073214D01*
X12393214Y-13073214D01*
X12364643Y-13058929D01*
X12636071Y-13044643D02*
X12650357Y-13058929D01*
X12636071Y-13073214D01*
X12621786Y-13058929D01*
X12636071Y-13044643D01*
X12636071Y-13073214D01*
X12636071Y-12887500D02*
X12650357Y-12901786D01*
X12636071Y-12916071D01*
X12621786Y-12901786D01*
X12636071Y-12887500D01*
X12636071Y-12916071D01*
X10137500Y-13490000D02*
X10292500Y-13645000D01*
X10292500Y-13490000D02*
X10137500Y-13645000D01*
X10736071Y-13703214D02*
X10564643Y-13703214D01*
X10650357Y-13703214D02*
X10650357Y-13403214D01*
X10621786Y-13446071D01*
X10593214Y-13474643D01*
X10564643Y-13488929D01*
X10864643Y-13674643D02*
X10878928Y-13688929D01*
X10864643Y-13703214D01*
X10850357Y-13688929D01*
X10864643Y-13674643D01*
X10864643Y-13703214D01*
X11150357Y-13403214D02*
X11007500Y-13403214D01*
X10993214Y-13546071D01*
X11007500Y-13531786D01*
X11036071Y-13517500D01*
X11107500Y-13517500D01*
X11136071Y-13531786D01*
X11150357Y-13546071D01*
X11164643Y-13574643D01*
X11164643Y-13646071D01*
X11150357Y-13674643D01*
X11136071Y-13688929D01*
X11107500Y-13703214D01*
X11036071Y-13703214D01*
X11007500Y-13688929D01*
X10993214Y-13674643D01*
X11436071Y-13403214D02*
X11293214Y-13403214D01*
X11278928Y-13546071D01*
X11293214Y-13531786D01*
X11321786Y-13517500D01*
X11393214Y-13517500D01*
X11421786Y-13531786D01*
X11436071Y-13546071D01*
X11450357Y-13574643D01*
X11450357Y-13646071D01*
X11436071Y-13674643D01*
X11421786Y-13688929D01*
X11393214Y-13703214D01*
X11321786Y-13703214D01*
X11293214Y-13688929D01*
X11278928Y-13674643D01*
X11578928Y-13703214D02*
X11578928Y-13503214D01*
X11578928Y-13531786D02*
X11593214Y-13517500D01*
X11621786Y-13503214D01*
X11664643Y-13503214D01*
X11693214Y-13517500D01*
X11707500Y-13546071D01*
X11707500Y-13703214D01*
X11707500Y-13546071D02*
X11721786Y-13517500D01*
X11750357Y-13503214D01*
X11793214Y-13503214D01*
X11821786Y-13517500D01*
X11836071Y-13546071D01*
X11836071Y-13703214D01*
X11978928Y-13703214D02*
X11978928Y-13503214D01*
X11978928Y-13531786D02*
X11993214Y-13517500D01*
X12021786Y-13503214D01*
X12064643Y-13503214D01*
X12093214Y-13517500D01*
X12107500Y-13546071D01*
X12107500Y-13703214D01*
X12107500Y-13546071D02*
X12121786Y-13517500D01*
X12150357Y-13503214D01*
X12193214Y-13503214D01*
X12221786Y-13517500D01*
X12236071Y-13546071D01*
X12236071Y-13703214D01*
X12821786Y-13388929D02*
X12564643Y-13774643D01*
X13207500Y-13403214D02*
X13236071Y-13403214D01*
X13264643Y-13417500D01*
X13278928Y-13431786D01*
X13293214Y-13460357D01*
X13307500Y-13517500D01*
X13307500Y-13588929D01*
X13293214Y-13646071D01*
X13278928Y-13674643D01*
X13264643Y-13688929D01*
X13236071Y-13703214D01*
X13207500Y-13703214D01*
X13178928Y-13688929D01*
X13164643Y-13674643D01*
X13150357Y-13646071D01*
X13136071Y-13588929D01*
X13136071Y-13517500D01*
X13150357Y-13460357D01*
X13164643Y-13431786D01*
X13178928Y-13417500D01*
X13207500Y-13403214D01*
X13436071Y-13674643D02*
X13450357Y-13688929D01*
X13436071Y-13703214D01*
X13421786Y-13688929D01*
X13436071Y-13674643D01*
X13436071Y-13703214D01*
X13636071Y-13403214D02*
X13664643Y-13403214D01*
X13693214Y-13417500D01*
X13707500Y-13431786D01*
X13721786Y-13460357D01*
X13736071Y-13517500D01*
X13736071Y-13588929D01*
X13721786Y-13646071D01*
X13707500Y-13674643D01*
X13693214Y-13688929D01*
X13664643Y-13703214D01*
X13636071Y-13703214D01*
X13607500Y-13688929D01*
X13593214Y-13674643D01*
X13578928Y-13646071D01*
X13564643Y-13588929D01*
X13564643Y-13517500D01*
X13578928Y-13460357D01*
X13593214Y-13431786D01*
X13607500Y-13417500D01*
X13636071Y-13403214D01*
X13993214Y-13403214D02*
X13936071Y-13403214D01*
X13907500Y-13417500D01*
X13893214Y-13431786D01*
X13864643Y-13474643D01*
X13850357Y-13531786D01*
X13850357Y-13646071D01*
X13864643Y-13674643D01*
X13878928Y-13688929D01*
X13907500Y-13703214D01*
X13964643Y-13703214D01*
X13993214Y-13688929D01*
X14007500Y-13674643D01*
X14021786Y-13646071D01*
X14021786Y-13574643D01*
X14007500Y-13546071D01*
X13993214Y-13531786D01*
X13964643Y-13517500D01*
X13907500Y-13517500D01*
X13878928Y-13531786D01*
X13864643Y-13546071D01*
X13850357Y-13574643D01*
X14307500Y-13703214D02*
X14136071Y-13703214D01*
X14221786Y-13703214D02*
X14221786Y-13403214D01*
X14193214Y-13446071D01*
X14164643Y-13474643D01*
X14136071Y-13488929D01*
X14421786Y-13403214D02*
X14421786Y-13460357D01*
X14536071Y-13403214D02*
X14536071Y-13460357D01*
X14978928Y-13817500D02*
X14964643Y-13803214D01*
X14936071Y-13760357D01*
X14921786Y-13731786D01*
X14907500Y-13688929D01*
X14893214Y-13617500D01*
X14893214Y-13560357D01*
X14907500Y-13488929D01*
X14921786Y-13446071D01*
X14936071Y-13417500D01*
X14964643Y-13374643D01*
X14978928Y-13360357D01*
X15078928Y-13431786D02*
X15093214Y-13417500D01*
X15121786Y-13403214D01*
X15193214Y-13403214D01*
X15221786Y-13417500D01*
X15236071Y-13431786D01*
X15250357Y-13460357D01*
X15250357Y-13488929D01*
X15236071Y-13531786D01*
X15064643Y-13703214D01*
X15250357Y-13703214D01*
X15607500Y-13703214D02*
X15607500Y-13403214D01*
X15736071Y-13703214D02*
X15736071Y-13546071D01*
X15721786Y-13517500D01*
X15693214Y-13503214D01*
X15650357Y-13503214D01*
X15621786Y-13517500D01*
X15607500Y-13531786D01*
X15921786Y-13703214D02*
X15893214Y-13688929D01*
X15878928Y-13674643D01*
X15864643Y-13646071D01*
X15864643Y-13560357D01*
X15878928Y-13531786D01*
X15893214Y-13517500D01*
X15921786Y-13503214D01*
X15964643Y-13503214D01*
X15993214Y-13517500D01*
X16007500Y-13531786D01*
X16021786Y-13560357D01*
X16021786Y-13646071D01*
X16007500Y-13674643D01*
X15993214Y-13688929D01*
X15964643Y-13703214D01*
X15921786Y-13703214D01*
X16193214Y-13703214D02*
X16164643Y-13688929D01*
X16150357Y-13660357D01*
X16150357Y-13403214D01*
X16421786Y-13688929D02*
X16393214Y-13703214D01*
X16336071Y-13703214D01*
X16307500Y-13688929D01*
X16293214Y-13660357D01*
X16293214Y-13546071D01*
X16307500Y-13517500D01*
X16336071Y-13503214D01*
X16393214Y-13503214D01*
X16421786Y-13517500D01*
X16436071Y-13546071D01*
X16436071Y-13574643D01*
X16293214Y-13603214D01*
X16550357Y-13688929D02*
X16578928Y-13703214D01*
X16636071Y-13703214D01*
X16664643Y-13688929D01*
X16678928Y-13660357D01*
X16678928Y-13646071D01*
X16664643Y-13617500D01*
X16636071Y-13603214D01*
X16593214Y-13603214D01*
X16564643Y-13588929D01*
X16550357Y-13560357D01*
X16550357Y-13546071D01*
X16564643Y-13517500D01*
X16593214Y-13503214D01*
X16636071Y-13503214D01*
X16664643Y-13517500D01*
X16778928Y-13817500D02*
X16793214Y-13803214D01*
X16821786Y-13760357D01*
X16836071Y-13731786D01*
X16850357Y-13688929D01*
X16864643Y-13617500D01*
X16864643Y-13560357D01*
X16850357Y-13488929D01*
X16836071Y-13446071D01*
X16821786Y-13417500D01*
X16793214Y-13374643D01*
X16778928Y-13360357D01*
X17321786Y-13817500D02*
X17307500Y-13803214D01*
X17278928Y-13760357D01*
X17264643Y-13731786D01*
X17250357Y-13688929D01*
X17236071Y-13617500D01*
X17236071Y-13560357D01*
X17250357Y-13488929D01*
X17264643Y-13446071D01*
X17278928Y-13417500D01*
X17307500Y-13374643D01*
X17321786Y-13360357D01*
X17436071Y-13503214D02*
X17436071Y-13703214D01*
X17436071Y-13531786D02*
X17450357Y-13517500D01*
X17478928Y-13503214D01*
X17521786Y-13503214D01*
X17550357Y-13517500D01*
X17564643Y-13546071D01*
X17564643Y-13703214D01*
X17750357Y-13703214D02*
X17721786Y-13688929D01*
X17707500Y-13674643D01*
X17693214Y-13646071D01*
X17693214Y-13560357D01*
X17707500Y-13531786D01*
X17721786Y-13517500D01*
X17750357Y-13503214D01*
X17793214Y-13503214D01*
X17821786Y-13517500D01*
X17836071Y-13531786D01*
X17850357Y-13560357D01*
X17850357Y-13646071D01*
X17836071Y-13674643D01*
X17821786Y-13688929D01*
X17793214Y-13703214D01*
X17750357Y-13703214D01*
X17936071Y-13503214D02*
X18050357Y-13503214D01*
X17978928Y-13403214D02*
X17978928Y-13660357D01*
X17993214Y-13688929D01*
X18021786Y-13703214D01*
X18050357Y-13703214D01*
X18378928Y-13503214D02*
X18378928Y-13803214D01*
X18378928Y-13517500D02*
X18407500Y-13503214D01*
X18464643Y-13503214D01*
X18493214Y-13517500D01*
X18507500Y-13531786D01*
X18521786Y-13560357D01*
X18521786Y-13646071D01*
X18507500Y-13674643D01*
X18493214Y-13688929D01*
X18464643Y-13703214D01*
X18407500Y-13703214D01*
X18378928Y-13688929D01*
X18693214Y-13703214D02*
X18664643Y-13688929D01*
X18650357Y-13660357D01*
X18650357Y-13403214D01*
X18936071Y-13703214D02*
X18936071Y-13546071D01*
X18921786Y-13517500D01*
X18893214Y-13503214D01*
X18836071Y-13503214D01*
X18807500Y-13517500D01*
X18936071Y-13688929D02*
X18907500Y-13703214D01*
X18836071Y-13703214D01*
X18807500Y-13688929D01*
X18793214Y-13660357D01*
X18793214Y-13631786D01*
X18807500Y-13603214D01*
X18836071Y-13588929D01*
X18907500Y-13588929D01*
X18936071Y-13574643D01*
X19036071Y-13503214D02*
X19150357Y-13503214D01*
X19078928Y-13403214D02*
X19078928Y-13660357D01*
X19093214Y-13688929D01*
X19121786Y-13703214D01*
X19150357Y-13703214D01*
X19364643Y-13688929D02*
X19336071Y-13703214D01*
X19278928Y-13703214D01*
X19250357Y-13688929D01*
X19236071Y-13660357D01*
X19236071Y-13546071D01*
X19250357Y-13517500D01*
X19278928Y-13503214D01*
X19336071Y-13503214D01*
X19364643Y-13517500D01*
X19378928Y-13546071D01*
X19378928Y-13574643D01*
X19236071Y-13603214D01*
X19636071Y-13703214D02*
X19636071Y-13403214D01*
X19636071Y-13688929D02*
X19607500Y-13703214D01*
X19550357Y-13703214D01*
X19521786Y-13688929D01*
X19507500Y-13674643D01*
X19493214Y-13646071D01*
X19493214Y-13560357D01*
X19507500Y-13531786D01*
X19521786Y-13517500D01*
X19550357Y-13503214D01*
X19607500Y-13503214D01*
X19636071Y-13517500D01*
X19750357Y-13817500D02*
X19764643Y-13803214D01*
X19793214Y-13760357D01*
X19807500Y-13731786D01*
X19821786Y-13688929D01*
X19836071Y-13617500D01*
X19836071Y-13560357D01*
X19821786Y-13488929D01*
X19807500Y-13446071D01*
X19793214Y-13417500D01*
X19764643Y-13374643D01*
X19750357Y-13360357D01*
X10292500Y-13963500D02*
G75*
G03X10292500Y-13963500I-80000J0D01*
G01*
X10736071Y-14099214D02*
X10564643Y-14099214D01*
X10650357Y-14099214D02*
X10650357Y-13799214D01*
X10621786Y-13842071D01*
X10593214Y-13870643D01*
X10564643Y-13884929D01*
X10864643Y-14070643D02*
X10878928Y-14084929D01*
X10864643Y-14099214D01*
X10850357Y-14084929D01*
X10864643Y-14070643D01*
X10864643Y-14099214D01*
X11136071Y-13799214D02*
X11078928Y-13799214D01*
X11050357Y-13813500D01*
X11036071Y-13827786D01*
X11007500Y-13870643D01*
X10993214Y-13927786D01*
X10993214Y-14042071D01*
X11007500Y-14070643D01*
X11021786Y-14084929D01*
X11050357Y-14099214D01*
X11107500Y-14099214D01*
X11136071Y-14084929D01*
X11150357Y-14070643D01*
X11164643Y-14042071D01*
X11164643Y-13970643D01*
X11150357Y-13942071D01*
X11136071Y-13927786D01*
X11107500Y-13913500D01*
X11050357Y-13913500D01*
X11021786Y-13927786D01*
X11007500Y-13942071D01*
X10993214Y-13970643D01*
X11350357Y-13799214D02*
X11378928Y-13799214D01*
X11407500Y-13813500D01*
X11421786Y-13827786D01*
X11436071Y-13856357D01*
X11450357Y-13913500D01*
X11450357Y-13984929D01*
X11436071Y-14042071D01*
X11421786Y-14070643D01*
X11407500Y-14084929D01*
X11378928Y-14099214D01*
X11350357Y-14099214D01*
X11321786Y-14084929D01*
X11307500Y-14070643D01*
X11293214Y-14042071D01*
X11278928Y-13984929D01*
X11278928Y-13913500D01*
X11293214Y-13856357D01*
X11307500Y-13827786D01*
X11321786Y-13813500D01*
X11350357Y-13799214D01*
X11578928Y-14099214D02*
X11578928Y-13899214D01*
X11578928Y-13927786D02*
X11593214Y-13913500D01*
X11621786Y-13899214D01*
X11664643Y-13899214D01*
X11693214Y-13913500D01*
X11707500Y-13942071D01*
X11707500Y-14099214D01*
X11707500Y-13942071D02*
X11721786Y-13913500D01*
X11750357Y-13899214D01*
X11793214Y-13899214D01*
X11821786Y-13913500D01*
X11836071Y-13942071D01*
X11836071Y-14099214D01*
X11978928Y-14099214D02*
X11978928Y-13899214D01*
X11978928Y-13927786D02*
X11993214Y-13913500D01*
X12021786Y-13899214D01*
X12064643Y-13899214D01*
X12093214Y-13913500D01*
X12107500Y-13942071D01*
X12107500Y-14099214D01*
X12107500Y-13942071D02*
X12121786Y-13913500D01*
X12150357Y-13899214D01*
X12193214Y-13899214D01*
X12221786Y-13913500D01*
X12236071Y-13942071D01*
X12236071Y-14099214D01*
X12821786Y-13784929D02*
X12564643Y-14170643D01*
X13207500Y-13799214D02*
X13236071Y-13799214D01*
X13264643Y-13813500D01*
X13278928Y-13827786D01*
X13293214Y-13856357D01*
X13307500Y-13913500D01*
X13307500Y-13984929D01*
X13293214Y-14042071D01*
X13278928Y-14070643D01*
X13264643Y-14084929D01*
X13236071Y-14099214D01*
X13207500Y-14099214D01*
X13178928Y-14084929D01*
X13164643Y-14070643D01*
X13150357Y-14042071D01*
X13136071Y-13984929D01*
X13136071Y-13913500D01*
X13150357Y-13856357D01*
X13164643Y-13827786D01*
X13178928Y-13813500D01*
X13207500Y-13799214D01*
X13436071Y-14070643D02*
X13450357Y-14084929D01*
X13436071Y-14099214D01*
X13421786Y-14084929D01*
X13436071Y-14070643D01*
X13436071Y-14099214D01*
X13636071Y-13799214D02*
X13664643Y-13799214D01*
X13693214Y-13813500D01*
X13707500Y-13827786D01*
X13721786Y-13856357D01*
X13736071Y-13913500D01*
X13736071Y-13984929D01*
X13721786Y-14042071D01*
X13707500Y-14070643D01*
X13693214Y-14084929D01*
X13664643Y-14099214D01*
X13636071Y-14099214D01*
X13607500Y-14084929D01*
X13593214Y-14070643D01*
X13578928Y-14042071D01*
X13564643Y-13984929D01*
X13564643Y-13913500D01*
X13578928Y-13856357D01*
X13593214Y-13827786D01*
X13607500Y-13813500D01*
X13636071Y-13799214D01*
X13993214Y-13799214D02*
X13936071Y-13799214D01*
X13907500Y-13813500D01*
X13893214Y-13827786D01*
X13864643Y-13870643D01*
X13850357Y-13927786D01*
X13850357Y-14042071D01*
X13864643Y-14070643D01*
X13878928Y-14084929D01*
X13907500Y-14099214D01*
X13964643Y-14099214D01*
X13993214Y-14084929D01*
X14007500Y-14070643D01*
X14021786Y-14042071D01*
X14021786Y-13970643D01*
X14007500Y-13942071D01*
X13993214Y-13927786D01*
X13964643Y-13913500D01*
X13907500Y-13913500D01*
X13878928Y-13927786D01*
X13864643Y-13942071D01*
X13850357Y-13970643D01*
X14121786Y-13799214D02*
X14307500Y-13799214D01*
X14207500Y-13913500D01*
X14250357Y-13913500D01*
X14278928Y-13927786D01*
X14293214Y-13942071D01*
X14307500Y-13970643D01*
X14307500Y-14042071D01*
X14293214Y-14070643D01*
X14278928Y-14084929D01*
X14250357Y-14099214D01*
X14164643Y-14099214D01*
X14136071Y-14084929D01*
X14121786Y-14070643D01*
X14421786Y-13799214D02*
X14421786Y-13856357D01*
X14536071Y-13799214D02*
X14536071Y-13856357D01*
X14978928Y-14213500D02*
X14964643Y-14199214D01*
X14936071Y-14156357D01*
X14921786Y-14127786D01*
X14907500Y-14084929D01*
X14893214Y-14013500D01*
X14893214Y-13956357D01*
X14907500Y-13884929D01*
X14921786Y-13842071D01*
X14936071Y-13813500D01*
X14964643Y-13770643D01*
X14978928Y-13756357D01*
X15136071Y-13927786D02*
X15107500Y-13913500D01*
X15093214Y-13899214D01*
X15078928Y-13870643D01*
X15078928Y-13856357D01*
X15093214Y-13827786D01*
X15107500Y-13813500D01*
X15136071Y-13799214D01*
X15193214Y-13799214D01*
X15221786Y-13813500D01*
X15236071Y-13827786D01*
X15250357Y-13856357D01*
X15250357Y-13870643D01*
X15236071Y-13899214D01*
X15221786Y-13913500D01*
X15193214Y-13927786D01*
X15136071Y-13927786D01*
X15107500Y-13942071D01*
X15093214Y-13956357D01*
X15078928Y-13984929D01*
X15078928Y-14042071D01*
X15093214Y-14070643D01*
X15107500Y-14084929D01*
X15136071Y-14099214D01*
X15193214Y-14099214D01*
X15221786Y-14084929D01*
X15236071Y-14070643D01*
X15250357Y-14042071D01*
X15250357Y-13984929D01*
X15236071Y-13956357D01*
X15221786Y-13942071D01*
X15193214Y-13927786D01*
X15607500Y-14099214D02*
X15607500Y-13799214D01*
X15736071Y-14099214D02*
X15736071Y-13942071D01*
X15721786Y-13913500D01*
X15693214Y-13899214D01*
X15650357Y-13899214D01*
X15621786Y-13913500D01*
X15607500Y-13927786D01*
X15921786Y-14099214D02*
X15893214Y-14084929D01*
X15878928Y-14070643D01*
X15864643Y-14042071D01*
X15864643Y-13956357D01*
X15878928Y-13927786D01*
X15893214Y-13913500D01*
X15921786Y-13899214D01*
X15964643Y-13899214D01*
X15993214Y-13913500D01*
X16007500Y-13927786D01*
X16021786Y-13956357D01*
X16021786Y-14042071D01*
X16007500Y-14070643D01*
X15993214Y-14084929D01*
X15964643Y-14099214D01*
X15921786Y-14099214D01*
X16193214Y-14099214D02*
X16164643Y-14084929D01*
X16150357Y-14056357D01*
X16150357Y-13799214D01*
X16421786Y-14084929D02*
X16393214Y-14099214D01*
X16336071Y-14099214D01*
X16307500Y-14084929D01*
X16293214Y-14056357D01*
X16293214Y-13942071D01*
X16307500Y-13913500D01*
X16336071Y-13899214D01*
X16393214Y-13899214D01*
X16421786Y-13913500D01*
X16436071Y-13942071D01*
X16436071Y-13970643D01*
X16293214Y-13999214D01*
X16550357Y-14084929D02*
X16578928Y-14099214D01*
X16636071Y-14099214D01*
X16664643Y-14084929D01*
X16678928Y-14056357D01*
X16678928Y-14042071D01*
X16664643Y-14013500D01*
X16636071Y-13999214D01*
X16593214Y-13999214D01*
X16564643Y-13984929D01*
X16550357Y-13956357D01*
X16550357Y-13942071D01*
X16564643Y-13913500D01*
X16593214Y-13899214D01*
X16636071Y-13899214D01*
X16664643Y-13913500D01*
X16778928Y-14213500D02*
X16793214Y-14199214D01*
X16821786Y-14156357D01*
X16836071Y-14127786D01*
X16850357Y-14084929D01*
X16864643Y-14013500D01*
X16864643Y-13956357D01*
X16850357Y-13884929D01*
X16836071Y-13842071D01*
X16821786Y-13813500D01*
X16793214Y-13770643D01*
X16778928Y-13756357D01*
X17321786Y-14213500D02*
X17307500Y-14199214D01*
X17278928Y-14156357D01*
X17264643Y-14127786D01*
X17250357Y-14084929D01*
X17236071Y-14013500D01*
X17236071Y-13956357D01*
X17250357Y-13884929D01*
X17264643Y-13842071D01*
X17278928Y-13813500D01*
X17307500Y-13770643D01*
X17321786Y-13756357D01*
X17436071Y-13899214D02*
X17436071Y-14099214D01*
X17436071Y-13927786D02*
X17450357Y-13913500D01*
X17478928Y-13899214D01*
X17521786Y-13899214D01*
X17550357Y-13913500D01*
X17564643Y-13942071D01*
X17564643Y-14099214D01*
X17750357Y-14099214D02*
X17721786Y-14084929D01*
X17707500Y-14070643D01*
X17693214Y-14042071D01*
X17693214Y-13956357D01*
X17707500Y-13927786D01*
X17721786Y-13913500D01*
X17750357Y-13899214D01*
X17793214Y-13899214D01*
X17821786Y-13913500D01*
X17836071Y-13927786D01*
X17850357Y-13956357D01*
X17850357Y-14042071D01*
X17836071Y-14070643D01*
X17821786Y-14084929D01*
X17793214Y-14099214D01*
X17750357Y-14099214D01*
X17936071Y-13899214D02*
X18050357Y-13899214D01*
X17978928Y-13799214D02*
X17978928Y-14056357D01*
X17993214Y-14084929D01*
X18021786Y-14099214D01*
X18050357Y-14099214D01*
X18378928Y-13899214D02*
X18378928Y-14199214D01*
X18378928Y-13913500D02*
X18407500Y-13899214D01*
X18464643Y-13899214D01*
X18493214Y-13913500D01*
X18507500Y-13927786D01*
X18521786Y-13956357D01*
X18521786Y-14042071D01*
X18507500Y-14070643D01*
X18493214Y-14084929D01*
X18464643Y-14099214D01*
X18407500Y-14099214D01*
X18378928Y-14084929D01*
X18693214Y-14099214D02*
X18664643Y-14084929D01*
X18650357Y-14056357D01*
X18650357Y-13799214D01*
X18936071Y-14099214D02*
X18936071Y-13942071D01*
X18921786Y-13913500D01*
X18893214Y-13899214D01*
X18836071Y-13899214D01*
X18807500Y-13913500D01*
X18936071Y-14084929D02*
X18907500Y-14099214D01*
X18836071Y-14099214D01*
X18807500Y-14084929D01*
X18793214Y-14056357D01*
X18793214Y-14027786D01*
X18807500Y-13999214D01*
X18836071Y-13984929D01*
X18907500Y-13984929D01*
X18936071Y-13970643D01*
X19036071Y-13899214D02*
X19150357Y-13899214D01*
X19078928Y-13799214D02*
X19078928Y-14056357D01*
X19093214Y-14084929D01*
X19121786Y-14099214D01*
X19150357Y-14099214D01*
X19364643Y-14084929D02*
X19336071Y-14099214D01*
X19278928Y-14099214D01*
X19250357Y-14084929D01*
X19236071Y-14056357D01*
X19236071Y-13942071D01*
X19250357Y-13913500D01*
X19278928Y-13899214D01*
X19336071Y-13899214D01*
X19364643Y-13913500D01*
X19378928Y-13942071D01*
X19378928Y-13970643D01*
X19236071Y-13999214D01*
X19636071Y-14099214D02*
X19636071Y-13799214D01*
X19636071Y-14084929D02*
X19607500Y-14099214D01*
X19550357Y-14099214D01*
X19521786Y-14084929D01*
X19507500Y-14070643D01*
X19493214Y-14042071D01*
X19493214Y-13956357D01*
X19507500Y-13927786D01*
X19521786Y-13913500D01*
X19550357Y-13899214D01*
X19607500Y-13899214D01*
X19636071Y-13913500D01*
X19750357Y-14213500D02*
X19764643Y-14199214D01*
X19793214Y-14156357D01*
X19807500Y-14127786D01*
X19821786Y-14084929D01*
X19836071Y-14013500D01*
X19836071Y-13956357D01*
X19821786Y-13884929D01*
X19807500Y-13842071D01*
X19793214Y-13813500D01*
X19764643Y-13770643D01*
X19750357Y-13756357D01*
X10140000Y-14207000D02*
X10140000Y-14512000D01*
X9987500Y-14359500D02*
X10292500Y-14359500D01*
X10550357Y-14195214D02*
X10736071Y-14195214D01*
X10636071Y-14309500D01*
X10678928Y-14309500D01*
X10707500Y-14323786D01*
X10721786Y-14338071D01*
X10736071Y-14366643D01*
X10736071Y-14438071D01*
X10721786Y-14466643D01*
X10707500Y-14480929D01*
X10678928Y-14495214D01*
X10593214Y-14495214D01*
X10564643Y-14480929D01*
X10550357Y-14466643D01*
X10864643Y-14466643D02*
X10878928Y-14480929D01*
X10864643Y-14495214D01*
X10850357Y-14480929D01*
X10864643Y-14466643D01*
X10864643Y-14495214D01*
X11064643Y-14195214D02*
X11093214Y-14195214D01*
X11121786Y-14209500D01*
X11136071Y-14223786D01*
X11150357Y-14252357D01*
X11164643Y-14309500D01*
X11164643Y-14380929D01*
X11150357Y-14438071D01*
X11136071Y-14466643D01*
X11121786Y-14480929D01*
X11093214Y-14495214D01*
X11064643Y-14495214D01*
X11036071Y-14480929D01*
X11021786Y-14466643D01*
X11007500Y-14438071D01*
X10993214Y-14380929D01*
X10993214Y-14309500D01*
X11007500Y-14252357D01*
X11021786Y-14223786D01*
X11036071Y-14209500D01*
X11064643Y-14195214D01*
X11436071Y-14195214D02*
X11293214Y-14195214D01*
X11278928Y-14338071D01*
X11293214Y-14323786D01*
X11321786Y-14309500D01*
X11393214Y-14309500D01*
X11421786Y-14323786D01*
X11436071Y-14338071D01*
X11450357Y-14366643D01*
X11450357Y-14438071D01*
X11436071Y-14466643D01*
X11421786Y-14480929D01*
X11393214Y-14495214D01*
X11321786Y-14495214D01*
X11293214Y-14480929D01*
X11278928Y-14466643D01*
X11578928Y-14495214D02*
X11578928Y-14295214D01*
X11578928Y-14323786D02*
X11593214Y-14309500D01*
X11621786Y-14295214D01*
X11664643Y-14295214D01*
X11693214Y-14309500D01*
X11707500Y-14338071D01*
X11707500Y-14495214D01*
X11707500Y-14338071D02*
X11721786Y-14309500D01*
X11750357Y-14295214D01*
X11793214Y-14295214D01*
X11821786Y-14309500D01*
X11836071Y-14338071D01*
X11836071Y-14495214D01*
X11978928Y-14495214D02*
X11978928Y-14295214D01*
X11978928Y-14323786D02*
X11993214Y-14309500D01*
X12021786Y-14295214D01*
X12064643Y-14295214D01*
X12093214Y-14309500D01*
X12107500Y-14338071D01*
X12107500Y-14495214D01*
X12107500Y-14338071D02*
X12121786Y-14309500D01*
X12150357Y-14295214D01*
X12193214Y-14295214D01*
X12221786Y-14309500D01*
X12236071Y-14338071D01*
X12236071Y-14495214D01*
X12821786Y-14180929D02*
X12564643Y-14566643D01*
X13207500Y-14195214D02*
X13236071Y-14195214D01*
X13264643Y-14209500D01*
X13278928Y-14223786D01*
X13293214Y-14252357D01*
X13307500Y-14309500D01*
X13307500Y-14380929D01*
X13293214Y-14438071D01*
X13278928Y-14466643D01*
X13264643Y-14480929D01*
X13236071Y-14495214D01*
X13207500Y-14495214D01*
X13178928Y-14480929D01*
X13164643Y-14466643D01*
X13150357Y-14438071D01*
X13136071Y-14380929D01*
X13136071Y-14309500D01*
X13150357Y-14252357D01*
X13164643Y-14223786D01*
X13178928Y-14209500D01*
X13207500Y-14195214D01*
X13436071Y-14466643D02*
X13450357Y-14480929D01*
X13436071Y-14495214D01*
X13421786Y-14480929D01*
X13436071Y-14466643D01*
X13436071Y-14495214D01*
X13736071Y-14495214D02*
X13564643Y-14495214D01*
X13650357Y-14495214D02*
X13650357Y-14195214D01*
X13621786Y-14238071D01*
X13593214Y-14266643D01*
X13564643Y-14280929D01*
X13850357Y-14223786D02*
X13864643Y-14209500D01*
X13893214Y-14195214D01*
X13964643Y-14195214D01*
X13993214Y-14209500D01*
X14007500Y-14223786D01*
X14021786Y-14252357D01*
X14021786Y-14280929D01*
X14007500Y-14323786D01*
X13836071Y-14495214D01*
X14021786Y-14495214D01*
X14207500Y-14195214D02*
X14236071Y-14195214D01*
X14264643Y-14209500D01*
X14278928Y-14223786D01*
X14293214Y-14252357D01*
X14307500Y-14309500D01*
X14307500Y-14380929D01*
X14293214Y-14438071D01*
X14278928Y-14466643D01*
X14264643Y-14480929D01*
X14236071Y-14495214D01*
X14207500Y-14495214D01*
X14178928Y-14480929D01*
X14164643Y-14466643D01*
X14150357Y-14438071D01*
X14136071Y-14380929D01*
X14136071Y-14309500D01*
X14150357Y-14252357D01*
X14164643Y-14223786D01*
X14178928Y-14209500D01*
X14207500Y-14195214D01*
X14421786Y-14195214D02*
X14421786Y-14252357D01*
X14536071Y-14195214D02*
X14536071Y-14252357D01*
X14978928Y-14609500D02*
X14964643Y-14595214D01*
X14936071Y-14552357D01*
X14921786Y-14523786D01*
X14907500Y-14480929D01*
X14893214Y-14409500D01*
X14893214Y-14352357D01*
X14907500Y-14280929D01*
X14921786Y-14238071D01*
X14936071Y-14209500D01*
X14964643Y-14166643D01*
X14978928Y-14152357D01*
X15078928Y-14223786D02*
X15093214Y-14209500D01*
X15121786Y-14195214D01*
X15193214Y-14195214D01*
X15221786Y-14209500D01*
X15236071Y-14223786D01*
X15250357Y-14252357D01*
X15250357Y-14280929D01*
X15236071Y-14323786D01*
X15064643Y-14495214D01*
X15250357Y-14495214D01*
X15607500Y-14495214D02*
X15607500Y-14195214D01*
X15736071Y-14495214D02*
X15736071Y-14338071D01*
X15721786Y-14309500D01*
X15693214Y-14295214D01*
X15650357Y-14295214D01*
X15621786Y-14309500D01*
X15607500Y-14323786D01*
X15921786Y-14495214D02*
X15893214Y-14480929D01*
X15878928Y-14466643D01*
X15864643Y-14438071D01*
X15864643Y-14352357D01*
X15878928Y-14323786D01*
X15893214Y-14309500D01*
X15921786Y-14295214D01*
X15964643Y-14295214D01*
X15993214Y-14309500D01*
X16007500Y-14323786D01*
X16021786Y-14352357D01*
X16021786Y-14438071D01*
X16007500Y-14466643D01*
X15993214Y-14480929D01*
X15964643Y-14495214D01*
X15921786Y-14495214D01*
X16193214Y-14495214D02*
X16164643Y-14480929D01*
X16150357Y-14452357D01*
X16150357Y-14195214D01*
X16421786Y-14480929D02*
X16393214Y-14495214D01*
X16336071Y-14495214D01*
X16307500Y-14480929D01*
X16293214Y-14452357D01*
X16293214Y-14338071D01*
X16307500Y-14309500D01*
X16336071Y-14295214D01*
X16393214Y-14295214D01*
X16421786Y-14309500D01*
X16436071Y-14338071D01*
X16436071Y-14366643D01*
X16293214Y-14395214D01*
X16550357Y-14480929D02*
X16578928Y-14495214D01*
X16636071Y-14495214D01*
X16664643Y-14480929D01*
X16678928Y-14452357D01*
X16678928Y-14438071D01*
X16664643Y-14409500D01*
X16636071Y-14395214D01*
X16593214Y-14395214D01*
X16564643Y-14380929D01*
X16550357Y-14352357D01*
X16550357Y-14338071D01*
X16564643Y-14309500D01*
X16593214Y-14295214D01*
X16636071Y-14295214D01*
X16664643Y-14309500D01*
X16778928Y-14609500D02*
X16793214Y-14595214D01*
X16821786Y-14552357D01*
X16836071Y-14523786D01*
X16850357Y-14480929D01*
X16864643Y-14409500D01*
X16864643Y-14352357D01*
X16850357Y-14280929D01*
X16836071Y-14238071D01*
X16821786Y-14209500D01*
X16793214Y-14166643D01*
X16778928Y-14152357D01*
X17321786Y-14609500D02*
X17307500Y-14595214D01*
X17278928Y-14552357D01*
X17264643Y-14523786D01*
X17250357Y-14480929D01*
X17236071Y-14409500D01*
X17236071Y-14352357D01*
X17250357Y-14280929D01*
X17264643Y-14238071D01*
X17278928Y-14209500D01*
X17307500Y-14166643D01*
X17321786Y-14152357D01*
X17436071Y-14295214D02*
X17436071Y-14495214D01*
X17436071Y-14323786D02*
X17450357Y-14309500D01*
X17478928Y-14295214D01*
X17521786Y-14295214D01*
X17550357Y-14309500D01*
X17564643Y-14338071D01*
X17564643Y-14495214D01*
X17750357Y-14495214D02*
X17721786Y-14480929D01*
X17707500Y-14466643D01*
X17693214Y-14438071D01*
X17693214Y-14352357D01*
X17707500Y-14323786D01*
X17721786Y-14309500D01*
X17750357Y-14295214D01*
X17793214Y-14295214D01*
X17821786Y-14309500D01*
X17836071Y-14323786D01*
X17850357Y-14352357D01*
X17850357Y-14438071D01*
X17836071Y-14466643D01*
X17821786Y-14480929D01*
X17793214Y-14495214D01*
X17750357Y-14495214D01*
X17936071Y-14295214D02*
X18050357Y-14295214D01*
X17978928Y-14195214D02*
X17978928Y-14452357D01*
X17993214Y-14480929D01*
X18021786Y-14495214D01*
X18050357Y-14495214D01*
X18378928Y-14295214D02*
X18378928Y-14595214D01*
X18378928Y-14309500D02*
X18407500Y-14295214D01*
X18464643Y-14295214D01*
X18493214Y-14309500D01*
X18507500Y-14323786D01*
X18521786Y-14352357D01*
X18521786Y-14438071D01*
X18507500Y-14466643D01*
X18493214Y-14480929D01*
X18464643Y-14495214D01*
X18407500Y-14495214D01*
X18378928Y-14480929D01*
X18693214Y-14495214D02*
X18664643Y-14480929D01*
X18650357Y-14452357D01*
X18650357Y-14195214D01*
X18936071Y-14495214D02*
X18936071Y-14338071D01*
X18921786Y-14309500D01*
X18893214Y-14295214D01*
X18836071Y-14295214D01*
X18807500Y-14309500D01*
X18936071Y-14480929D02*
X18907500Y-14495214D01*
X18836071Y-14495214D01*
X18807500Y-14480929D01*
X18793214Y-14452357D01*
X18793214Y-14423786D01*
X18807500Y-14395214D01*
X18836071Y-14380929D01*
X18907500Y-14380929D01*
X18936071Y-14366643D01*
X19036071Y-14295214D02*
X19150357Y-14295214D01*
X19078928Y-14195214D02*
X19078928Y-14452357D01*
X19093214Y-14480929D01*
X19121786Y-14495214D01*
X19150357Y-14495214D01*
X19364643Y-14480929D02*
X19336071Y-14495214D01*
X19278928Y-14495214D01*
X19250357Y-14480929D01*
X19236071Y-14452357D01*
X19236071Y-14338071D01*
X19250357Y-14309500D01*
X19278928Y-14295214D01*
X19336071Y-14295214D01*
X19364643Y-14309500D01*
X19378928Y-14338071D01*
X19378928Y-14366643D01*
X19236071Y-14395214D01*
X19636071Y-14495214D02*
X19636071Y-14195214D01*
X19636071Y-14480929D02*
X19607500Y-14495214D01*
X19550357Y-14495214D01*
X19521786Y-14480929D01*
X19507500Y-14466643D01*
X19493214Y-14438071D01*
X19493214Y-14352357D01*
X19507500Y-14323786D01*
X19521786Y-14309500D01*
X19550357Y-14295214D01*
X19607500Y-14295214D01*
X19636071Y-14309500D01*
X19750357Y-14609500D02*
X19764643Y-14595214D01*
X19793214Y-14552357D01*
X19807500Y-14523786D01*
X19821786Y-14480929D01*
X19836071Y-14409500D01*
X19836071Y-14352357D01*
X19821786Y-14280929D01*
X19807500Y-14238071D01*
X19793214Y-14209500D01*
X19764643Y-14166643D01*
X19750357Y-14152357D01*
M02*
